# sent_id = train-v2-0
# text = På fredag har SID inviteret til reception i SID-huset i anledning af at formanden Kjeld Christensen går ind i de glade tressere.
'1	På	_	_	_
'2	fredag	_	_	_
'3	har	_	_	_
'4	SID	_	_	_
'5	inviteret	_	_	VERB
'6	til	_	_	_
'7	reception	_	_	_
'8	i	_	_	_
'9	SID-huset	_	_	_
'10	i	_	_	_
'11	anledning	_	_	_
'12	af	_	_	_
'13	at	_	_	_
'14	formanden	_	_	_
'15	Kjeld	_	_	_
'16	Christensen	_	_	_
'17	går	_	_	VERB
'18	ind	_	_	_
'19	i	_	_	_
'20	de	_	_	_
'21	glade	_	_	_
'22	tressere	nsp	_	_
'23	.	_	_	_

# sent_id = train-v2-1
# text = Eller slet og ret tykke og fede i mere eller mindre grad, som en enkelt udtrykker det.
'1	Eller	_	_	_
'2	slet	_	_	_
'3	og	_	_	_
'4	ret	_	_	_
'5	tykke	_	_	_
'6	og	_	_	_
'7	fede	_	_	_
'8	i	_	_	_
'9	mere	_	_	_
'10	eller	_	_	_
'11	mindre	_	_	_
'12	grad	nsp	_	_
'13	,	_	_	_
'14	som	_	_	_
'15	en	_	_	_
'16	enkelt	_	_	_
'17	udtrykker	_	_	VERB
'18	det	nsp	_	_
'19	.	_	_	_

# sent_id = train-v2-2
# text = Under rejser og ophold i udlandet følger sygeplejersker og hjælpere med.
'1	Under	_	_	_
'2	rejser	_	_	_
'3	og	_	_	_
'4	ophold	_	_	_
'5	i	_	_	_
'6	udlandet	_	_	_
'7	følger	_	_	VERB
'8	sygeplejersker	_	_	_
'9	og	_	_	_
'10	hjælpere	_	_	_
'11	med	nsp	_	_
'12	.	_	_	_

# sent_id = train-v2-3
# text = Hele det smukt restaurerede hus vrimler med børn - Elise Gug har selv tre - og andelsforeningen er så glad for selskabeligt samvær, at den har egen café og festlokale.
'1	Hele	_	_	_
'2	det	_	_	_
'3	smukt	_	_	_
'4	restaurerede	_	_	VERB
'5	hus	_	_	_
'6	vrimler	_	_	VERB
'7	med	_	_	_
'8	børn	_	_	_
'9	-	_	_	_
'10	Elise	_	_	_
'11	Gug	_	_	_
'12	har	_	_	VERB
'13	selv	_	_	_
'14	tre	_	_	_
'15	-	_	_	_
'16	og	_	_	_
'17	andelsforeningen	_	_	_
'18	er	_	_	_
'19	så	_	_	_
'20	glad	_	_	_
'21	for	_	_	_
'22	selskabeligt	_	_	_
'23	samvær	nsp	_	_
'24	,	_	_	_
'25	at	_	_	_
'26	den	_	_	_
'27	har	_	_	VERB
'28	egen	_	_	_
'29	café	_	_	_
'30	og	_	_	_
'31	festlokale	nsp	_	_
'32	.	_	_	_

# sent_id = train-v2-4
# text = Hun er selv på femte år lykkeligt gift med sin socialdemokratiske partifælle, Mogens Lykketoft.
'1	Hun	_	_	_
'2	er	_	_	_
'3	selv	_	_	_
'4	på	_	_	_
'5	femte	_	_	_
'6	år	_	_	_
'7	lykkeligt	_	_	_
'8	gift	_	_	_
'9	med	_	_	_
'10	sin	_	_	_
'11	socialdemokratiske	_	_	_
'12	partifælle	nsp	_	_
'13	,	_	_	_
'14	Mogens	_	_	_
'15	Lykketoft	nsp	_	_
'16	.	_	_	_

# sent_id = train-v2-5
# text = I 1983 ville en mand have navneforandring til Werwolf, men det fik han ikke lov til, for det betragtes som upassende og anstødeligt.
'1	I	_	_	_
'2	1983	_	_	_
'3	ville	_	_	_
'4	en	_	_	_
'5	mand	_	_	_
'6	have	_	_	VERB
'7	navneforandring	_	_	_
'8	til	_	_	_
'9	Werwolf	nsp	_	_
'10	,	_	_	_
'11	men	_	_	_
'12	det	_	_	_
'13	fik	_	_	VERB
'14	han	_	_	_
'15	ikke	_	_	_
'16	lov	_	_	_
'17	til	nsp	_	_
'18	,	_	_	_
'19	for	_	_	_
'20	det	_	_	_
'21	betragtes	_	_	VERB
'22	som	_	_	_
'23	upassende	_	_	_
'24	og	_	_	_
'25	anstødeligt	nsp	_	_
'26	.	_	_	_

# sent_id = train-v2-6
# text = Bare ikke i år, advarer lægerne
'1	Bare	_	_	_
'2	ikke	_	_	_
'3	i	_	_	_
'4	år	nsp	_	_
'5	,	_	_	_
'6	advarer	_	_	VERB
'7	lægerne	_	_	_

# sent_id = train-v2-7
# text = Kopieret
'1	Kopieret	_	_	VERB

# sent_id = train-v2-8
# text = Når forløbet i kommunalt regi slutter til december, håber hun, at hendes og mandens firma er vokset stort nok til, at hun kan blive ansat på fuld tid.
'1	Når	_	_	_
'2	forløbet	_	_	_
'3	i	_	_	_
'4	kommunalt	_	_	_
'5	regi	_	_	_
'6	slutter	_	_	VERB
'7	til	_	_	_
'8	december	nsp	_	_
'9	,	_	_	_
'10	håber	_	_	VERB
'11	hun	nsp	_	_
'12	,	_	_	_
'13	at	_	_	_
'14	hendes	_	_	_
'15	og	_	_	_
'16	mandens	_	_	_
'17	firma	_	_	_
'18	er	_	_	_
'19	vokset	_	_	VERB
'20	stort	_	_	_
'21	nok	_	_	_
'22	til	nsp	_	_
'23	,	_	_	_
'24	at	_	_	_
'25	hun	_	_	_
'26	kan	_	_	_
'27	blive	_	_	_
'28	ansat	_	_	VERB
'29	på	_	_	_
'30	fuld	_	_	_
'31	tid	nsp	_	_
'32	.	_	_	_

# sent_id = train-v2-9
# text = Den enestående bil vandt i denne specielle disciplin i konkurrence med 73 andre specialbyggede biler på Silverstone-banen i Storbritannien.
'1	Den	_	_	_
'2	enestående	_	_	_
'3	bil	_	_	_
'4	vandt	_	_	VERB
'5	i	_	_	_
'6	denne	_	_	_
'7	specielle	_	_	_
'8	disciplin	_	_	_
'9	i	_	_	_
'10	konkurrence	_	_	_
'11	med	_	_	_
'12	73	_	_	_
'13	andre	_	_	_
'14	specialbyggede	_	_	_
'15	biler	_	_	_
'16	på	_	_	_
'17	Silverstone-banen	_	_	_
'18	i	_	_	_
'19	Storbritannien	nsp	_	_
'20	.	_	_	_

# sent_id = train-v2-10
# text = Steen Gade siger, at SF ikke kan gå med til fælles forsvar, den økonomisk-monetære union, unionsborgerskab og dele af det retslige samarbejde.
'1	Steen	_	_	_
'2	Gade	_	_	_
'3	siger	nsp	_	VERB
'4	,	_	_	_
'5	at	_	_	_
'6	SF	_	_	_
'7	ikke	_	_	_
'8	kan	_	_	_
'9	gå	_	_	VERB
'10	med	_	_	_
'11	til	_	_	_
'12	fælles	_	_	_
'13	forsvar	nsp	_	_
'14	,	_	_	_
'15	den	_	_	_
'16	økonomisk-monetære	_	_	_
'17	union	nsp	_	_
'18	,	_	_	_
'19	unionsborgerskab	_	_	_
'20	og	_	_	_
'21	dele	_	_	_
'22	af	_	_	_
'23	det	_	_	_
'24	retslige	_	_	_
'25	samarbejde	nsp	_	_
'26	.	_	_	_

# sent_id = train-v2-11
# text = En anden satte ild til sig selv.
'1	En	_	_	_
'2	anden	_	_	_
'3	satte	_	_	VERB
'4	ild	_	_	_
'5	til	_	_	_
'6	sig	_	_	_
'7	selv	nsp	_	_
'8	.	_	_	_

# sent_id = train-v2-12
# text = Det er Peter Elmegaard, der sørger for at købe skoene hjem og står i butikken til hverdag.
'1	Det	_	_	_
'2	er	_	_	_
'3	Peter	_	_	_
'4	Elmegaard	nsp	_	_
'5	,	_	_	_
'6	der	_	_	_
'7	sørger	_	_	VERB
'8	for	_	_	_
'9	at	_	_	_
'10	købe	_	_	VERB
'11	skoene	_	_	_
'12	hjem	_	_	_
'13	og	_	_	_
'14	står	_	_	VERB
'15	i	_	_	_
'16	butikken	_	_	_
'17	til	_	_	_
'18	hverdag	nsp	_	_
'19	.	_	_	_

# sent_id = train-v2-13
# text = Foruden at være et tilløbsstykke for "klorofyl-turister" er Robinson Crusoe et paradis for dem, der kan lide hummer.
'1	Foruden	_	_	_
'2	at	_	_	_
'3	være	_	_	_
'4	et	_	_	_
'5	tilløbsstykke	_	_	_
'6	for	_	_	_
'7	"	nsp	_	_
'8	klorofyl-turister	nsp	_	_
'9	"	_	_	_
'10	er	_	_	_
'11	Robinson	_	_	_
'12	Crusoe	_	_	_
'13	et	_	_	_
'14	paradis	_	_	_
'15	for	_	_	_
'16	dem	nsp	_	_
'17	,	_	_	_
'18	der	_	_	_
'19	kan	_	_	_
'20	lide	_	_	VERB
'21	hummer	nsp	_	_
'22	.	_	_	_

# sent_id = train-v2-14
# text = Uden ble løber barnets diarré ned over pigens lår.
'1	Uden	_	_	_
'2	ble	_	_	_
'3	løber	_	_	VERB
'4	barnets	_	_	_
'5	diarré	_	_	_
'6	ned	_	_	_
'7	over	_	_	_
'8	pigens	_	_	_
'9	lår	nsp	_	_
'10	.	_	_	_

# sent_id = train-v2-15
# text = - De er s'gu ret flot, sagde jeg.
'1	-	_	_	_
'2	De	_	_	_
'3	er	_	_	_
'4	s'gu	_	_	_
'5	ret	_	_	_
'6	flot	nsp	_	_
'7	,	_	_	_
'8	sagde	_	_	VERB
'9	jeg	nsp	_	_
'10	.	_	_	_

# sent_id = train-v2-16
# text = De må lære at acceptere forskelligheder uden at udgrænse den.
'1	De	_	_	_
'2	må	_	_	_
'3	lære	_	_	VERB
'4	at	_	_	_
'5	acceptere	_	_	VERB
'6	forskelligheder	_	_	_
'7	uden	_	_	_
'8	at	_	_	_
'9	udgrænse	_	_	VERB
'10	den	nsp	_	_
'11	.	_	_	_

# sent_id = train-v2-17
# text = For otte millioner pund er byttet "Living Legend", hvor man bliver ført gennem hele historien med billeder, lyd, tåge, lyn, torden, storm og andre effekter.
'1	For	_	_	_
'2	otte	_	_	_
'3	millioner	_	_	_
'4	pund	_	_	_
'5	er	_	_	_
'6	byttet	_	_	_
'7	"	nsp	_	_
'8	Living	_	_	_
'9	Legend	nsp	_	_
'10	"	nsp	_	_
'11	,	_	_	_
'12	hvor	_	_	_
'13	man	_	_	_
'14	bliver	_	_	_
'15	ført	_	_	VERB
'16	gennem	_	_	_
'17	hele	_	_	_
'18	historien	_	_	_
'19	med	_	_	_
'20	billeder	nsp	_	_
'21	,	_	_	_
'22	lyd	nsp	_	_
'23	,	_	_	_
'24	tåge	nsp	_	_
'25	,	_	_	_
'26	lyn	nsp	_	_
'27	,	_	_	_
'28	torden	nsp	_	_
'29	,	_	_	_
'30	storm	_	_	_
'31	og	_	_	_
'32	andre	_	_	_
'33	effekter	nsp	_	_
'34	.	_	_	_

# sent_id = train-v2-18
# text = "Jeg vidste, at de kunne blive til et eller andet stort, så jeg gik hen og spurgte, om de kunne rappe."
'1	"	nsp	_	_
'2	Jeg	_	_	_
'3	vidste	nsp	_	VERB
'4	,	_	_	_
'5	at	_	_	_
'6	de	_	_	_
'7	kunne	_	_	_
'8	blive	_	_	VERB
'9	til	_	_	_
'10	et	_	_	_
'11	eller	_	_	_
'12	andet	_	_	_
'13	stort	nsp	_	_
'14	,	_	_	_
'15	så	_	_	_
'16	jeg	_	_	_
'17	gik	_	_	VERB
'18	hen	_	_	_
'19	og	_	_	_
'20	spurgte	nsp	_	VERB
'21	,	_	_	_
'22	om	_	_	_
'23	de	_	_	_
'24	kunne	_	_	_
'25	rappe	nsp	_	VERB
'26	.	nsp	_	_
'27	"	_	_	_

# sent_id = train-v2-19
# text = Alene i Hamburg skulle de have has på 750 ton ophobet skrald.
'1	Alene	_	_	_
'2	i	_	_	_
'3	Hamburg	_	_	_
'4	skulle	_	_	_
'5	de	_	_	_
'6	have	_	_	VERB
'7	has	_	_	_
'8	på	_	_	_
'9	750	_	_	_
'10	ton	_	_	_
'11	ophobet	_	_	VERB
'12	skrald	nsp	_	_
'13	.	_	_	_

# sent_id = train-v2-20
# text = - Få den UD AF MIN KANO! siger han.
'1	-	_	_	_
'2	Få	_	_	VERB
'3	den	_	_	_
'4	UD	_	_	_
'5	AF	_	_	_
'6	MIN	_	_	_
'7	KANO	nsp	_	_
'8	!	_	_	_
'9	siger	_	_	VERB
'10	han	nsp	_	_
'11	.	_	_	_

# sent_id = train-v2-21
# text = Navnlig, hvis forhandleren giver et godt bud på den brugte bil - og lokker med en fiks finansierings-model.
'1	Navnlig	nsp	_	_
'2	,	_	_	_
'3	hvis	_	_	_
'4	forhandleren	_	_	_
'5	giver	_	_	VERB
'6	et	_	_	_
'7	godt	_	_	_
'8	bud	_	_	_
'9	på	_	_	_
'10	den	_	_	_
'11	brugte	_	_	_
'12	bil	_	_	_
'13	-	_	_	_
'14	og	_	_	_
'15	lokker	_	_	VERB
'16	med	_	_	_
'17	en	_	_	_
'18	fiks	_	_	_
'19	finansierings-model	nsp	_	_
'20	.	_	_	_

# sent_id = train-v2-22
# text = Det drejer sig om 240 hektar og det område skal have karakter af en stor bypark.
'1	Det	_	_	_
'2	drejer	_	_	VERB
'3	sig	_	_	_
'4	om	_	_	_
'5	240	_	_	_
'6	hektar	_	_	_
'7	og	_	_	_
'8	det	_	_	_
'9	område	_	_	_
'10	skal	_	_	_
'11	have	_	_	VERB
'12	karakter	_	_	_
'13	af	_	_	_
'14	en	_	_	_
'15	stor	_	_	_
'16	bypark	nsp	_	_
'17	.	_	_	_

# sent_id = train-v2-23
# text = At rende med aviser som bibeskæftigelse kunne være lykken, hvis man også fik en rimelig løn ud af det
'1	At	_	_	_
'2	rende	_	_	VERB
'3	med	_	_	_
'4	aviser	_	_	_
'5	som	_	_	_
'6	bibeskæftigelse	_	_	_
'7	kunne	_	_	_
'8	være	_	_	_
'9	lykken	nsp	_	_
'10	,	_	_	_
'11	hvis	_	_	_
'12	man	_	_	_
'13	også	_	_	_
'14	fik	_	_	VERB
'15	en	_	_	_
'16	rimelig	_	_	_
'17	løn	_	_	_
'18	ud	_	_	_
'19	af	_	_	_
'20	det	_	_	_

# sent_id = train-v2-24
# text = Samlingen af hans artikler og foredrag fra de sidste ti år røber, at verden savner den ægte vare, romanen.
'1	Samlingen	_	_	_
'2	af	_	_	_
'3	hans	_	_	_
'4	artikler	_	_	_
'5	og	_	_	_
'6	foredrag	_	_	_
'7	fra	_	_	_
'8	de	_	_	_
'9	sidste	_	_	_
'10	ti	_	_	_
'11	år	_	_	_
'12	røber	nsp	_	VERB
'13	,	_	_	_
'14	at	_	_	_
'15	verden	_	_	_
'16	savner	_	_	VERB
'17	den	_	_	_
'18	ægte	_	_	_
'19	vare	nsp	_	_
'20	,	_	_	_
'21	romanen	nsp	_	_
'22	.	_	_	_

# sent_id = train-v2-25
# text = "Det er jo slet ikke noget ukendt fænomen, at mænd er blevet bidt i nævnte legemsdel.
'1	"	nsp	_	_
'2	Det	_	_	_
'3	er	_	_	_
'4	jo	_	_	_
'5	slet	_	_	_
'6	ikke	_	_	_
'7	noget	_	_	_
'8	ukendt	_	_	_
'9	fænomen	nsp	_	_
'10	,	_	_	_
'11	at	_	_	_
'12	mænd	_	_	_
'13	er	_	_	_
'14	blevet	_	_	_
'15	bidt	_	_	VERB
'16	i	_	_	_
'17	nævnte	_	_	VERB
'18	legemsdel	nsp	_	_
'19	.	_	_	_

# sent_id = train-v2-26
# text = Algerne ventes at dø i løbet af nogle uger, men forrådnelsen kræver så megen ilt, at fisk, der ikke i tide slipper væk, vil dø.-søwo
'1	Algerne	_	_	_
'2	ventes	_	_	VERB
'3	at	_	_	_
'4	dø	_	_	VERB
'5	i	_	_	_
'6	løbet	_	_	_
'7	af	_	_	_
'8	nogle	_	_	_
'9	uger	nsp	_	_
'10	,	_	_	_
'11	men	_	_	_
'12	forrådnelsen	_	_	_
'13	kræver	_	_	VERB
'14	så	_	_	_
'15	megen	_	_	_
'16	ilt	nsp	_	_
'17	,	_	_	_
'18	at	_	_	_
'19	fisk	nsp	_	_
'20	,	_	_	_
'21	der	_	_	_
'22	ikke	_	_	_
'23	i	_	_	_
'24	tide	_	_	_
'25	slipper	_	_	VERB
'26	væk	nsp	_	_
'27	,	_	_	_
'28	vil	_	_	VERB
'29	dø.-søwo	_	_	_

# sent_id = train-v2-27
# text = Nu har vi fået en ny justitsminister, som følger loven, men det vil de selvsamme partier ikke finde sig i.
'1	Nu	_	_	_
'2	har	_	_	_
'3	vi	_	_	_
'4	fået	_	_	VERB
'5	en	_	_	_
'6	ny	_	_	_
'7	justitsminister	nsp	_	_
'8	,	_	_	_
'9	som	_	_	_
'10	følger	_	_	VERB
'11	loven	nsp	_	_
'12	,	_	_	_
'13	men	_	_	_
'14	det	_	_	_
'15	vil	_	_	_
'16	de	_	_	_
'17	selvsamme	_	_	_
'18	partier	_	_	_
'19	ikke	_	_	_
'20	finde	_	_	VERB
'21	sig	_	_	_
'22	i	nsp	_	_
'23	.	_	_	_

# sent_id = train-v2-28
# text = Lærernes planer for den kommende 10. klasse bygger dels på elevernes ønsker og forventninger, dels på lærernes forestillinger om hvilke krav, der må stilles til et ungt menneske i 1987.
'1	Lærernes	_	_	_
'2	planer	_	_	_
'3	for	_	_	_
'4	den	_	_	_
'5	kommende	_	_	VERB
'6	10.	_	_	_
'7	klasse	_	_	_
'8	bygger	_	_	VERB
'9	dels	_	_	_
'10	på	_	_	_
'11	elevernes	_	_	_
'12	ønsker	_	_	_
'13	og	_	_	_
'14	forventninger	nsp	_	_
'15	,	_	_	_
'16	dels	_	_	_
'17	på	_	_	_
'18	lærernes	_	_	_
'19	forestillinger	_	_	_
'20	om	_	_	_
'21	hvilke	_	_	_
'22	krav	nsp	_	_
'23	,	_	_	_
'24	der	_	_	_
'25	må	_	_	_
'26	stilles	_	_	VERB
'27	til	_	_	_
'28	et	_	_	_
'29	ungt	_	_	_
'30	menneske	_	_	_
'31	i	_	_	_
'32	1987	nsp	_	_
'33	.	_	_	_

# sent_id = train-v2-29
# text = Berlingske Tidendes afslag kom først seks uger senere og lignede til forveksling afslaget fra Jyllands-Posten.
'1	Berlingske	_	_	_
'2	Tidendes	_	_	_
'3	afslag	_	_	_
'4	kom	_	_	VERB
'5	først	_	_	_
'6	seks	_	_	_
'7	uger	_	_	_
'8	senere	_	_	_
'9	og	_	_	_
'10	lignede	_	_	VERB
'11	til	_	_	_
'12	forveksling	_	_	_
'13	afslaget	_	_	_
'14	fra	_	_	_
'15	Jyllands-Posten	nsp	_	_
'16	.	_	_	_

# sent_id = train-v2-30
# text = Som nationalist nærer han had mod USA, og han ser sig selv som en general i en ny-nazistisk kamp mod amerikanerne.
'1	Som	_	_	_
'2	nationalist	_	_	_
'3	nærer	_	_	VERB
'4	han	_	_	_
'5	had	_	_	_
'6	mod	_	_	_
'7	USA	nsp	_	_
'8	,	_	_	_
'9	og	_	_	_
'10	han	_	_	_
'11	ser	_	_	VERB
'12	sig	_	_	_
'13	selv	_	_	_
'14	som	_	_	_
'15	en	_	_	_
'16	general	_	_	_
'17	i	_	_	_
'18	en	_	_	_
'19	ny-nazistisk	_	_	_
'20	kamp	_	_	_
'21	mod	_	_	_
'22	amerikanerne	nsp	_	_
'23	.	_	_	_

# sent_id = train-v2-31
# text = PRINSERNE ER MED
'1	PRINSERNE	_	_	_
'2	ER	_	_	_
'3	MED	_	_	_

# sent_id = train-v2-32
# text = Hvis der undertiden skulle stå noget vås i en film-anmeldelse, skyldes det altså ikke tidnød, selv om det naturligvis er mest bekvemt for anmelderne, hvis læserne tror det.
'1	Hvis	_	_	_
'2	der	_	_	_
'3	undertiden	_	_	_
'4	skulle	_	_	_
'5	stå	_	_	VERB
'6	noget	_	_	_
'7	vås	_	_	_
'8	i	_	_	_
'9	en	_	_	_
'10	film-anmeldelse	nsp	_	_
'11	,	_	_	_
'12	skyldes	_	_	VERB
'13	det	_	_	_
'14	altså	_	_	_
'15	ikke	_	_	_
'16	tidnød	nsp	_	_
'17	,	_	_	_
'18	selv	_	_	_
'19	om	_	_	_
'20	det	_	_	_
'21	naturligvis	_	_	_
'22	er	_	_	_
'23	mest	_	_	_
'24	bekvemt	_	_	_
'25	for	_	_	_
'26	anmelderne	nsp	_	_
'27	,	_	_	_
'28	hvis	_	_	_
'29	læserne	_	_	_
'30	tror	_	_	VERB
'31	det	nsp	_	_
'32	.	_	_	_

# sent_id = train-v2-33
# text = Stakken blev tæt på 2 meter høj og vejede 43,5 kg..
'1	Stakken	_	_	_
'2	blev	_	_	_
'3	tæt	_	_	_
'4	på	_	_	_
'5	2	_	_	_
'6	meter	_	_	_
'7	høj	_	_	_
'8	og	_	_	_
'9	vejede	_	_	VERB
'10	43,5	_	_	_
'11	kg.	nsp	_	_
'12	.	_	_	_

# sent_id = train-v2-34
# text = "Jeg tænkte, at det her lærer jeg bare ikke.
'1	"	nsp	_	_
'2	Jeg	_	_	_
'3	tænkte	nsp	_	VERB
'4	,	_	_	_
'5	at	_	_	_
'6	det	_	_	_
'7	her	_	_	_
'8	lærer	_	_	VERB
'9	jeg	_	_	_
'10	bare	_	_	_
'11	ikke	nsp	_	_
'12	.	_	_	_

# sent_id = train-v2-35
# text = I stuen ved siden af sad de andre foran fjernsynsapparatet og bekymrede sig næppe om hende.
'1	I	_	_	_
'2	stuen	_	_	_
'3	ved	_	_	_
'4	siden	_	_	_
'5	af	_	_	_
'6	sad	_	_	VERB
'7	de	_	_	_
'8	andre	_	_	_
'9	foran	_	_	_
'10	fjernsynsapparatet	_	_	_
'11	og	_	_	_
'12	bekymrede	_	_	VERB
'13	sig	_	_	_
'14	næppe	_	_	_
'15	om	_	_	_
'16	hende	nsp	_	_
'17	.	_	_	_

# sent_id = train-v2-36
# text = Karen Merete Bennike har skrevet fire populære lærebøger i spansk og fransk for gymnasierne.
'1	Karen	_	_	_
'2	Merete	_	_	_
'3	Bennike	_	_	_
'4	har	_	_	_
'5	skrevet	_	_	VERB
'6	fire	_	_	_
'7	populære	_	_	_
'8	lærebøger	_	_	_
'9	i	_	_	_
'10	spansk	_	_	_
'11	og	_	_	_
'12	fransk	_	_	_
'13	for	_	_	_
'14	gymnasierne	nsp	_	_
'15	.	_	_	_

# sent_id = train-v2-37
# text = Han giver mig alting: Bil, video, opvaskemaskine, stereoanlæg og tøj, men det kan jeg jo ikke tage med i seng.
'1	Han	_	_	_
'2	giver	_	_	VERB
'3	mig	_	_	_
'4	alting	nsp	_	_
'5	:	_	_	_
'6	Bil	nsp	_	_
'7	,	_	_	_
'8	video	nsp	_	_
'9	,	_	_	_
'10	opvaskemaskine	nsp	_	_
'11	,	_	_	_
'12	stereoanlæg	_	_	_
'13	og	_	_	_
'14	tøj	nsp	_	_
'15	,	_	_	_
'16	men	_	_	_
'17	det	_	_	_
'18	kan	_	_	_
'19	jeg	_	_	_
'20	jo	_	_	_
'21	ikke	_	_	_
'22	tage	_	_	VERB
'23	med	_	_	_
'24	i	_	_	_
'25	seng	nsp	_	_
'26	.	_	_	_

# sent_id = train-v2-38
# text = Samtidig fortsatte forhandlingerne om andre 84 soldater, der var taget til fange i Bosnien, skriver Reuter.
'1	Samtidig	_	_	_
'2	fortsatte	_	_	VERB
'3	forhandlingerne	_	_	_
'4	om	_	_	_
'5	andre	_	_	_
'6	84	_	_	_
'7	soldater	nsp	_	_
'8	,	_	_	_
'9	der	_	_	_
'10	var	_	_	_
'11	taget	_	_	VERB
'12	til	_	_	_
'13	fange	_	_	_
'14	i	_	_	_
'15	Bosnien	nsp	_	_
'16	,	_	_	_
'17	skriver	_	_	VERB
'18	Reuter	nsp	_	_
'19	.	_	_	_

# sent_id = train-v2-39
# text = Bestilte en ny omgang.
'1	Bestilte	_	_	VERB
'2	en	_	_	_
'3	ny	_	_	_
'4	omgang	nsp	_	_
'5	.	_	_	_

# sent_id = train-v2-40
# text = Ingen i besætningen har lyst til at tabe, "understreger Jesper Bank.
'1	Ingen	_	_	_
'2	i	_	_	_
'3	besætningen	_	_	_
'4	har	_	_	VERB
'5	lyst	_	_	_
'6	til	_	_	_
'7	at	_	_	_
'8	tabe	nsp	_	VERB
'9	,	_	_	_
'10	"	nsp	_	_
'11	understreger	_	_	VERB
'12	Jesper	_	_	_
'13	Bank	nsp	_	_
'14	.	_	_	_

# sent_id = train-v2-41
# text = Hun kiggede spørgende på ham.
'1	Hun	_	_	_
'2	kiggede	_	_	VERB
'3	spørgende	_	_	VERB
'4	på	_	_	_
'5	ham	nsp	_	_
'6	.	_	_	_

# sent_id = train-v2-42
# text = DSBs egne undersøgelser, som politimester J. P. Clausen, Næstved, modtog resultatet af i går, udpeger loko-føreren som den skyldige i togkollisionen på Næstved Station tidligt om morgenen den 25. september.
'1	DSBs	_	_	_
'2	egne	_	_	_
'3	undersøgelser	nsp	_	_
'4	,	_	_	_
'5	som	_	_	_
'6	politimester	_	_	_
'7	J.	_	_	_
'8	P.	_	_	_
'9	Clausen	nsp	_	_
'10	,	_	_	_
'11	Næstved	nsp	_	_
'12	,	_	_	_
'13	modtog	_	_	VERB
'14	resultatet	_	_	_
'15	af	_	_	_
'16	i	_	_	_
'17	går	nsp	_	_
'18	,	_	_	_
'19	udpeger	_	_	VERB
'20	loko-føreren	_	_	_
'21	som	_	_	_
'22	den	_	_	_
'23	skyldige	_	_	_
'24	i	_	_	_
'25	togkollisionen	_	_	_
'26	på	_	_	_
'27	Næstved	_	_	_
'28	Station	_	_	_
'29	tidligt	_	_	_
'30	om	_	_	_
'31	morgenen	_	_	_
'32	den	_	_	_
'33	25.	_	_	_
'34	september	nsp	_	_
'35	.	_	_	_

# sent_id = train-v2-43
# text = Forskellen på de to biler er, bortset fra det skrækkelige "hollandske udtræk" bag på Cosworth'en, transmissionen og visse udstyrsdetaljer, at RS 2000 har en fladere momentkurve end rallyraketten, der skal sparkes op i omdrejninger for få alle 227 hestekræfter i arbejde.
'1	Forskellen	_	_	_
'2	på	_	_	_
'3	de	_	_	_
'4	to	_	_	_
'5	biler	_	_	_
'6	er	nsp	_	VERB
'7	,	_	_	_
'8	bortset	_	_	VERB
'9	fra	_	_	_
'10	det	_	_	_
'11	skrækkelige	_	_	_
'12	"	nsp	_	_
'13	hollandske	_	_	_
'14	udtræk	nsp	_	_
'15	"	_	_	_
'16	bag	_	_	_
'17	på	_	_	_
'18	Cosworth'en	nsp	_	_
'19	,	_	_	_
'20	transmissionen	_	_	_
'21	og	_	_	_
'22	visse	_	_	_
'23	udstyrsdetaljer	nsp	_	_
'24	,	_	_	_
'25	at	_	_	_
'26	RS	_	_	_
'27	2000	_	_	_
'28	har	_	_	VERB
'29	en	_	_	_
'30	fladere	_	_	_
'31	momentkurve	_	_	_
'32	end	_	_	_
'33	rallyraketten	nsp	_	_
'34	,	_	_	_
'35	der	_	_	_
'36	skal	_	_	_
'37	sparkes	_	_	VERB
'38	op	_	_	_
'39	i	_	_	_
'40	omdrejninger	_	_	_
'41	for	_	_	_
'42	få	_	_	VERB
'43	alle	_	_	_
'44	227	_	_	_
'45	hestekræfter	_	_	_
'46	i	_	_	_
'47	arbejde	nsp	_	_
'48	.	_	_	_

# sent_id = train-v2-44
# text = Men når hun får opereret knæet, slipper hun for smerten.
'1	Men	_	_	_
'2	når	_	_	_
'3	hun	_	_	_
'4	får	_	_	VERB
'5	opereret	_	_	VERB
'6	knæet	nsp	_	_
'7	,	_	_	_
'8	slipper	_	_	VERB
'9	hun	_	_	_
'10	for	_	_	_
'11	smerten	nsp	_	_
'12	.	_	_	_

# sent_id = train-v2-45
# text = Tholstrup Cheese er den eneste danske producent af frisk pasta, men der går rygter i mejeribranchen om, at også en større brødproducent vil starte en produktion inden længe.
'1	Tholstrup	_	_	_
'2	Cheese	_	_	_
'3	er	_	_	_
'4	den	_	_	_
'5	eneste	_	_	_
'6	danske	_	_	_
'7	producent	_	_	_
'8	af	_	_	_
'9	frisk	_	_	_
'10	pasta	nsp	_	_
'11	,	_	_	_
'12	men	_	_	_
'13	der	_	_	_
'14	går	_	_	VERB
'15	rygter	_	_	_
'16	i	_	_	_
'17	mejeribranchen	_	_	_
'18	om	nsp	_	_
'19	,	_	_	_
'20	at	_	_	_
'21	også	_	_	_
'22	en	_	_	_
'23	større	_	_	_
'24	brødproducent	_	_	_
'25	vil	_	_	_
'26	starte	_	_	VERB
'27	en	_	_	_
'28	produktion	_	_	_
'29	inden	_	_	_
'30	længe	nsp	_	_
'31	.	_	_	_

# sent_id = train-v2-46
# text = Og der var flere drivhuse, og bag ham var der en bygning han kun havde set den mindste del af.
'1	Og	_	_	_
'2	der	_	_	_
'3	var	_	_	VERB
'4	flere	_	_	_
'5	drivhuse	nsp	_	_
'6	,	_	_	_
'7	og	_	_	_
'8	bag	_	_	_
'9	ham	_	_	_
'10	var	_	_	VERB
'11	der	_	_	_
'12	en	_	_	_
'13	bygning	_	_	_
'14	han	_	_	_
'15	kun	_	_	_
'16	havde	_	_	_
'17	set	_	_	VERB
'18	den	_	_	_
'19	mindste	_	_	_
'20	del	_	_	_
'21	af	nsp	_	_
'22	.	_	_	_

# sent_id = train-v2-47
# text = Måtten kom tilbage.
'1	Måtten	_	_	_
'2	kom	_	_	VERB
'3	tilbage	nsp	_	_
'4	.	_	_	_

# sent_id = train-v2-48
# text = Kun den orangegule norske Fanta, Solus, kan holde øjne og mund åbne.
'1	Kun	_	_	_
'2	den	_	_	_
'3	orangegule	_	_	_
'4	norske	_	_	_
'5	Fanta	nsp	_	_
'6	,	_	_	_
'7	Solus	nsp	_	_
'8	,	_	_	_
'9	kan	_	_	_
'10	holde	_	_	VERB
'11	øjne	_	_	_
'12	og	_	_	_
'13	mund	_	_	_
'14	åbne	nsp	_	_
'15	.	_	_	_

# sent_id = train-v2-49
# text = For går han hen og fumler med en mine, skal han alligevel først på infirmeriet.
'1	For	_	_	_
'2	går	_	_	VERB
'3	han	_	_	_
'4	hen	_	_	_
'5	og	_	_	_
'6	fumler	_	_	VERB
'7	med	_	_	_
'8	en	_	_	_
'9	mine	nsp	_	_
'10	,	_	_	_
'11	skal	_	_	VERB
'12	han	_	_	_
'13	alligevel	_	_	_
'14	først	_	_	_
'15	på	_	_	_
'16	infirmeriet	nsp	_	_
'17	.	_	_	_

# sent_id = train-v2-50
# text = Varerummet på en varebil er ikke et bagagerum på samme måde, som et aflåseligt bagagerum på en almindelig personbil, hvor man ikke kan se bagagen udefra.
'1	Varerummet	_	_	_
'2	på	_	_	_
'3	en	_	_	_
'4	varebil	_	_	_
'5	er	_	_	_
'6	ikke	_	_	_
'7	et	_	_	_
'8	bagagerum	_	_	_
'9	på	_	_	_
'10	samme	_	_	_
'11	måde	nsp	_	_
'12	,	_	_	_
'13	som	_	_	_
'14	et	_	_	_
'15	aflåseligt	_	_	_
'16	bagagerum	_	_	_
'17	på	_	_	_
'18	en	_	_	_
'19	almindelig	_	_	_
'20	personbil	nsp	_	_
'21	,	_	_	_
'22	hvor	_	_	_
'23	man	_	_	_
'24	ikke	_	_	_
'25	kan	_	_	_
'26	se	_	_	VERB
'27	bagagen	_	_	_
'28	udefra	nsp	_	_
'29	.	_	_	_

# sent_id = train-v2-51
# text = Efter at have flirtet lidt med malerkunst og journalistik satte hun sig selv på skolebænken for at ende som en meget succesfuld TV-instruktør.
'1	Efter	_	_	_
'2	at	_	_	_
'3	have	_	_	_
'4	flirtet	_	_	VERB
'5	lidt	_	_	_
'6	med	_	_	_
'7	malerkunst	_	_	_
'8	og	_	_	_
'9	journalistik	_	_	_
'10	satte	_	_	VERB
'11	hun	_	_	_
'12	sig	_	_	_
'13	selv	_	_	_
'14	på	_	_	_
'15	skolebænken	_	_	_
'16	for	_	_	_
'17	at	_	_	_
'18	ende	_	_	VERB
'19	som	_	_	_
'20	en	_	_	_
'21	meget	_	_	_
'22	succesfuld	_	_	_
'23	TV-instruktør	nsp	_	_
'24	.	_	_	_

# sent_id = train-v2-52
# text = Storsnudethed virker afrusende.
'1	Storsnudethed	_	_	_
'2	virker	_	_	VERB
'3	afrusende	nsp	_	_
'4	.	_	_	_

# sent_id = train-v2-53
# text = Induktion af elektrofelter:
'1	Induktion	_	_	_
'2	af	_	_	_
'3	elektrofelter	nsp	_	_
'4	:	_	_	_

# sent_id = train-v2-54
# text = Nye i BTCC
'1	Nye	_	_	_
'2	i	_	_	_
'3	BTCC	_	_	_

# sent_id = train-v2-55
# text = Ikke alene synger hun i Bakkens Hvile.
'1	Ikke	_	_	_
'2	alene	_	_	_
'3	synger	_	_	VERB
'4	hun	_	_	_
'5	i	_	_	_
'6	Bakkens	_	_	_
'7	Hvile	nsp	_	_
'8	.	_	_	_

# sent_id = train-v2-56
# text = Kunsthallen markerer jubilæet med en 90 centimeter høj bronze-figur af komponisten som dreng, vurderet til 50.000 kr..
'1	Kunsthallen	_	_	_
'2	markerer	_	_	VERB
'3	jubilæet	_	_	_
'4	med	_	_	_
'5	en	_	_	_
'6	90	_	_	_
'7	centimeter	_	_	_
'8	høj	_	_	_
'9	bronze-figur	_	_	_
'10	af	_	_	_
'11	komponisten	_	_	_
'12	som	_	_	_
'13	dreng	nsp	_	_
'14	,	_	_	_
'15	vurderet	_	_	VERB
'16	til	_	_	_
'17	50.000	_	_	_
'18	kr.	nsp	_	_
'19	.	_	_	_

# sent_id = train-v2-57
# text = Flere sygehuse til Østeuropa
'1	Flere	_	_	_
'2	sygehuse	_	_	_
'3	til	_	_	_
'4	Østeuropa	_	_	_

# sent_id = train-v2-58
# text = Det kræver dog, at hun laver en specifik træning af lårmusklerne med strækøvelser over en pølle, "siger ortopædkirurgen.
'1	Det	_	_	_
'2	kræver	_	_	VERB
'3	dog	nsp	_	_
'4	,	_	_	_
'5	at	_	_	_
'6	hun	_	_	_
'7	laver	_	_	VERB
'8	en	_	_	_
'9	specifik	_	_	_
'10	træning	_	_	_
'11	af	_	_	_
'12	lårmusklerne	_	_	_
'13	med	_	_	_
'14	strækøvelser	_	_	_
'15	over	_	_	_
'16	en	_	_	_
'17	pølle	nsp	_	_
'18	,	_	_	_
'19	"	nsp	_	_
'20	siger	_	_	VERB
'21	ortopædkirurgen	nsp	_	_
'22	.	_	_	_

# sent_id = train-v2-59
# text = Angrebet kom efter, at byen natten igennem var blevet ramt af 400 raketter.
'1	Angrebet	_	_	_
'2	kom	_	_	VERB
'3	efter	nsp	_	_
'4	,	_	_	_
'5	at	_	_	_
'6	byen	_	_	_
'7	natten	_	_	_
'8	igennem	_	_	_
'9	var	_	_	_
'10	blevet	_	_	_
'11	ramt	_	_	VERB
'12	af	_	_	_
'13	400	_	_	_
'14	raketter	nsp	_	_
'15	.	_	_	_

# sent_id = train-v2-60
# text = PROBLEMER
'1	PROBLEMER	_	_	_

# sent_id = train-v2-61
# text = Samme cifre, de norske piger tabte med i lørdags mod VMs værtsnation.
'1	Samme	_	_	_
'2	cifre	nsp	_	_
'3	,	_	_	_
'4	de	_	_	_
'5	norske	_	_	_
'6	piger	_	_	_
'7	tabte	_	_	VERB
'8	med	_	_	_
'9	i	_	_	_
'10	lørdags	_	_	_
'11	mod	_	_	_
'12	VMs	_	_	_
'13	værtsnation	nsp	_	_
'14	.	_	_	_

# sent_id = train-v2-62
# text = I Shell har man ingen planer om at lade en del af den blyholdige 98 oktan erstatte af blyfri.
'1	I	_	_	_
'2	Shell	_	_	_
'3	har	_	_	VERB
'4	man	_	_	_
'5	ingen	_	_	_
'6	planer	_	_	_
'7	om	_	_	_
'8	at	_	_	_
'9	lade	_	_	VERB
'10	en	_	_	_
'11	del	_	_	_
'12	af	_	_	_
'13	den	_	_	_
'14	blyholdige	_	_	_
'15	98	_	_	_
'16	oktan	_	_	_
'17	erstatte	_	_	VERB
'18	af	_	_	_
'19	blyfri	nsp	_	_
'20	.	_	_	_

# sent_id = train-v2-63
# text = Ved udgangen af juni beskæftigede de danske industrivirksomheder korrigeret for sæsonudsving godt 270.000 personer.
'1	Ved	_	_	_
'2	udgangen	_	_	_
'3	af	_	_	_
'4	juni	_	_	_
'5	beskæftigede	_	_	VERB
'6	de	_	_	_
'7	danske	_	_	_
'8	industrivirksomheder	_	_	_
'9	korrigeret	_	_	VERB
'10	for	_	_	_
'11	sæsonudsving	_	_	_
'12	godt	_	_	_
'13	270.000	_	_	_
'14	personer	nsp	_	_
'15	.	_	_	_

# sent_id = train-v2-64
# text = Mit hus er et lille skovløberhus bag en af de røde låger.
'1	Mit	_	_	_
'2	hus	_	_	_
'3	er	_	_	_
'4	et	_	_	_
'5	lille	_	_	_
'6	skovløberhus	_	_	_
'7	bag	_	_	_
'8	en	_	_	_
'9	af	_	_	_
'10	de	_	_	_
'11	røde	_	_	_
'12	låger	nsp	_	_
'13	.	_	_	_

# sent_id = train-v2-65
# text = Trods sine 23 år på bagen er "Spejldans" stadig en fascinerende og på mange måder rystende læseoplevelse.
'1	Trods	_	_	_
'2	sine	_	_	_
'3	23	_	_	_
'4	år	_	_	_
'5	på	_	_	_
'6	bagen	_	_	_
'7	er	_	_	_
'8	"	nsp	_	_
'9	Spejldans	nsp	_	_
'10	"	_	_	_
'11	stadig	_	_	_
'12	en	_	_	_
'13	fascinerende	_	_	VERB
'14	og	_	_	_
'15	på	_	_	_
'16	mange	_	_	_
'17	måder	_	_	_
'18	rystende	_	_	_
'19	læseoplevelse	nsp	_	_
'20	.	_	_	_

# sent_id = train-v2-66
# text = Århus Stiftstidende svarede, at man ikke var interesseret, idet en medarbejder alligevel snart skulle til området.
'1	Århus	_	_	_
'2	Stiftstidende	_	_	_
'3	svarede	nsp	_	VERB
'4	,	_	_	_
'5	at	_	_	_
'6	man	_	_	_
'7	ikke	_	_	_
'8	var	_	_	_
'9	interesseret	nsp	_	VERB
'10	,	_	_	_
'11	idet	_	_	_
'12	en	_	_	_
'13	medarbejder	_	_	_
'14	alligevel	_	_	_
'15	snart	_	_	_
'16	skulle	_	_	VERB
'17	til	_	_	_
'18	området	nsp	_	_
'19	.	_	_	_

# sent_id = train-v2-67
# text = De, der udførte bagholdsangrebet, er i øvrigt uden for vor direkte kontrol, "sagde han til den britiske tv-station Sky.
'1	De	nsp	_	_
'2	,	_	_	_
'3	der	_	_	_
'4	udførte	_	_	VERB
'5	bagholdsangrebet	nsp	_	_
'6	,	_	_	_
'7	er	_	_	_
'8	i	_	_	_
'9	øvrigt	_	_	_
'10	uden	_	_	_
'11	for	_	_	_
'12	vor	_	_	_
'13	direkte	_	_	_
'14	kontrol	nsp	_	_
'15	,	_	_	_
'16	"	nsp	_	_
'17	sagde	_	_	VERB
'18	han	_	_	_
'19	til	_	_	_
'20	den	_	_	_
'21	britiske	_	_	_
'22	tv-station	_	_	_
'23	Sky	nsp	_	_
'24	.	_	_	_

# sent_id = train-v2-68
# text = En anden blomsterhandler, Carsten Ove Dalsø Nielsen fra Carstens Blomster i Bredegade 55, Slagelse, har også modtaget henvendelser fra politiet.
'1	En	_	_	_
'2	anden	_	_	_
'3	blomsterhandler	nsp	_	_
'4	,	_	_	_
'5	Carsten	_	_	_
'6	Ove	_	_	_
'7	Dalsø	_	_	_
'8	Nielsen	_	_	_
'9	fra	_	_	_
'10	Carstens	_	_	_
'11	Blomster	_	_	_
'12	i	_	_	_
'13	Bredegade	_	_	_
'14	55	nsp	_	_
'15	,	_	_	_
'16	Slagelse	nsp	_	_
'17	,	_	_	_
'18	har	_	_	_
'19	også	_	_	_
'20	modtaget	_	_	VERB
'21	henvendelser	_	_	_
'22	fra	_	_	_
'23	politiet	nsp	_	_
'24	.	_	_	_

# sent_id = train-v2-69
# text = Erkendelsen faldt dog fra hinanden efter grundige afhøringer hos politiet.
'1	Erkendelsen	_	_	_
'2	faldt	_	_	VERB
'3	dog	_	_	_
'4	fra	_	_	_
'5	hinanden	_	_	_
'6	efter	_	_	_
'7	grundige	_	_	_
'8	afhøringer	_	_	_
'9	hos	_	_	_
'10	politiet	nsp	_	_
'11	.	_	_	_

# sent_id = train-v2-70
# text = Jeg fik blot besked om, at der overhovedet ikke var nogen problemer.
'1	Jeg	_	_	_
'2	fik	_	_	VERB
'3	blot	_	_	_
'4	besked	_	_	_
'5	om	nsp	_	_
'6	,	_	_	_
'7	at	_	_	_
'8	der	_	_	_
'9	overhovedet	_	_	_
'10	ikke	_	_	_
'11	var	_	_	VERB
'12	nogen	_	_	_
'13	problemer	nsp	_	_
'14	.	_	_	_

# sent_id = train-v2-71
# text = Men vi er stærkt knyttet til hinanden.
'1	Men	_	_	_
'2	vi	_	_	_
'3	er	_	_	_
'4	stærkt	_	_	_
'5	knyttet	_	_	VERB
'6	til	_	_	_
'7	hinanden	nsp	_	_
'8	.	_	_	_

# sent_id = train-v2-72
# text = Blandt fodboldspillerne i den fysisk krævende EM-turnering er der stor professionel medfølelse med den uheldige sportsmand.
'1	Blandt	_	_	_
'2	fodboldspillerne	_	_	_
'3	i	_	_	_
'4	den	_	_	_
'5	fysisk	_	_	_
'6	krævende	_	_	_
'7	EM-turnering	_	_	_
'8	er	_	_	VERB
'9	der	_	_	_
'10	stor	_	_	_
'11	professionel	_	_	_
'12	medfølelse	_	_	_
'13	med	_	_	_
'14	den	_	_	_
'15	uheldige	_	_	_
'16	sportsmand	nsp	_	_
'17	.	_	_	_

# sent_id = train-v2-73
# text = Skolens arbejde med elektronisk post muliggøres af et abonnement på et elektronisk netværk med knudepunkter over hele verden, EARN-nettet (European Academic Research Network).
'1	Skolens	_	_	_
'2	arbejde	_	_	_
'3	med	_	_	_
'4	elektronisk	_	_	_
'5	post	_	_	_
'6	muliggøres	_	_	VERB
'7	af	_	_	_
'8	et	_	_	_
'9	abonnement	_	_	_
'10	på	_	_	_
'11	et	_	_	_
'12	elektronisk	_	_	_
'13	netværk	_	_	_
'14	med	_	_	_
'15	knudepunkter	_	_	_
'16	over	_	_	_
'17	hele	_	_	_
'18	verden	nsp	_	_
'19	,	_	_	_
'20	EARN-nettet	_	_	_
'21	(	nsp	_	_
'22	European	_	_	_
'23	Academic	_	_	_
'24	Research	_	_	_
'25	Network	nsp	_	_
'26	)	nsp	_	_
'27	.	_	_	_

# sent_id = train-v2-74
# text = Lars svarede, at det var svært at sige.
'1	Lars	_	_	_
'2	svarede	nsp	_	VERB
'3	,	_	_	_
'4	at	_	_	_
'5	det	_	_	_
'6	var	_	_	_
'7	svært	_	_	_
'8	at	_	_	_
'9	sige	nsp	_	VERB
'10	.	_	_	_

# sent_id = train-v2-75
# text = Selv særligt begavede børn bliver nødt til at leve i det samfund vi har, de kan jo ikke melde sig ud.
'1	Selv	_	_	_
'2	særligt	_	_	_
'3	begavede	_	_	_
'4	børn	_	_	_
'5	bliver	_	_	_
'6	nødt	_	_	_
'7	til	_	_	_
'8	at	_	_	_
'9	leve	_	_	VERB
'10	i	_	_	_
'11	det	_	_	_
'12	samfund	_	_	_
'13	vi	_	_	_
'14	har	nsp	_	_
'15	,	_	_	_
'16	de	_	_	_
'17	kan	_	_	_
'18	jo	_	_	_
'19	ikke	_	_	_
'20	melde	_	_	VERB
'21	sig	_	_	_
'22	ud	nsp	_	_
'23	.	_	_	_

# sent_id = train-v2-76
# text = Det et-motorede Cessna 172 fly med plads til fire personer havde da retning mod en række fire meter høje buske.
'1	Det	_	_	_
'2	et-motorede	_	_	_
'3	Cessna	_	_	_
'4	172	_	_	_
'5	fly	_	_	_
'6	med	_	_	_
'7	plads	_	_	_
'8	til	_	_	_
'9	fire	_	_	_
'10	personer	_	_	_
'11	havde	_	_	VERB
'12	da	_	_	_
'13	retning	_	_	_
'14	mod	_	_	_
'15	en	_	_	_
'16	række	_	_	_
'17	fire	_	_	_
'18	meter	_	_	_
'19	høje	_	_	_
'20	buske	nsp	_	_
'21	.	_	_	_

# sent_id = train-v2-77
# text = Så enkelt kan Unibanks problem formuleres, og i et forsøg på at få skabt tillid blev Unibanks direktør, 52-årige Steen Rasborg i går fyret med en afskedsgave på ca. ni millioner kroner.
'1	Så	_	_	_
'2	enkelt	_	_	_
'3	kan	_	_	_
'4	Unibanks	_	_	_
'5	problem	_	_	_
'6	formuleres	nsp	_	VERB
'7	,	_	_	_
'8	og	_	_	_
'9	i	_	_	_
'10	et	_	_	_
'11	forsøg	_	_	_
'12	på	_	_	_
'13	at	_	_	_
'14	få	_	_	VERB
'15	skabt	_	_	VERB
'16	tillid	_	_	_
'17	blev	_	_	_
'18	Unibanks	_	_	_
'19	direktør	nsp	_	_
'20	,	_	_	_
'21	52-årige	_	_	_
'22	Steen	_	_	_
'23	Rasborg	_	_	_
'24	i	_	_	_
'25	går	_	_	_
'26	fyret	_	_	VERB
'27	med	_	_	_
'28	en	_	_	_
'29	afskedsgave	_	_	_
'30	på	_	_	_
'31	ca.	_	_	_
'32	ni	_	_	_
'33	millioner	_	_	_
'34	kroner	nsp	_	_
'35	.	_	_	_

# sent_id = train-v2-78
# text = At højden over for- og bagsæde er mindsket med hhv. 10 og 8 mm, og at bredden i skulderhøjde for/bag tabte hhv. 4 og 10 mm..
'1	At	_	_	_
'2	højden	_	_	_
'3	over	_	_	_
'4	for-	_	_	_
'5	og	_	_	_
'6	bagsæde	_	_	_
'7	er	_	_	VERB
'8	mindsket	_	_	VERB
'9	med	_	_	_
'10	hhv.	_	_	_
'11	10	_	_	_
'12	og	_	_	_
'13	8	_	_	_
'14	mm	nsp	_	_
'15	,	_	_	_
'16	og	_	_	_
'17	at	_	_	_
'18	bredden	_	_	_
'19	i	_	_	_
'20	skulderhøjde	_	_	_
'21	for/bag	_	_	_
'22	tabte	_	_	VERB
'23	hhv.	_	_	_
'24	4	_	_	_
'25	og	_	_	_
'26	10	_	_	_
'27	mm.	nsp	_	_
'28	.	_	_	_

# sent_id = train-v2-79
# text = Så skal der rafles om husholdningspengene.
'1	Så	_	_	_
'2	skal	_	_	_
'3	der	_	_	_
'4	rafles	_	_	VERB
'5	om	_	_	_
'6	husholdningspengene	nsp	_	_
'7	.	_	_	_

# sent_id = train-v2-80
# text = Derfor tæller modelprogrammet foreløbig kun Legacy.
'1	Derfor	_	_	_
'2	tæller	_	_	VERB
'3	modelprogrammet	_	_	_
'4	foreløbig	_	_	_
'5	kun	_	_	_
'6	Legacy	nsp	_	_
'7	.	_	_	_

# sent_id = train-v2-81
# text = Edeling og Robert udviklede ikke mindst i 1970'erne en række nye trykteknikker, hvorved man på en helt ny måde kunne fastholde metallets stoflighed i det grafiske tryk.
'1	Edeling	_	_	_
'2	og	_	_	_
'3	Robert	_	_	_
'4	udviklede	_	_	VERB
'5	ikke	_	_	_
'6	mindst	_	_	_
'7	i	_	_	_
'8	1970'erne	_	_	_
'9	en	_	_	_
'10	række	_	_	_
'11	nye	_	_	_
'12	trykteknikker	nsp	_	_
'13	,	_	_	_
'14	hvorved	_	_	_
'15	man	_	_	_
'16	på	_	_	_
'17	en	_	_	_
'18	helt	_	_	_
'19	ny	_	_	_
'20	måde	_	_	_
'21	kunne	_	_	_
'22	fastholde	_	_	VERB
'23	metallets	_	_	_
'24	stoflighed	_	_	_
'25	i	_	_	_
'26	det	_	_	_
'27	grafiske	_	_	_
'28	tryk	nsp	_	_
'29	.	_	_	_

# sent_id = train-v2-82
# text = Dialog med undertekst, og en klart defineret fortællersynsvinkel, de to virkemidler lå i impressionismens prosa.
'1	Dialog	_	_	_
'2	med	_	_	_
'3	undertekst	nsp	_	_
'4	,	_	_	_
'5	og	_	_	_
'6	en	_	_	_
'7	klart	_	_	_
'8	defineret	_	_	VERB
'9	fortællersynsvinkel	nsp	_	_
'10	,	_	_	_
'11	de	_	_	_
'12	to	_	_	_
'13	virkemidler	_	_	_
'14	lå	_	_	VERB
'15	i	_	_	_
'16	impressionismens	_	_	_
'17	prosa	nsp	_	_
'18	.	_	_	_

# sent_id = train-v2-83
# text = Desværre er det jo kommunerne, der vurderer de ældres behov - og de anlægger en økonomisk synsvinkel.
'1	Desværre	_	_	_
'2	er	_	_	_
'3	det	_	_	_
'4	jo	_	_	_
'5	kommunerne	nsp	_	_
'6	,	_	_	_
'7	der	_	_	_
'8	vurderer	_	_	VERB
'9	de	_	_	_
'10	ældres	_	_	_
'11	behov	_	_	_
'12	-	_	_	_
'13	og	_	_	_
'14	de	_	_	_
'15	anlægger	_	_	VERB
'16	en	_	_	_
'17	økonomisk	_	_	_
'18	synsvinkel	nsp	_	_
'19	.	_	_	_

# sent_id = train-v2-84
# text = Og de er begge fuld af gå-på-mod og har store ambitioner.
'1	Og	_	_	_
'2	de	_	_	_
'3	er	_	_	_
'4	begge	_	_	_
'5	fuld	_	_	_
'6	af	_	_	_
'7	gå-på-mod	_	_	_
'8	og	_	_	_
'9	har	_	_	VERB
'10	store	_	_	_
'11	ambitioner	nsp	_	_
'12	.	_	_	_

# sent_id = train-v2-85
# text = hel
'1	hel	_	_	_

# sent_id = train-v2-86
# text = Men privat er Jason Priestley absolut ingen duksedreng.
'1	Men	_	_	_
'2	privat	_	_	_
'3	er	_	_	_
'4	Jason	_	_	_
'5	Priestley	_	_	_
'6	absolut	_	_	_
'7	ingen	_	_	_
'8	duksedreng	nsp	_	_
'9	.	_	_	_

# sent_id = train-v2-87
# text = Elektronisk netværk - og netværk af skoler
'1	Elektronisk	_	_	_
'2	netværk	_	_	_
'3	-	_	_	_
'4	og	_	_	_
'5	netværk	_	_	_
'6	af	_	_	_
'7	skoler	_	_	_

# sent_id = train-v2-88
# text = Usikkerheden om programmernes tidshorisont og uhensigtsmæssige finansieringsformer vanskeliggør en konsolidering af forskningen på langt sigt, fastslår rådene i deres rapport.
'1	Usikkerheden	_	_	_
'2	om	_	_	_
'3	programmernes	_	_	_
'4	tidshorisont	_	_	_
'5	og	_	_	_
'6	uhensigtsmæssige	_	_	_
'7	finansieringsformer	_	_	_
'8	vanskeliggør	_	_	VERB
'9	en	_	_	_
'10	konsolidering	_	_	_
'11	af	_	_	_
'12	forskningen	_	_	_
'13	på	_	_	_
'14	langt	_	_	_
'15	sigt	nsp	_	_
'16	,	_	_	_
'17	fastslår	_	_	VERB
'18	rådene	_	_	_
'19	i	_	_	_
'20	deres	_	_	_
'21	rapport	nsp	_	_
'22	.	_	_	_

# sent_id = train-v2-89
# text = Venerne kan også have svært ved at føre blodet tilbage til hjertet, og i så fald hobes blodet op, og benene hæver.
'1	Venerne	_	_	_
'2	kan	_	_	_
'3	også	_	_	_
'4	have	_	_	VERB
'5	svært	_	_	_
'6	ved	_	_	_
'7	at	_	_	_
'8	føre	_	_	VERB
'9	blodet	_	_	_
'10	tilbage	_	_	_
'11	til	_	_	_
'12	hjertet	nsp	_	_
'13	,	_	_	_
'14	og	_	_	_
'15	i	_	_	_
'16	så	_	_	_
'17	fald	_	_	_
'18	hobes	_	_	VERB
'19	blodet	_	_	_
'20	op	nsp	_	_
'21	,	_	_	_
'22	og	_	_	_
'23	benene	_	_	_
'24	hæver	nsp	_	VERB
'25	.	_	_	_

# sent_id = train-v2-90
# text = KURS MOD BUSKE
'1	KURS	_	_	_
'2	MOD	_	_	_
'3	BUSKE	_	_	_

# sent_id = train-v2-91
# text = Muligheder i mange fag
'1	Muligheder	_	_	_
'2	i	_	_	_
'3	mange	_	_	_
'4	fag	_	_	_

# sent_id = train-v2-92
# text = Han mener, at det er på tide at bede USA om at standse krigen militært.
'1	Han	_	_	_
'2	mener	nsp	_	VERB
'3	,	_	_	_
'4	at	_	_	_
'5	det	_	_	_
'6	er	_	_	_
'7	på	_	_	_
'8	tide	_	_	_
'9	at	_	_	_
'10	bede	_	_	VERB
'11	USA	_	_	_
'12	om	_	_	_
'13	at	_	_	_
'14	standse	_	_	VERB
'15	krigen	_	_	_
'16	militært	nsp	_	_
'17	.	_	_	_

# sent_id = train-v2-93
# text = - Og det er mig, der hedder Anni, sagde Anni og hoppede og dansede på fødderne.
'1	-	_	_	_
'2	Og	_	_	_
'3	det	_	_	_
'4	er	_	_	_
'5	mig	nsp	_	_
'6	,	_	_	_
'7	der	_	_	_
'8	hedder	_	_	VERB
'9	Anni	nsp	_	_
'10	,	_	_	_
'11	sagde	_	_	VERB
'12	Anni	_	_	_
'13	og	_	_	_
'14	hoppede	_	_	VERB
'15	og	_	_	_
'16	dansede	_	_	VERB
'17	på	_	_	_
'18	fødderne	nsp	_	_
'19	.	_	_	_

# sent_id = train-v2-94
# text = Europæerne skulle være intelligente nok.
'1	Europæerne	_	_	_
'2	skulle	_	_	_
'3	være	_	_	_
'4	intelligente	_	_	_
'5	nok	nsp	_	_
'6	.	_	_	_

# sent_id = train-v2-95
# text = Svendsen kører derud i ambulancen.
'1	Svendsen	_	_	_
'2	kører	_	_	VERB
'3	derud	_	_	_
'4	i	_	_	_
'5	ambulancen	nsp	_	_
'6	.	_	_	_

# sent_id = train-v2-96
# text = Gudskelov for det.
'1	Gudskelov	_	_	_
'2	for	_	_	_
'3	det	nsp	_	_
'4	.	_	_	_

# sent_id = train-v2-97
# text = De svage og syge ligger i deres telte.
'1	De	_	_	_
'2	svage	_	_	_
'3	og	_	_	_
'4	syge	_	_	_
'5	ligger	_	_	VERB
'6	i	_	_	_
'7	deres	_	_	_
'8	telte	nsp	_	_
'9	.	_	_	_

# sent_id = train-v2-98
# text = "Jyden er som bekendt stærk og sej.
'1	"	nsp	_	_
'2	Jyden	_	_	_
'3	er	_	_	_
'4	som	_	_	_
'5	bekendt	_	_	_
'6	stærk	_	_	_
'7	og	_	_	_
'8	sej	nsp	_	_
'9	.	_	_	_

# sent_id = train-v2-99
# text = Tværtimod er det den tyske stabilitets- og pengepolitik, der skal overtages af resten af EF, "sagde Waigel fornylig under en diskussion om den fremtidige økonomiske union i EF.
'1	Tværtimod	_	_	_
'2	er	_	_	_
'3	det	_	_	_
'4	den	_	_	_
'5	tyske	_	_	_
'6	stabilitets-	_	_	_
'7	og	_	_	_
'8	pengepolitik	nsp	_	_
'9	,	_	_	_
'10	der	_	_	_
'11	skal	_	_	_
'12	overtages	_	_	VERB
'13	af	_	_	_
'14	resten	_	_	_
'15	af	_	_	_
'16	EF	nsp	_	_
'17	,	_	_	_
'18	"	nsp	_	_
'19	sagde	_	_	VERB
'20	Waigel	_	_	_
'21	fornylig	_	_	_
'22	under	_	_	_
'23	en	_	_	_
'24	diskussion	_	_	_
'25	om	_	_	_
'26	den	_	_	_
'27	fremtidige	_	_	_
'28	økonomiske	_	_	_
'29	union	_	_	_
'30	i	_	_	_
'31	EF	nsp	_	_
'32	.	_	_	_

# sent_id = train-v2-100
# text = En volleyballspiller springer i gennemsnit 80 centimeter i vejret.
'1	En	_	_	_
'2	volleyballspiller	_	_	_
'3	springer	_	_	VERB
'4	i	_	_	_
'5	gennemsnit	_	_	_
'6	80	_	_	_
'7	centimeter	_	_	_
'8	i	_	_	_
'9	vejret	nsp	_	_
'10	.	_	_	_

# sent_id = train-v2-101
# text = Kan nye kontrakter ikke undgås - selv om begge foreninger også opfordrer til at vente - så anbefaler de to parter på det kraftigste, at de gamle transfer-bestemmelser fra før 9. marts anvendes.
'1	Kan	_	_	_
'2	nye	_	_	_
'3	kontrakter	_	_	_
'4	ikke	_	_	_
'5	undgås	_	_	VERB
'6	-	_	_	_
'7	selv	_	_	_
'8	om	_	_	_
'9	begge	_	_	_
'10	foreninger	_	_	_
'11	også	_	_	_
'12	opfordrer	_	_	VERB
'13	til	_	_	_
'14	at	_	_	_
'15	vente	_	_	VERB
'16	-	_	_	_
'17	så	_	_	_
'18	anbefaler	_	_	VERB
'19	de	_	_	_
'20	to	_	_	_
'21	parter	_	_	_
'22	på	_	_	_
'23	det	_	_	_
'24	kraftigste	nsp	_	_
'25	,	_	_	_
'26	at	_	_	_
'27	de	_	_	_
'28	gamle	_	_	_
'29	transfer-bestemmelser	_	_	_
'30	fra	_	_	_
'31	før	_	_	_
'32	9.	_	_	_
'33	marts	_	_	_
'34	anvendes	nsp	_	VERB
'35	.	_	_	_

# sent_id = train-v2-102
# text = Adolf Hitler er Lehders politiske idol.
'1	Adolf	_	_	_
'2	Hitler	_	_	_
'3	er	_	_	_
'4	Lehders	_	_	_
'5	politiske	_	_	_
'6	idol	nsp	_	_
'7	.	_	_	_

# sent_id = train-v2-103
# text = Der er flere muligheder for behandling.
'1	Der	_	_	_
'2	er	_	_	VERB
'3	flere	_	_	_
'4	muligheder	_	_	_
'5	for	_	_	_
'6	behandling	nsp	_	_
'7	.	_	_	_

# sent_id = train-v2-104
# text = "Man kan næsten se, at nogle af de der tynde madammer med højlakerede røde negle tænker: Guuud, altså," siger den 25-årige Bettina Jørgensen fra Hammel.
'1	"	nsp	_	_
'2	Man	_	_	_
'3	kan	_	_	_
'4	næsten	_	_	_
'5	se	nsp	_	VERB
'6	,	_	_	_
'7	at	_	_	_
'8	nogle	_	_	_
'9	af	_	_	_
'10	de	_	_	_
'11	der	_	_	_
'12	tynde	_	_	_
'13	madammer	_	_	_
'14	med	_	_	_
'15	højlakerede	_	_	_
'16	røde	_	_	_
'17	negle	_	_	_
'18	tænker	nsp	_	VERB
'19	:	_	_	_
'20	Guuud	nsp	_	_
'21	,	_	_	_
'22	altså	nsp	_	_
'23	,	nsp	_	_
'24	"	_	_	_
'25	siger	_	_	VERB
'26	den	_	_	_
'27	25-årige	_	_	_
'28	Bettina	_	_	_
'29	Jørgensen	_	_	_
'30	fra	_	_	_
'31	Hammel	nsp	_	_
'32	.	_	_	_

# sent_id = train-v2-105
# text = Nu måtte det amerikanske narkopoliti, DEA, føre krigen på hjemmefronten.
'1	Nu	_	_	_
'2	måtte	_	_	_
'3	det	_	_	_
'4	amerikanske	_	_	_
'5	narkopoliti	nsp	_	_
'6	,	_	_	_
'7	DEA	nsp	_	_
'8	,	_	_	_
'9	føre	_	_	VERB
'10	krigen	_	_	_
'11	på	_	_	_
'12	hjemmefronten	nsp	_	_
'13	.	_	_	_

# sent_id = train-v2-106
# text = MEN endnu en gang var det en skæbnefyldt fejlvurdering af ledende politikere.
'1	MEN	_	_	_
'2	endnu	_	_	_
'3	en	_	_	_
'4	gang	_	_	_
'5	var	_	_	_
'6	det	_	_	_
'7	en	_	_	_
'8	skæbnefyldt	_	_	_
'9	fejlvurdering	_	_	_
'10	af	_	_	_
'11	ledende	_	_	VERB
'12	politikere	nsp	_	_
'13	.	_	_	_

# sent_id = train-v2-107
# text = "Realistisk set er det en mindre del af min karriere - tiden bliver mest brugt på mine egne koncerter og plader, men de andre får al publicityen (latter).
'1	"	nsp	_	_
'2	Realistisk	_	_	_
'3	set	_	_	VERB
'4	er	_	_	_
'5	det	_	_	_
'6	en	_	_	_
'7	mindre	_	_	_
'8	del	_	_	_
'9	af	_	_	_
'10	min	_	_	_
'11	karriere	_	_	_
'12	-	_	_	_
'13	tiden	_	_	_
'14	bliver	_	_	_
'15	mest	_	_	_
'16	brugt	_	_	VERB
'17	på	_	_	_
'18	mine	_	_	_
'19	egne	_	_	_
'20	koncerter	_	_	_
'21	og	_	_	_
'22	plader	nsp	_	_
'23	,	_	_	_
'24	men	_	_	_
'25	de	_	_	_
'26	andre	_	_	_
'27	får	_	_	VERB
'28	al	_	_	_
'29	publicityen	_	_	_
'30	(	nsp	_	_
'31	latter	nsp	_	_
'32	)	nsp	_	_
'33	.	_	_	_

# sent_id = train-v2-108
# text = Hun var lige ved at briste i gråd af sorg og harme, men den triumf skulle han ikke have - at høre hende.
'1	Hun	_	_	_
'2	var	_	_	VERB
'3	lige	_	_	_
'4	ved	_	_	_
'5	at	_	_	_
'6	briste	_	_	VERB
'7	i	_	_	_
'8	gråd	_	_	_
'9	af	_	_	_
'10	sorg	_	_	_
'11	og	_	_	_
'12	harme	nsp	_	_
'13	,	_	_	_
'14	men	_	_	_
'15	den	_	_	_
'16	triumf	_	_	_
'17	skulle	_	_	_
'18	han	_	_	_
'19	ikke	_	_	_
'20	have	_	_	VERB
'21	-	_	_	_
'22	at	_	_	_
'23	høre	_	_	VERB
'24	hende	nsp	_	_
'25	.	_	_	_

# sent_id = train-v2-109
# text = Men der skal nu heller ikke ret meget til, før man bliver dømt uværdig i det britiske kongehus.
'1	Men	_	_	_
'2	der	_	_	_
'3	skal	_	_	VERB
'4	nu	_	_	_
'5	heller	_	_	_
'6	ikke	_	_	_
'7	ret	_	_	_
'8	meget	_	_	_
'9	til	nsp	_	_
'10	,	_	_	_
'11	før	_	_	_
'12	man	_	_	_
'13	bliver	_	_	_
'14	dømt	_	_	VERB
'15	uværdig	_	_	_
'16	i	_	_	_
'17	det	_	_	_
'18	britiske	_	_	_
'19	kongehus	nsp	_	_
'20	.	_	_	_

# sent_id = train-v2-110
# text = Hun slår large ud med hånden.
'1	Hun	_	_	_
'2	slår	_	_	VERB
'3	large	_	_	_
'4	ud	_	_	_
'5	med	_	_	_
'6	hånden	nsp	_	_
'7	.	_	_	_

# sent_id = train-v2-111
# text = Computeren kender alle stjernebilleder, f.eks. Karlsvognen og Orions Bælte.
'1	Computeren	_	_	_
'2	kender	_	_	VERB
'3	alle	_	_	_
'4	stjernebilleder	nsp	_	_
'5	,	_	_	_
'6	f.eks.	_	_	_
'7	Karlsvognen	_	_	_
'8	og	_	_	_
'9	Orions	_	_	_
'10	Bælte	nsp	_	_
'11	.	_	_	_

# sent_id = train-v2-112
# text = "Alt går forløbig efter planen, selv om der endnu ikke har været tid til genoptræning.
'1	"	nsp	_	_
'2	Alt	_	_	_
'3	går	_	_	VERB
'4	forløbig	_	_	_
'5	efter	_	_	_
'6	planen	nsp	_	_
'7	,	_	_	_
'8	selv	_	_	_
'9	om	_	_	_
'10	der	_	_	_
'11	endnu	_	_	_
'12	ikke	_	_	_
'13	har	_	_	_
'14	været	_	_	VERB
'15	tid	_	_	_
'16	til	_	_	_
'17	genoptræning	nsp	_	_
'18	.	_	_	_

# sent_id = train-v2-113
# text = Han ejer ikke talent for sameksistens med sine medmennesker."
'1	Han	_	_	_
'2	ejer	_	_	VERB
'3	ikke	_	_	_
'4	talent	_	_	_
'5	for	_	_	_
'6	sameksistens	_	_	_
'7	med	_	_	_
'8	sine	_	_	_
'9	medmennesker	nsp	_	_
'10	.	nsp	_	_
'11	"	_	_	_

# sent_id = train-v2-114
# text = "Kors, hvor jeg savner ham."
'1	"	nsp	_	_
'2	Kors	nsp	_	_
'3	,	_	_	_
'4	hvor	_	_	_
'5	jeg	_	_	_
'6	savner	_	_	VERB
'7	ham	nsp	_	_
'8	.	nsp	_	_
'9	"	_	_	_

# sent_id = train-v2-115
# text = Derfor er det svært at se en løsning i blot at råde hende til at tage erhvervsarbejde ved siden af eksamenslæsning.
'1	Derfor	_	_	_
'2	er	_	_	_
'3	det	_	_	_
'4	svært	_	_	_
'5	at	_	_	_
'6	se	_	_	VERB
'7	en	_	_	_
'8	løsning	_	_	_
'9	i	_	_	_
'10	blot	_	_	_
'11	at	_	_	_
'12	råde	_	_	VERB
'13	hende	_	_	_
'14	til	_	_	_
'15	at	_	_	_
'16	tage	_	_	VERB
'17	erhvervsarbejde	_	_	_
'18	ved	_	_	_
'19	siden	_	_	_
'20	af	_	_	_
'21	eksamenslæsning	nsp	_	_
'22	.	_	_	_

# sent_id = train-v2-116
# text = Han er vort sidste håb, "siger Emilia Bonsignore.
'1	Han	_	_	_
'2	er	_	_	_
'3	vort	_	_	_
'4	sidste	_	_	_
'5	håb	nsp	_	_
'6	,	_	_	_
'7	"	nsp	_	_
'8	siger	_	_	VERB
'9	Emilia	_	_	_
'10	Bonsignore	nsp	_	_
'11	.	_	_	_

# sent_id = train-v2-117
# text = - Vi er en hel familie, der elsker dig, og nu bliver der snart én til!
'1	-	_	_	_
'2	Vi	_	_	_
'3	er	_	_	_
'4	en	_	_	_
'5	hel	_	_	_
'6	familie	nsp	_	_
'7	,	_	_	_
'8	der	_	_	_
'9	elsker	_	_	VERB
'10	dig	nsp	_	_
'11	,	_	_	_
'12	og	_	_	_
'13	nu	_	_	_
'14	bliver	_	_	VERB
'15	der	_	_	_
'16	snart	_	_	_
'17	én	_	_	_
'18	til	nsp	_	_
'19	!	_	_	_

# sent_id = train-v2-118
# text = Medlemstallet i hans lyrikklub er 15 - femten - og selv om han erkender, at "det tal er ikke noget at skrive hjem om," så er de femten heller ikke noget, han kimser ad.
'1	Medlemstallet	_	_	_
'2	i	_	_	_
'3	hans	_	_	_
'4	lyrikklub	_	_	_
'5	er	_	_	_
'6	15	_	_	_
'7	-	_	_	_
'8	femten	_	_	_
'9	-	_	_	_
'10	og	_	_	_
'11	selv	_	_	_
'12	om	_	_	_
'13	han	_	_	_
'14	erkender	nsp	_	VERB
'15	,	_	_	_
'16	at	_	_	_
'17	"	nsp	_	_
'18	det	_	_	_
'19	tal	_	_	_
'20	er	_	_	_
'21	ikke	_	_	_
'22	noget	_	_	_
'23	at	_	_	_
'24	skrive	_	_	VERB
'25	hjem	_	_	_
'26	om	nsp	_	_
'27	,	nsp	_	_
'28	"	_	_	_
'29	så	_	_	_
'30	er	_	_	_
'31	de	_	_	_
'32	femten	_	_	_
'33	heller	_	_	_
'34	ikke	_	_	_
'35	noget	nsp	_	_
'36	,	_	_	_
'37	han	_	_	_
'38	kimser	_	_	VERB
'39	ad	nsp	_	_
'40	.	_	_	_

# sent_id = train-v2-119
# text = Din mor var meget slank og sportstrænet.
'1	Din	_	_	_
'2	mor	_	_	_
'3	var	_	_	_
'4	meget	_	_	_
'5	slank	_	_	_
'6	og	_	_	_
'7	sportstrænet	nsp	_	_
'8	.	_	_	_

# sent_id = train-v2-120
# text = Den ny ordførende direktør Kaj Thomsen bekræfter, at man fra bankens side har haft følere til andre banker og snakket fusion.
'1	Den	_	_	_
'2	ny	_	_	_
'3	ordførende	_	_	_
'4	direktør	_	_	_
'5	Kaj	_	_	_
'6	Thomsen	_	_	_
'7	bekræfter	nsp	_	VERB
'8	,	_	_	_
'9	at	_	_	_
'10	man	_	_	_
'11	fra	_	_	_
'12	bankens	_	_	_
'13	side	_	_	_
'14	har	_	_	_
'15	haft	_	_	VERB
'16	følere	_	_	_
'17	til	_	_	_
'18	andre	_	_	_
'19	banker	_	_	_
'20	og	_	_	_
'21	snakket	_	_	VERB
'22	fusion	nsp	_	_
'23	.	_	_	_

# sent_id = train-v2-121
# text = Mejerier og slagterier har ikke mulighed for at "fabrikslukke" 2-3 uger i juli, som mange andre virksomheder gør.
'1	Mejerier	_	_	_
'2	og	_	_	_
'3	slagterier	_	_	_
'4	har	_	_	VERB
'5	ikke	_	_	_
'6	mulighed	_	_	_
'7	for	_	_	_
'8	at	_	_	_
'9	"	nsp	_	_
'10	fabrikslukke	nsp	_	VERB
'11	"	_	_	_
'12	2-3	_	_	_
'13	uger	_	_	_
'14	i	_	_	_
'15	juli	nsp	_	_
'16	,	_	_	_
'17	som	_	_	_
'18	mange	_	_	_
'19	andre	_	_	_
'20	virksomheder	_	_	_
'21	gør	nsp	_	VERB
'22	.	_	_	_

# sent_id = train-v2-122
# text = "Man skal huske på, at danserne har utroligt vanskelige vilkår i Danmark, og det vil tage minimum fem år, før der kan opstå et kvalificeret miljø for eksempel omkring en ny uddannelse for moderne dans."
'1	"	nsp	_	_
'2	Man	_	_	_
'3	skal	_	_	_
'4	huske	_	_	VERB
'5	på	nsp	_	_
'6	,	_	_	_
'7	at	_	_	_
'8	danserne	_	_	_
'9	har	_	_	VERB
'10	utroligt	_	_	_
'11	vanskelige	_	_	_
'12	vilkår	_	_	_
'13	i	_	_	_
'14	Danmark	nsp	_	_
'15	,	_	_	_
'16	og	_	_	_
'17	det	_	_	_
'18	vil	_	_	_
'19	tage	_	_	VERB
'20	minimum	_	_	_
'21	fem	_	_	_
'22	år	nsp	_	_
'23	,	_	_	_
'24	før	_	_	_
'25	der	_	_	_
'26	kan	_	_	_
'27	opstå	_	_	VERB
'28	et	_	_	_
'29	kvalificeret	_	_	VERB
'30	miljø	_	_	_
'31	for	_	_	_
'32	eksempel	_	_	_
'33	omkring	_	_	_
'34	en	_	_	_
'35	ny	_	_	_
'36	uddannelse	_	_	_
'37	for	_	_	_
'38	moderne	_	_	_
'39	dans	nsp	_	_
'40	.	nsp	_	_
'41	"	_	_	_

# sent_id = train-v2-123
# text = Hvis hun siger ja til at gifte sig med en aldrende mand blot for at kunne forlade Sandbygaard på en måde, som loven tillader?
'1	Hvis	_	_	_
'2	hun	_	_	_
'3	siger	_	_	VERB
'4	ja	_	_	_
'5	til	_	_	_
'6	at	_	_	_
'7	gifte	_	_	VERB
'8	sig	_	_	_
'9	med	_	_	_
'10	en	_	_	_
'11	aldrende	_	_	_
'12	mand	_	_	_
'13	blot	_	_	_
'14	for	_	_	_
'15	at	_	_	_
'16	kunne	_	_	_
'17	forlade	_	_	VERB
'18	Sandbygaard	_	_	_
'19	på	_	_	_
'20	en	_	_	_
'21	måde	nsp	_	_
'22	,	_	_	_
'23	som	_	_	_
'24	loven	_	_	_
'25	tillader	nsp	_	VERB
'26	?	_	_	_

# sent_id = train-v2-124
# text = Dansetruppen har banandansen med i programmet, hvor "Mellem-Os"-læserne også kan glæde sig til den religiøse trommedans eller optrinnet over traditionen i Kamphaengphet, hvor folk ofrer gule gevandter til munkene den nat i november, hvor det er fuldmåne.
'1	Dansetruppen	_	_	_
'2	har	_	_	VERB
'3	banandansen	_	_	_
'4	med	_	_	_
'5	i	_	_	_
'6	programmet	nsp	_	_
'7	,	_	_	_
'8	hvor	_	_	_
'9	"Mellem-Os"-læserne	_	_	_
'10	også	_	_	_
'11	kan	_	_	_
'12	glæde	_	_	VERB
'13	sig	_	_	_
'14	til	_	_	_
'15	den	_	_	_
'16	religiøse	_	_	_
'17	trommedans	_	_	_
'18	eller	_	_	_
'19	optrinnet	_	_	_
'20	over	_	_	_
'21	traditionen	_	_	_
'22	i	_	_	_
'23	Kamphaengphet	nsp	_	_
'24	,	_	_	_
'25	hvor	_	_	_
'26	folk	_	_	_
'27	ofrer	_	_	VERB
'28	gule	_	_	_
'29	gevandter	_	_	_
'30	til	_	_	_
'31	munkene	_	_	_
'32	den	_	_	_
'33	nat	_	_	_
'34	i	_	_	_
'35	november	nsp	_	_
'36	,	_	_	_
'37	hvor	_	_	_
'38	det	_	_	_
'39	er	_	_	_
'40	fuldmåne	nsp	_	_
'41	.	_	_	_

# sent_id = train-v2-125
# text = Preben Andersen, offsetekspert, får i forbindelse med sin 70-års fødselsdag "Sætternisse Prisen".
'1	Preben	_	_	_
'2	Andersen	nsp	_	_
'3	,	_	_	_
'4	offsetekspert	nsp	_	_
'5	,	_	_	_
'6	får	_	_	VERB
'7	i	_	_	_
'8	forbindelse	_	_	_
'9	med	_	_	_
'10	sin	_	_	_
'11	70-års	_	_	_
'12	fødselsdag	_	_	_
'13	"	nsp	_	_
'14	Sætternisse	_	_	_
'15	Prisen	nsp	_	_
'16	"	nsp	_	_
'17	.	_	_	_

# sent_id = train-v2-126
# text = Hvad er det rigtige niveau for, hvor mange penge, vi skal tjene? "spurgte Dalmark.
'1	Hvad	_	_	_
'2	er	_	_	_
'3	det	_	_	_
'4	rigtige	_	_	_
'5	niveau	_	_	_
'6	for	nsp	_	_
'7	,	_	_	_
'8	hvor	_	_	_
'9	mange	_	_	_
'10	penge	nsp	_	_
'11	,	_	_	_
'12	vi	_	_	_
'13	skal	_	_	_
'14	tjene	nsp	_	VERB
'15	?	_	_	_
'16	"	nsp	_	_
'17	spurgte	_	_	VERB
'18	Dalmark	nsp	_	_
'19	.	_	_	_

# sent_id = train-v2-127
# text = Men udsigten til det nye, samlede Europa med EF som den politiske og økonomiske dynamo og Tyskland som den nye toneangivende stormagt gør alligevel en del amerikanere utilpasse.
'1	Men	_	_	_
'2	udsigten	_	_	_
'3	til	_	_	_
'4	det	_	_	_
'5	nye	nsp	_	_
'6	,	_	_	_
'7	samlede	_	_	VERB
'8	Europa	_	_	_
'9	med	_	_	_
'10	EF	_	_	_
'11	som	_	_	_
'12	den	_	_	_
'13	politiske	_	_	_
'14	og	_	_	_
'15	økonomiske	_	_	_
'16	dynamo	_	_	_
'17	og	_	_	_
'18	Tyskland	_	_	_
'19	som	_	_	_
'20	den	_	_	_
'21	nye	_	_	_
'22	toneangivende	_	_	_
'23	stormagt	_	_	_
'24	gør	_	_	VERB
'25	alligevel	_	_	_
'26	en	_	_	_
'27	del	_	_	_
'28	amerikanere	_	_	_
'29	utilpasse	nsp	_	_
'30	.	_	_	_

# sent_id = train-v2-128
# text = "Ellers var jeg blevet suget med ned," forklarede Samsel.
'1	"	nsp	_	_
'2	Ellers	_	_	_
'3	var	_	_	_
'4	jeg	_	_	_
'5	blevet	_	_	_
'6	suget	_	_	VERB
'7	med	_	_	_
'8	ned	nsp	_	_
'9	,	nsp	_	_
'10	"	_	_	_
'11	forklarede	_	_	VERB
'12	Samsel	nsp	_	_
'13	.	_	_	_

# sent_id = train-v2-129
# text = Men det er dog ganske usmageligt med denne gradvise konfiskation af flittige og sparsommelige menneskers livsindsats.
'1	Men	_	_	_
'2	det	_	_	_
'3	er	_	_	_
'4	dog	_	_	_
'5	ganske	_	_	_
'6	usmageligt	_	_	_
'7	med	_	_	_
'8	denne	_	_	_
'9	gradvise	_	_	_
'10	konfiskation	_	_	_
'11	af	_	_	_
'12	flittige	_	_	_
'13	og	_	_	_
'14	sparsommelige	_	_	_
'15	menneskers	_	_	_
'16	livsindsats	nsp	_	_
'17	.	_	_	_

# sent_id = train-v2-130
# text = Der findes 2 typer: Som kasselås til påskruning på dørens indvendige side eller som indstukken lås.
'1	Der	_	_	_
'2	findes	_	_	VERB
'3	2	_	_	_
'4	typer	nsp	_	_
'5	:	_	_	_
'6	Som	_	_	_
'7	kasselås	_	_	_
'8	til	_	_	_
'9	påskruning	_	_	_
'10	på	_	_	_
'11	dørens	_	_	_
'12	indvendige	_	_	_
'13	side	_	_	_
'14	eller	_	_	_
'15	som	_	_	_
'16	indstukken	_	_	_
'17	lås	nsp	_	_
'18	.	_	_	_

# sent_id = train-v2-131
# text = Hun farer på ham med et skrig.
'1	Hun	_	_	_
'2	farer	_	_	VERB
'3	på	_	_	_
'4	ham	_	_	_
'5	med	_	_	_
'6	et	_	_	_
'7	skrig	nsp	_	_
'8	.	_	_	_

# sent_id = train-v2-132
# text = Hun kan smile, fordi hun har draget ved lære af fortiden.
'1	Hun	_	_	_
'2	kan	_	_	_
'3	smile	nsp	_	VERB
'4	,	_	_	_
'5	fordi	_	_	_
'6	hun	_	_	_
'7	har	_	_	_
'8	draget	_	_	VERB
'9	ved	_	_	_
'10	lære	_	_	_
'11	af	_	_	_
'12	fortiden	nsp	_	_
'13	.	_	_	_

# sent_id = train-v2-133
# text = De travle mænd har reelt affærdiget problemet ved at forkorte det til et par i sig selv problematiske idéer om flere folkeafstemninger og højere spærregrænse til folketingsvalgene.
'1	De	_	_	_
'2	travle	_	_	_
'3	mænd	_	_	_
'4	har	_	_	_
'5	reelt	_	_	_
'6	affærdiget	_	_	VERB
'7	problemet	_	_	_
'8	ved	_	_	_
'9	at	_	_	_
'10	forkorte	_	_	VERB
'11	det	_	_	_
'12	til	_	_	_
'13	et	_	_	_
'14	par	_	_	_
'15	i	_	_	_
'16	sig	_	_	_
'17	selv	_	_	_
'18	problematiske	_	_	_
'19	idéer	_	_	_
'20	om	_	_	_
'21	flere	_	_	_
'22	folkeafstemninger	_	_	_
'23	og	_	_	_
'24	højere	_	_	_
'25	spærregrænse	_	_	_
'26	til	_	_	_
'27	folketingsvalgene	nsp	_	_
'28	.	_	_	_

# sent_id = train-v2-134
# text = Et monopol, som nær havde kostet dem selv, biograferne og filmkunsten livet.
'1	Et	_	_	_
'2	monopol	nsp	_	_
'3	,	_	_	_
'4	som	_	_	_
'5	nær	_	_	_
'6	havde	_	_	_
'7	kostet	_	_	VERB
'8	dem	_	_	_
'9	selv	nsp	_	_
'10	,	_	_	_
'11	biograferne	_	_	_
'12	og	_	_	_
'13	filmkunsten	_	_	_
'14	livet	nsp	_	_
'15	.	_	_	_

# sent_id = train-v2-135
# text = Indirekte får jeg dog et svar i økonomichefens fortsatte brug af rent forretningsmæssige argumenter, for eksempel om indsamlingsvirksomheden.
'1	Indirekte	_	_	_
'2	får	_	_	VERB
'3	jeg	_	_	_
'4	dog	_	_	_
'5	et	_	_	_
'6	svar	_	_	_
'7	i	_	_	_
'8	økonomichefens	_	_	_
'9	fortsatte	_	_	VERB
'10	brug	_	_	_
'11	af	_	_	_
'12	rent	_	_	_
'13	forretningsmæssige	_	_	_
'14	argumenter	nsp	_	_
'15	,	_	_	_
'16	for	_	_	_
'17	eksempel	_	_	_
'18	om	_	_	_
'19	indsamlingsvirksomheden	nsp	_	_
'20	.	_	_	_

# sent_id = train-v2-136
# text = - Jeg mener, at hvis økonomien styres fornuftigt, så kan et verdensnavn godt lave en Europatourné og komme hjem med 20-30 millioner kroner.
'1	-	_	_	_
'2	Jeg	_	_	_
'3	mener	nsp	_	VERB
'4	,	_	_	_
'5	at	_	_	_
'6	hvis	_	_	_
'7	økonomien	_	_	_
'8	styres	_	_	VERB
'9	fornuftigt	nsp	_	_
'10	,	_	_	_
'11	så	_	_	_
'12	kan	_	_	_
'13	et	_	_	_
'14	verdensnavn	_	_	_
'15	godt	_	_	_
'16	lave	_	_	VERB
'17	en	_	_	_
'18	Europatourné	_	_	_
'19	og	_	_	_
'20	komme	_	_	VERB
'21	hjem	_	_	_
'22	med	_	_	_
'23	20-30	_	_	_
'24	millioner	_	_	_
'25	kroner	nsp	_	_
'26	.	_	_	_

# sent_id = train-v2-137
# text = Socialdemokratiet er utilfreds med, at statsadvokat Ole Stigel blev sat til at undersøge DR-anklagerne mod politiet og anklagemyndigheden, fordi han var anklager under sagen i 1982.
'1	Socialdemokratiet	_	_	_
'2	er	_	_	_
'3	utilfreds	_	_	_
'4	med	nsp	_	_
'5	,	_	_	_
'6	at	_	_	_
'7	statsadvokat	_	_	_
'8	Ole	_	_	_
'9	Stigel	_	_	_
'10	blev	_	_	_
'11	sat	_	_	VERB
'12	til	_	_	_
'13	at	_	_	_
'14	undersøge	_	_	VERB
'15	DR-anklagerne	_	_	_
'16	mod	_	_	_
'17	politiet	_	_	_
'18	og	_	_	_
'19	anklagemyndigheden	nsp	_	_
'20	,	_	_	_
'21	fordi	_	_	_
'22	han	_	_	_
'23	var	_	_	_
'24	anklager	_	_	_
'25	under	_	_	_
'26	sagen	_	_	_
'27	i	_	_	_
'28	1982	nsp	_	_
'29	.	_	_	_

# sent_id = train-v2-138
# text = Og vore nordiske brødre får mod til at turde tænke og tale som mange af dem føler.
'1	Og	_	_	_
'2	vore	_	_	_
'3	nordiske	_	_	_
'4	brødre	_	_	_
'5	får	_	_	VERB
'6	mod	_	_	_
'7	til	_	_	_
'8	at	_	_	_
'9	turde	_	_	_
'10	tænke	_	_	VERB
'11	og	_	_	_
'12	tale	_	_	VERB
'13	som	_	_	_
'14	mange	_	_	_
'15	af	_	_	_
'16	dem	_	_	_
'17	føler	nsp	_	VERB
'18	.	_	_	_

# sent_id = train-v2-139
# text = Det råd giver Jytte Hilden til sin nære veninde.
'1	Det	_	_	_
'2	råd	_	_	_
'3	giver	_	_	VERB
'4	Jytte	_	_	_
'5	Hilden	_	_	_
'6	til	_	_	_
'7	sin	_	_	_
'8	nære	_	_	_
'9	veninde	nsp	_	_
'10	.	_	_	_

# sent_id = train-v2-140
# text = - Det er min mand, der har fundet på det.
'1	-	_	_	_
'2	Det	_	_	_
'3	er	_	_	_
'4	min	_	_	_
'5	mand	nsp	_	_
'6	,	_	_	_
'7	der	_	_	_
'8	har	_	_	_
'9	fundet	_	_	VERB
'10	på	_	_	_
'11	det	nsp	_	_
'12	.	_	_	_

# sent_id = train-v2-141
# text = Sådan.
'1	Sådan	nsp	_	_
'2	.	_	_	_

# sent_id = train-v2-142
# text = Der blev lagt rouge på kinderne, og det fine tøj blev fundet frem.
'1	Der	_	_	_
'2	blev	_	_	_
'3	lagt	_	_	VERB
'4	rouge	_	_	_
'5	på	_	_	_
'6	kinderne	nsp	_	_
'7	,	_	_	_
'8	og	_	_	_
'9	det	_	_	_
'10	fine	_	_	_
'11	tøj	_	_	_
'12	blev	_	_	_
'13	fundet	_	_	VERB
'14	frem	nsp	_	_
'15	.	_	_	_

# sent_id = train-v2-143
# text = Frank Mathiesen fastholdt, hvad han forleden sagde til B.T.: "Spillerne får 20.000 i bonus pr. mand.
'1	Frank	_	_	_
'2	Mathiesen	_	_	_
'3	fastholdt	nsp	_	VERB
'4	,	_	_	_
'5	hvad	_	_	_
'6	han	_	_	_
'7	forleden	_	_	_
'8	sagde	_	_	VERB
'9	til	_	_	_
'10	B.T.	nsp	_	_
'11	:	_	_	_
'12	"	nsp	_	_
'13	Spillerne	_	_	_
'14	får	_	_	VERB
'15	20.000	_	_	_
'16	i	_	_	_
'17	bonus	_	_	_
'18	pr.	_	_	_
'19	mand	nsp	_	_
'20	.	_	_	_

# sent_id = train-v2-144
# text = Man bliver måske ikke så varm om fødderne i sko, men til gengæld giver støvlerne nogen støtte til anklerne, hvilket man måske bør holde sig for øje hvis man har tendenser til at vrikke om.
'1	Man	_	_	_
'2	bliver	_	_	_
'3	måske	_	_	_
'4	ikke	_	_	_
'5	så	_	_	_
'6	varm	_	_	_
'7	om	_	_	_
'8	fødderne	_	_	_
'9	i	_	_	_
'10	sko	nsp	_	_
'11	,	_	_	_
'12	men	_	_	_
'13	til	_	_	_
'14	gengæld	_	_	_
'15	giver	_	_	VERB
'16	støvlerne	_	_	_
'17	nogen	_	_	_
'18	støtte	_	_	_
'19	til	_	_	_
'20	anklerne	nsp	_	_
'21	,	_	_	_
'22	hvilket	_	_	_
'23	man	_	_	_
'24	måske	_	_	_
'25	bør	_	_	_
'26	holde	_	_	VERB
'27	sig	_	_	_
'28	for	_	_	_
'29	øje	_	_	_
'30	hvis	_	_	_
'31	man	_	_	_
'32	har	_	_	VERB
'33	tendenser	_	_	_
'34	til	_	_	_
'35	at	_	_	_
'36	vrikke	_	_	VERB
'37	om	nsp	_	_
'38	.	_	_	_

# sent_id = train-v2-145
# text = Sangerinden med en stemme så klar som den norske fjeldluft synger udover i Roskilde også i København, Odense, Århus, Randers og Holstebro.
'1	Sangerinden	_	_	_
'2	med	_	_	_
'3	en	_	_	_
'4	stemme	_	_	_
'5	så	_	_	_
'6	klar	_	_	_
'7	som	_	_	_
'8	den	_	_	_
'9	norske	_	_	_
'10	fjeldluft	_	_	_
'11	synger	_	_	VERB
'12	udover	_	_	_
'13	i	_	_	_
'14	Roskilde	_	_	_
'15	også	_	_	_
'16	i	_	_	_
'17	København	nsp	_	_
'18	,	_	_	_
'19	Odense	nsp	_	_
'20	,	_	_	_
'21	Århus	nsp	_	_
'22	,	_	_	_
'23	Randers	_	_	_
'24	og	_	_	_
'25	Holstebro	nsp	_	_
'26	.	_	_	_

# sent_id = train-v2-146
# text = "I øjeblikket må folk betale mig af deres egen lomme, og de fleste har en kommunal hjemmehjælp i forvejen.
'1	"	nsp	_	_
'2	I	_	_	_
'3	øjeblikket	_	_	_
'4	må	_	_	_
'5	folk	_	_	_
'6	betale	_	_	VERB
'7	mig	_	_	_
'8	af	_	_	_
'9	deres	_	_	_
'10	egen	_	_	_
'11	lomme	nsp	_	_
'12	,	_	_	_
'13	og	_	_	_
'14	de	_	_	_
'15	fleste	_	_	_
'16	har	_	_	VERB
'17	en	_	_	_
'18	kommunal	_	_	_
'19	hjemmehjælp	_	_	_
'20	i	_	_	_
'21	forvejen	nsp	_	_
'22	.	_	_	_

# sent_id = train-v2-147
# text = Og da begge klubber har problemer med at skaffe trænere og spillere, vil et samarbejde mellem de to klubber være oplagt.
'1	Og	_	_	_
'2	da	_	_	_
'3	begge	_	_	_
'4	klubber	_	_	_
'5	har	_	_	VERB
'6	problemer	_	_	_
'7	med	_	_	_
'8	at	_	_	_
'9	skaffe	_	_	VERB
'10	trænere	_	_	_
'11	og	_	_	_
'12	spillere	nsp	_	_
'13	,	_	_	_
'14	vil	_	_	_
'15	et	_	_	_
'16	samarbejde	_	_	_
'17	mellem	_	_	_
'18	de	_	_	_
'19	to	_	_	_
'20	klubber	_	_	_
'21	være	_	_	_
'22	oplagt	nsp	_	_
'23	.	_	_	_

# sent_id = train-v2-148
# text = Firs aserbajdsjanere er blevet tilbageholdt af en militær garnison, og der er blevet iværksat en undersøgelse af episoderne.
'1	Firs	_	_	_
'2	aserbajdsjanere	_	_	_
'3	er	_	_	_
'4	blevet	_	_	_
'5	tilbageholdt	_	_	VERB
'6	af	_	_	_
'7	en	_	_	_
'8	militær	_	_	_
'9	garnison	nsp	_	_
'10	,	_	_	_
'11	og	_	_	_
'12	der	_	_	_
'13	er	_	_	_
'14	blevet	_	_	_
'15	iværksat	_	_	VERB
'16	en	_	_	_
'17	undersøgelse	_	_	_
'18	af	_	_	_
'19	episoderne	nsp	_	_
'20	.	_	_	_

# sent_id = train-v2-149
# text = Alle ansøgere får svar senest den 28. juli 1992.
'1	Alle	_	_	_
'2	ansøgere	_	_	_
'3	får	_	_	VERB
'4	svar	_	_	_
'5	senest	_	_	_
'6	den	_	_	_
'7	28.	_	_	_
'8	juli	_	_	_
'9	1992	nsp	_	_
'10	.	_	_	_

# sent_id = train-v2-150
# text = Til gengæld er hver centimeter udnyttet, så kunder kan få de varer, de skal bruge.
'1	Til	_	_	_
'2	gengæld	_	_	_
'3	er	_	_	_
'4	hver	_	_	_
'5	centimeter	_	_	_
'6	udnyttet	nsp	_	VERB
'7	,	_	_	_
'8	så	_	_	_
'9	kunder	_	_	_
'10	kan	_	_	_
'11	få	_	_	VERB
'12	de	_	_	_
'13	varer	nsp	_	_
'14	,	_	_	_
'15	de	_	_	_
'16	skal	_	_	_
'17	bruge	nsp	_	VERB
'18	.	_	_	_

# sent_id = train-v2-151
# text = Mini-miniput-spilleren fra Thorning skal nok komme til at spille fodbold igen.
'1	Mini-miniput-spilleren	_	_	_
'2	fra	_	_	_
'3	Thorning	_	_	_
'4	skal	_	_	_
'5	nok	_	_	_
'6	komme	_	_	VERB
'7	til	_	_	_
'8	at	_	_	_
'9	spille	_	_	VERB
'10	fodbold	_	_	_
'11	igen	nsp	_	_
'12	.	_	_	_

# sent_id = train-v2-152
# text = "Vi er tvillinger, der ikke ligner hinanden", siger Smith.
'1	"	nsp	_	_
'2	Vi	_	_	_
'3	er	_	_	_
'4	tvillinger	nsp	_	_
'5	,	_	_	_
'6	der	_	_	_
'7	ikke	_	_	_
'8	ligner	_	_	VERB
'9	hinanden	nsp	_	_
'10	"	nsp	_	_
'11	,	_	_	_
'12	siger	_	_	VERB
'13	Smith	nsp	_	_
'14	.	_	_	_

# sent_id = train-v2-153
# text = -... ja, det er Svane... hvad siger du?
'1	-	nsp	_	_
'2	...	_	_	_
'3	ja	nsp	_	_
'4	,	_	_	_
'5	det	_	_	_
'6	er	_	_	_
'7	Svane	nsp	_	_
'8	...	_	_	_
'9	hvad	_	_	_
'10	siger	_	_	VERB
'11	du	nsp	_	_
'12	?	_	_	_

# sent_id = train-v2-154
# text = Syriens præsident, Hafez al-Assad, indledte i går en rundrejse i Mellemøsten for at mønstre støtte for Libyen - og for sit eget land.
'1	Syriens	_	_	_
'2	præsident	nsp	_	_
'3	,	_	_	_
'4	Hafez	_	_	_
'5	al-Assad	nsp	_	_
'6	,	_	_	_
'7	indledte	_	_	VERB
'8	i	_	_	_
'9	går	_	_	_
'10	en	_	_	_
'11	rundrejse	_	_	_
'12	i	_	_	_
'13	Mellemøsten	_	_	_
'14	for	_	_	_
'15	at	_	_	_
'16	mønstre	_	_	VERB
'17	støtte	_	_	_
'18	for	_	_	_
'19	Libyen	_	_	_
'20	-	_	_	_
'21	og	_	_	_
'22	for	_	_	_
'23	sit	_	_	_
'24	eget	_	_	_
'25	land	nsp	_	_
'26	.	_	_	_

# sent_id = train-v2-155
# text = I sandhedens interesse må jeg tilføje en anden og nok så vigtig formildende faktor, nemlig det gode, at i denne uigennemsigtige støvtågeverden, som jeg befinder mig midt i, er der faktisk også den opmuntrende tanke bygget på viden, at blæsten også tørrer sumpen ud, gør den stenhård og skorpet.
'1	I	_	_	_
'2	sandhedens	_	_	_
'3	interesse	_	_	_
'4	må	_	_	_
'5	jeg	_	_	_
'6	tilføje	_	_	VERB
'7	en	_	_	_
'8	anden	_	_	_
'9	og	_	_	_
'10	nok	_	_	_
'11	så	_	_	_
'12	vigtig	_	_	_
'13	formildende	_	_	VERB
'14	faktor	nsp	_	_
'15	,	_	_	_
'16	nemlig	_	_	_
'17	det	_	_	_
'18	gode	nsp	_	_
'19	,	_	_	_
'20	at	_	_	_
'21	i	_	_	_
'22	denne	_	_	_
'23	uigennemsigtige	_	_	_
'24	støvtågeverden	nsp	_	_
'25	,	_	_	_
'26	som	_	_	_
'27	jeg	_	_	_
'28	befinder	_	_	VERB
'29	mig	_	_	_
'30	midt	_	_	_
'31	i	nsp	_	_
'32	,	_	_	_
'33	er	_	_	_
'34	der	_	_	_
'35	faktisk	_	_	_
'36	også	_	_	_
'37	den	_	_	_
'38	opmuntrende	_	_	VERB
'39	tanke	_	_	_
'40	bygget	_	_	VERB
'41	på	_	_	_
'42	viden	nsp	_	_
'43	,	_	_	_
'44	at	_	_	_
'45	blæsten	_	_	_
'46	også	_	_	_
'47	tørrer	_	_	VERB
'48	sumpen	_	_	_
'49	ud	nsp	_	_
'50	,	_	_	_
'51	gør	_	_	VERB
'52	den	_	_	_
'53	stenhård	_	_	_
'54	og	_	_	_
'55	skorpet	nsp	_	_
'56	.	_	_	_

# sent_id = train-v2-156
# text = En forbrydelse - ikke i juridisk, men i moralsk forstand.
'1	En	_	_	_
'2	forbrydelse	_	_	_
'3	-	_	_	_
'4	ikke	_	_	_
'5	i	_	_	_
'6	juridisk	nsp	_	_
'7	,	_	_	_
'8	men	_	_	_
'9	i	_	_	_
'10	moralsk	_	_	_
'11	forstand	nsp	_	_
'12	.	_	_	_

# sent_id = train-v2-157
# text = De mindede premierministeren om hans løfte om ikke at påbegynde den endelige ratifikationsprocess i parlamentet, indtil der var kommet en afklaring på Danmarks EF-udspil.
'1	De	_	_	_
'2	mindede	_	_	VERB
'3	premierministeren	_	_	_
'4	om	_	_	_
'5	hans	_	_	_
'6	løfte	_	_	_
'7	om	_	_	_
'8	ikke	_	_	_
'9	at	_	_	_
'10	påbegynde	_	_	VERB
'11	den	_	_	_
'12	endelige	_	_	_
'13	ratifikationsprocess	_	_	_
'14	i	_	_	_
'15	parlamentet	nsp	_	_
'16	,	_	_	_
'17	indtil	_	_	_
'18	der	_	_	_
'19	var	_	_	_
'20	kommet	_	_	VERB
'21	en	_	_	_
'22	afklaring	_	_	_
'23	på	_	_	_
'24	Danmarks	_	_	_
'25	EF-udspil	nsp	_	_
'26	.	_	_	_

# sent_id = train-v2-158
# text = - Paryk-Blækhat, lyder artsbetegnelsen fra Henning Knudsen, lektor ved Botanisk Museum i København og forfatter til Politikens Svampebog, som er trykt i fire oplag og i alt 26.000 eksemplarer.
'1	-	_	_	_
'2	Paryk-Blækhat	nsp	_	_
'3	,	_	_	_
'4	lyder	_	_	VERB
'5	artsbetegnelsen	_	_	_
'6	fra	_	_	_
'7	Henning	_	_	_
'8	Knudsen	nsp	_	_
'9	,	_	_	_
'10	lektor	_	_	_
'11	ved	_	_	_
'12	Botanisk	_	_	_
'13	Museum	_	_	_
'14	i	_	_	_
'15	København	_	_	_
'16	og	_	_	_
'17	forfatter	_	_	_
'18	til	_	_	_
'19	Politikens	_	_	_
'20	Svampebog	nsp	_	_
'21	,	_	_	_
'22	som	_	_	_
'23	er	_	_	_
'24	trykt	_	_	VERB
'25	i	_	_	_
'26	fire	_	_	_
'27	oplag	_	_	_
'28	og	_	_	_
'29	i	_	_	_
'30	alt	_	_	_
'31	26.000	_	_	_
'32	eksemplarer	nsp	_	_
'33	.	_	_	_

# sent_id = train-v2-159
# text = Min opgave var klar: der skulle lægges pres på Danida og dermed Bhutans regering for at få standset forfølgelsen og dermed flygtningestrømmen.
'1	Min	_	_	_
'2	opgave	_	_	_
'3	var	_	_	_
'4	klar	nsp	_	_
'5	:	_	_	_
'6	der	_	_	_
'7	skulle	_	_	_
'8	lægges	_	_	VERB
'9	pres	_	_	_
'10	på	_	_	_
'11	Danida	_	_	_
'12	og	_	_	_
'13	dermed	_	_	_
'14	Bhutans	_	_	_
'15	regering	_	_	_
'16	for	_	_	_
'17	at	_	_	_
'18	få	_	_	VERB
'19	standset	_	_	VERB
'20	forfølgelsen	_	_	_
'21	og	_	_	_
'22	dermed	_	_	_
'23	flygtningestrømmen	nsp	_	_
'24	.	_	_	_

# sent_id = train-v2-160
# text = Lærlingene har undervejs haft ansvar for hver sin gruppe.
'1	Lærlingene	_	_	_
'2	har	_	_	_
'3	undervejs	_	_	_
'4	haft	_	_	VERB
'5	ansvar	_	_	_
'6	for	_	_	_
'7	hver	_	_	_
'8	sin	_	_	_
'9	gruppe	nsp	_	_
'10	.	_	_	_

# sent_id = train-v2-161
# text = Derfor elsker jeg at arbejde her - at gøre en indsats."
'1	Derfor	_	_	_
'2	elsker	_	_	VERB
'3	jeg	_	_	_
'4	at	_	_	_
'5	arbejde	_	_	VERB
'6	her	_	_	_
'7	-	_	_	_
'8	at	_	_	_
'9	gøre	_	_	VERB
'10	en	_	_	_
'11	indsats	nsp	_	_
'12	.	nsp	_	_
'13	"	_	_	_

# sent_id = train-v2-162
# text = Baren er mørk og aflang og fuld af forretningsmænd.
'1	Baren	_	_	_
'2	er	_	_	_
'3	mørk	_	_	_
'4	og	_	_	_
'5	aflang	_	_	_
'6	og	_	_	_
'7	fuld	_	_	_
'8	af	_	_	_
'9	forretningsmænd	nsp	_	_
'10	.	_	_	_

# sent_id = train-v2-163
# text = Derfor spis aldrig grøntsager eller drik vand fra hanen.
'1	Derfor	_	_	_
'2	spis	_	_	VERB
'3	aldrig	_	_	_
'4	grøntsager	_	_	_
'5	eller	_	_	_
'6	drik	_	_	VERB
'7	vand	_	_	_
'8	fra	_	_	_
'9	hanen	nsp	_	_
'10	.	_	_	_

# sent_id = train-v2-164
# text = Arthur Millers skuespil "Udsigt fra broen" er et moderne passionsdrama.
'1	Arthur	_	_	_
'2	Millers	_	_	_
'3	skuespil	_	_	_
'4	"	nsp	_	_
'5	Udsigt	_	_	_
'6	fra	_	_	_
'7	broen	nsp	_	_
'8	"	_	_	_
'9	er	_	_	_
'10	et	_	_	_
'11	moderne	_	_	_
'12	passionsdrama	nsp	_	_
'13	.	_	_	_

# sent_id = train-v2-165
# text = Men hvad er forskellen på alle disse stoffer?
'1	Men	_	_	_
'2	hvad	_	_	_
'3	er	_	_	_
'4	forskellen	_	_	_
'5	på	_	_	_
'6	alle	_	_	_
'7	disse	_	_	_
'8	stoffer	nsp	_	_
'9	?	_	_	_

# sent_id = train-v2-166
# text = For Bastrup er Sparekasseforeningens budskab et udtryk for stordriftslogik.
'1	For	_	_	_
'2	Bastrup	_	_	_
'3	er	_	_	_
'4	Sparekasseforeningens	_	_	_
'5	budskab	_	_	_
'6	et	_	_	_
'7	udtryk	_	_	_
'8	for	_	_	_
'9	stordriftslogik	nsp	_	_
'10	.	_	_	_

# sent_id = train-v2-167
# text = Hells Angels spilles af Christian Mosbæk, Kim Jansson, Per Linderoth, Annemette Bush og den nyuddannede, debuterende Rikke Weissfeld.
'1	Hells	_	_	_
'2	Angels	_	_	_
'3	spilles	_	_	VERB
'4	af	_	_	_
'5	Christian	_	_	_
'6	Mosbæk	nsp	_	_
'7	,	_	_	_
'8	Kim	_	_	_
'9	Jansson	nsp	_	_
'10	,	_	_	_
'11	Per	_	_	_
'12	Linderoth	nsp	_	_
'13	,	_	_	_
'14	Annemette	_	_	_
'15	Bush	_	_	_
'16	og	_	_	_
'17	den	_	_	_
'18	nyuddannede	nsp	_	_
'19	,	_	_	_
'20	debuterende	_	_	VERB
'21	Rikke	_	_	_
'22	Weissfeld	nsp	_	_
'23	.	_	_	_

# sent_id = train-v2-168
# text = Derefter blev de to unge genstand for pengeafpresning af de spanske politifolk:
'1	Derefter	_	_	_
'2	blev	_	_	_
'3	de	_	_	_
'4	to	_	_	_
'5	unge	_	_	_
'6	genstand	_	_	_
'7	for	_	_	_
'8	pengeafpresning	_	_	_
'9	af	_	_	_
'10	de	_	_	_
'11	spanske	_	_	_
'12	politifolk	nsp	_	_
'13	:	_	_	_

# sent_id = train-v2-169
# text = Parken har fejl og mangler, som fodbold-publikummet hverken kan eller vil leve med.
'1	Parken	_	_	_
'2	har	_	_	VERB
'3	fejl	_	_	_
'4	og	_	_	_
'5	mangler	nsp	_	_
'6	,	_	_	_
'7	som	_	_	_
'8	fodbold-publikummet	_	_	_
'9	hverken	_	_	_
'10	kan	_	_	_
'11	eller	_	_	_
'12	vil	_	_	VERB
'13	leve	_	_	VERB
'14	med	nsp	_	_
'15	.	_	_	_

# sent_id = train-v2-170
# text = Hvor f.eks. den øverste del ikke har kunnet trækkes op, "siger Finn Rønlov Andersen.
'1	Hvor	_	_	_
'2	f.eks.	_	_	_
'3	den	_	_	_
'4	øverste	_	_	_
'5	del	_	_	_
'6	ikke	_	_	_
'7	har	_	_	_
'8	kunnet	_	_	_
'9	trækkes	_	_	VERB
'10	op	nsp	_	_
'11	,	_	_	_
'12	"	nsp	_	_
'13	siger	_	_	VERB
'14	Finn	_	_	_
'15	Rønlov	_	_	_
'16	Andersen	nsp	_	_
'17	.	_	_	_

# sent_id = train-v2-171
# text = - Det hører med til tjenesten, svarede Silius.
'1	-	_	_	_
'2	Det	_	_	_
'3	hører	_	_	VERB
'4	med	_	_	_
'5	til	_	_	_
'6	tjenesten	nsp	_	_
'7	,	_	_	_
'8	svarede	_	_	VERB
'9	Silius	nsp	_	_
'10	.	_	_	_

# sent_id = train-v2-172
# text = "Jeg kunne måske godt frygte, at der ville komme en reaktion, nu da OL-billetten er hjemme.
'1	"	nsp	_	_
'2	Jeg	_	_	_
'3	kunne	_	_	_
'4	måske	_	_	_
'5	godt	_	_	_
'6	frygte	nsp	_	VERB
'7	,	_	_	_
'8	at	_	_	_
'9	der	_	_	_
'10	ville	_	_	_
'11	komme	_	_	VERB
'12	en	_	_	_
'13	reaktion	nsp	_	_
'14	,	_	_	_
'15	nu	_	_	_
'16	da	_	_	_
'17	OL-billetten	_	_	_
'18	er	_	_	_
'19	hjemme	nsp	_	_
'20	.	_	_	_

# sent_id = train-v2-173
# text = Det var provinsens "statens kunstfond", Canadian Council, der gav hende opgaven, idet de kendte hendes arbejder, hendes industrielle designerfaringer, hidtil løste indretningsopgaver og fornemmelse for lokale håndværkstraditioner.
'1	Det	_	_	_
'2	var	_	_	_
'3	provinsens	_	_	_
'4	"	nsp	_	_
'5	statens	_	_	_
'6	kunstfond	nsp	_	_
'7	"	nsp	_	_
'8	,	_	_	_
'9	Canadian	_	_	_
'10	Council	nsp	_	_
'11	,	_	_	_
'12	der	_	_	_
'13	gav	_	_	VERB
'14	hende	_	_	_
'15	opgaven	nsp	_	_
'16	,	_	_	_
'17	idet	_	_	_
'18	de	_	_	_
'19	kendte	_	_	VERB
'20	hendes	_	_	_
'21	arbejder	nsp	_	_
'22	,	_	_	_
'23	hendes	_	_	_
'24	industrielle	_	_	_
'25	designerfaringer	nsp	_	_
'26	,	_	_	_
'27	hidtil	_	_	_
'28	løste	_	_	VERB
'29	indretningsopgaver	_	_	_
'30	og	_	_	_
'31	fornemmelse	_	_	_
'32	for	_	_	_
'33	lokale	_	_	_
'34	håndværkstraditioner	nsp	_	_
'35	.	_	_	_

# sent_id = train-v2-174
# text = Han ventede ikke på svar, men rakte begge hænder frem, mens han gik det sidste stykke ned mod hende, og tog hendes hænder i sine, uden at vide hvad han skulle bruge dem til.
'1	Han	_	_	_
'2	ventede	_	_	VERB
'3	ikke	_	_	_
'4	på	_	_	_
'5	svar	nsp	_	_
'6	,	_	_	_
'7	men	_	_	_
'8	rakte	_	_	VERB
'9	begge	_	_	_
'10	hænder	_	_	_
'11	frem	nsp	_	_
'12	,	_	_	_
'13	mens	_	_	_
'14	han	_	_	_
'15	gik	_	_	VERB
'16	det	_	_	_
'17	sidste	_	_	_
'18	stykke	_	_	_
'19	ned	_	_	_
'20	mod	_	_	_
'21	hende	nsp	_	_
'22	,	_	_	_
'23	og	_	_	_
'24	tog	_	_	VERB
'25	hendes	_	_	_
'26	hænder	_	_	_
'27	i	_	_	_
'28	sine	nsp	_	_
'29	,	_	_	_
'30	uden	_	_	_
'31	at	_	_	_
'32	vide	_	_	VERB
'33	hvad	_	_	_
'34	han	_	_	_
'35	skulle	_	_	_
'36	bruge	_	_	VERB
'37	dem	_	_	_
'38	til	nsp	_	_
'39	.	_	_	_

# sent_id = train-v2-175
# text = BRUTTO = 00:14
'1	BRUTTO	_	_	_
'2	=	_	_	_
'3	00:14	_	_	_

# sent_id = train-v2-176
# text = Det er jo ikke meningen, at man skal sætte ind på gyngerne, hvad man vinder på karrusellen.
'1	Det	_	_	_
'2	er	_	_	_
'3	jo	_	_	_
'4	ikke	_	_	_
'5	meningen	nsp	_	_
'6	,	_	_	_
'7	at	_	_	_
'8	man	_	_	_
'9	skal	_	_	_
'10	sætte	_	_	VERB
'11	ind	_	_	_
'12	på	_	_	_
'13	gyngerne	nsp	_	_
'14	,	_	_	_
'15	hvad	_	_	_
'16	man	_	_	_
'17	vinder	_	_	VERB
'18	på	_	_	_
'19	karrusellen	nsp	_	_
'20	.	_	_	_

# sent_id = train-v2-177
# text = Kunne jeg tale, ville jeg trygle om livet.
'1	Kunne	_	_	_
'2	jeg	_	_	_
'3	tale	nsp	_	VERB
'4	,	_	_	_
'5	ville	_	_	_
'6	jeg	_	_	_
'7	trygle	_	_	VERB
'8	om	_	_	_
'9	livet	nsp	_	_
'10	.	_	_	_

# sent_id = train-v2-178
# text = Det blev også bygget i begyndelsen af tresserne på Aalborg Værft og har siden sejlet trofast ved Færøerne og Grønland.
'1	Det	_	_	_
'2	blev	_	_	_
'3	også	_	_	_
'4	bygget	_	_	VERB
'5	i	_	_	_
'6	begyndelsen	_	_	_
'7	af	_	_	_
'8	tresserne	_	_	_
'9	på	_	_	_
'10	Aalborg	_	_	_
'11	Værft	_	_	_
'12	og	_	_	_
'13	har	_	_	_
'14	siden	_	_	_
'15	sejlet	_	_	VERB
'16	trofast	_	_	_
'17	ved	_	_	_
'18	Færøerne	_	_	_
'19	og	_	_	_
'20	Grønland	nsp	_	_
'21	.	_	_	_

# sent_id = train-v2-179
# text = Desuden skrev jeg til udenrigsministeren i et beskedent håb om, at man var interesseret i en øjenvidneberetning.
'1	Desuden	_	_	_
'2	skrev	_	_	VERB
'3	jeg	_	_	_
'4	til	_	_	_
'5	udenrigsministeren	_	_	_
'6	i	_	_	_
'7	et	_	_	_
'8	beskedent	_	_	_
'9	håb	_	_	_
'10	om	nsp	_	_
'11	,	_	_	_
'12	at	_	_	_
'13	man	_	_	_
'14	var	_	_	_
'15	interesseret	_	_	VERB
'16	i	_	_	_
'17	en	_	_	_
'18	øjenvidneberetning	nsp	_	_
'19	.	_	_	_

# sent_id = train-v2-180
# text = "Denne tredeling må vi nødvendigvis gå i gang med.
'1	"	nsp	_	_
'2	Denne	_	_	_
'3	tredeling	_	_	_
'4	må	_	_	_
'5	vi	_	_	_
'6	nødvendigvis	_	_	_
'7	gå	_	_	VERB
'8	i	_	_	_
'9	gang	_	_	_
'10	med	nsp	_	_
'11	.	_	_	_

# sent_id = train-v2-181
# text = Derfor har han også følt sig foranlediget til at genoptrykke den - i 100 eksemplarer.
'1	Derfor	_	_	_
'2	har	_	_	_
'3	han	_	_	_
'4	også	_	_	_
'5	følt	_	_	VERB
'6	sig	_	_	_
'7	foranlediget	_	_	VERB
'8	til	_	_	_
'9	at	_	_	_
'10	genoptrykke	_	_	VERB
'11	den	_	_	_
'12	-	_	_	_
'13	i	_	_	_
'14	100	_	_	_
'15	eksemplarer	nsp	_	_
'16	.	_	_	_

# sent_id = train-v2-182
# text = Og jeg gik alt for vidt."
'1	Og	_	_	_
'2	jeg	_	_	_
'3	gik	_	_	VERB
'4	alt	_	_	_
'5	for	_	_	_
'6	vidt	nsp	_	_
'7	.	nsp	_	_
'8	"	_	_	_

# sent_id = train-v2-183
# text = Der skal anlægges to baner.
'1	Der	_	_	_
'2	skal	_	_	_
'3	anlægges	_	_	VERB
'4	to	_	_	_
'5	baner	nsp	_	_
'6	.	_	_	_

# sent_id = train-v2-184
# text = De kan også aflevere kuverten ufrankeret i kassen til breve og løsninger, Vognmagergade 10, København K. senest ovennævnte dato.
'1	De	_	_	_
'2	kan	_	_	_
'3	også	_	_	_
'4	aflevere	_	_	VERB
'5	kuverten	_	_	_
'6	ufrankeret	_	_	_
'7	i	_	_	_
'8	kassen	_	_	_
'9	til	_	_	_
'10	breve	_	_	_
'11	og	_	_	_
'12	løsninger	nsp	_	_
'13	,	_	_	_
'14	Vognmagergade	_	_	_
'15	10	nsp	_	_
'16	,	_	_	_
'17	København	_	_	_
'18	K.	_	_	_
'19	senest	_	_	_
'20	ovennævnte	_	_	_
'21	dato	nsp	_	_
'22	.	_	_	_

# sent_id = train-v2-185
# text = Og gerne bider tænderne sammen for at bevise det.
'1	Og	_	_	_
'2	gerne	_	_	_
'3	bider	_	_	VERB
'4	tænderne	_	_	_
'5	sammen	_	_	_
'6	for	_	_	_
'7	at	_	_	_
'8	bevise	_	_	VERB
'9	det	nsp	_	_
'10	.	_	_	_

# sent_id = train-v2-186
# text = Liselotte trak vejret dybt af lettelse.
'1	Liselotte	_	_	_
'2	trak	_	_	VERB
'3	vejret	_	_	_
'4	dybt	_	_	_
'5	af	_	_	_
'6	lettelse	nsp	_	_
'7	.	_	_	_

# sent_id = train-v2-187
# text = Objektivt er det jo sådan at søsterskabet kan vare 80-90 år og overlever både diverse ægteskaber og forældre-børn relationen.
'1	Objektivt	_	_	_
'2	er	_	_	_
'3	det	_	_	_
'4	jo	_	_	_
'5	sådan	_	_	_
'6	at	_	_	_
'7	søsterskabet	_	_	_
'8	kan	_	_	_
'9	vare	_	_	VERB
'10	80-90	_	_	_
'11	år	_	_	_
'12	og	_	_	_
'13	overlever	_	_	VERB
'14	både	_	_	_
'15	diverse	_	_	_
'16	ægteskaber	_	_	_
'17	og	_	_	_
'18	forældre-børn	_	_	_
'19	relationen	nsp	_	_
'20	.	_	_	_

# sent_id = train-v2-188
# text = Vi ønsker, at folk skal blive klogere ved at læse i encyklopædien, og derfor vil artiklerne blive både kvalificerede og forståelige.
'1	Vi	_	_	_
'2	ønsker	nsp	_	VERB
'3	,	_	_	_
'4	at	_	_	_
'5	folk	_	_	_
'6	skal	_	_	_
'7	blive	_	_	_
'8	klogere	_	_	_
'9	ved	_	_	_
'10	at	_	_	_
'11	læse	_	_	VERB
'12	i	_	_	_
'13	encyklopædien	nsp	_	_
'14	,	_	_	_
'15	og	_	_	_
'16	derfor	_	_	_
'17	vil	_	_	_
'18	artiklerne	_	_	_
'19	blive	_	_	VERB
'20	både	_	_	_
'21	kvalificerede	_	_	VERB
'22	og	_	_	_
'23	forståelige	nsp	_	_
'24	.	_	_	_

# sent_id = train-v2-189
# text = Vi må jo se at finde ud af det.
'1	Vi	_	_	_
'2	må	_	_	_
'3	jo	_	_	_
'4	se	_	_	VERB
'5	at	_	_	_
'6	finde	_	_	VERB
'7	ud	_	_	_
'8	af	_	_	_
'9	det	nsp	_	_
'10	.	_	_	_

# sent_id = train-v2-190
# text = Intens skydning ovre fra den bosniske side af floden fortæller sammen med ligene, der flyder ned ad Una, om hårde kampe, men sikker viden er en mangelvare hernede.
'1	Intens	_	_	_
'2	skydning	_	_	_
'3	ovre	_	_	_
'4	fra	_	_	_
'5	den	_	_	_
'6	bosniske	_	_	_
'7	side	_	_	_
'8	af	_	_	_
'9	floden	_	_	_
'10	fortæller	_	_	VERB
'11	sammen	_	_	_
'12	med	_	_	_
'13	ligene	nsp	_	_
'14	,	_	_	_
'15	der	_	_	_
'16	flyder	_	_	VERB
'17	ned	_	_	_
'18	ad	_	_	_
'19	Una	nsp	_	_
'20	,	_	_	_
'21	om	_	_	_
'22	hårde	_	_	_
'23	kampe	nsp	_	_
'24	,	_	_	_
'25	men	_	_	_
'26	sikker	_	_	_
'27	viden	_	_	_
'28	er	_	_	_
'29	en	_	_	_
'30	mangelvare	_	_	_
'31	hernede	nsp	_	_
'32	.	_	_	_

# sent_id = train-v2-191
# text = Vigtigst er det imidlertid at foretage en omlægning af de usunde kostvaner, der har forårsaget overvægten.
'1	Vigtigst	_	_	_
'2	er	_	_	_
'3	det	_	_	_
'4	imidlertid	_	_	_
'5	at	_	_	_
'6	foretage	_	_	VERB
'7	en	_	_	_
'8	omlægning	_	_	_
'9	af	_	_	_
'10	de	_	_	_
'11	usunde	_	_	_
'12	kostvaner	nsp	_	_
'13	,	_	_	_
'14	der	_	_	_
'15	har	_	_	_
'16	forårsaget	_	_	VERB
'17	overvægten	nsp	_	_
'18	.	_	_	_

# sent_id = train-v2-192
# text = Ulrik Sørensen økonomidirektør Danbyg Totalentreprise A/S.
'1	Ulrik	_	_	_
'2	Sørensen	_	_	_
'3	økonomidirektør	_	_	_
'4	Danbyg	_	_	_
'5	Totalentreprise	_	_	_
'6	A/S	nsp	_	_
'7	.	_	_	_

# sent_id = train-v2-193
# text = Både film og bog er desuden illustreret med tegninger, der yderligere anskueliggør stillingerne og deres anatomiske konsekvenser.
'1	Både	_	_	_
'2	film	_	_	_
'3	og	_	_	_
'4	bog	_	_	_
'5	er	_	_	_
'6	desuden	_	_	_
'7	illustreret	_	_	VERB
'8	med	_	_	_
'9	tegninger	nsp	_	_
'10	,	_	_	_
'11	der	_	_	_
'12	yderligere	_	_	_
'13	anskueliggør	_	_	VERB
'14	stillingerne	_	_	_
'15	og	_	_	_
'16	deres	_	_	_
'17	anatomiske	_	_	_
'18	konsekvenser	nsp	_	_
'19	.	_	_	_

# sent_id = train-v2-194
# text = Hun har elsket sin søn med al den kærlighed, hun ikke fik lov at give en mand, og hun har kun ham, men hun giver ham fri.
'1	Hun	_	_	_
'2	har	_	_	_
'3	elsket	_	_	VERB
'4	sin	_	_	_
'5	søn	_	_	_
'6	med	_	_	_
'7	al	_	_	_
'8	den	_	_	_
'9	kærlighed	nsp	_	_
'10	,	_	_	_
'11	hun	_	_	_
'12	ikke	_	_	_
'13	fik	_	_	VERB
'14	lov	_	_	_
'15	at	_	_	_
'16	give	_	_	VERB
'17	en	_	_	_
'18	mand	nsp	_	_
'19	,	_	_	_
'20	og	_	_	_
'21	hun	_	_	_
'22	har	_	_	VERB
'23	kun	_	_	_
'24	ham	nsp	_	_
'25	,	_	_	_
'26	men	_	_	_
'27	hun	_	_	_
'28	giver	_	_	VERB
'29	ham	_	_	_
'30	fri	nsp	_	_
'31	.	_	_	_

# sent_id = train-v2-195
# text = Alligevel kan en sådan tourné løbe rundt, hvis den er ordentligt tilrettelagt.
'1	Alligevel	_	_	_
'2	kan	_	_	_
'3	en	_	_	_
'4	sådan	_	_	_
'5	tourné	_	_	_
'6	løbe	_	_	VERB
'7	rundt	nsp	_	_
'8	,	_	_	_
'9	hvis	_	_	_
'10	den	_	_	_
'11	er	_	_	_
'12	ordentligt	_	_	_
'13	tilrettelagt	nsp	_	VERB
'14	.	_	_	_

# sent_id = train-v2-196
# text = OBS: Lægerne kan desværre ikke påtage sig at give private svar.
'1	OBS	nsp	_	VERB
'2	:	_	_	_
'3	Lægerne	_	_	_
'4	kan	_	_	_
'5	desværre	_	_	_
'6	ikke	_	_	_
'7	påtage	_	_	VERB
'8	sig	_	_	_
'9	at	_	_	_
'10	give	_	_	VERB
'11	private	_	_	_
'12	svar	nsp	_	_
'13	.	_	_	_

# sent_id = train-v2-197
# text = Måltidet starter med forskellige små forretter, og somme tider spiser man så meget af dem, at man dårligt kan kæmpe sig gennem hovedmåltidet.
'1	Måltidet	_	_	_
'2	starter	_	_	VERB
'3	med	_	_	_
'4	forskellige	_	_	_
'5	små	_	_	_
'6	forretter	nsp	_	_
'7	,	_	_	_
'8	og	_	_	_
'9	somme	_	_	_
'10	tider	_	_	_
'11	spiser	_	_	VERB
'12	man	_	_	_
'13	så	_	_	_
'14	meget	_	_	_
'15	af	_	_	_
'16	dem	nsp	_	_
'17	,	_	_	_
'18	at	_	_	_
'19	man	_	_	_
'20	dårligt	_	_	_
'21	kan	_	_	_
'22	kæmpe	_	_	VERB
'23	sig	_	_	_
'24	gennem	_	_	_
'25	hovedmåltidet	nsp	_	_
'26	.	_	_	_

# sent_id = train-v2-198
# text = Dette og mange andre spørgsmål besvarer Illustreret Videnskabs eksperter
'1	Dette	_	_	_
'2	og	_	_	_
'3	mange	_	_	_
'4	andre	_	_	_
'5	spørgsmål	_	_	_
'6	besvarer	_	_	VERB
'7	Illustreret	_	_	VERB
'8	Videnskabs	_	_	_
'9	eksperter	_	_	_

# sent_id = train-v2-199
# text = Dets fødder, der ikke er tildækkede, er blå af kulde.
'1	Dets	_	_	_
'2	fødder	nsp	_	_
'3	,	_	_	_
'4	der	_	_	_
'5	ikke	_	_	_
'6	er	_	_	_
'7	tildækkede	nsp	_	VERB
'8	,	_	_	_
'9	er	_	_	_
'10	blå	_	_	_
'11	af	_	_	_
'12	kulde	nsp	_	_
'13	.	_	_	_
