# source_sent_id = . . train-s1869
# text = Mecklenburg -- Vorpommern ist ein traditionelles Agrarland, warum sollen wir das hier nicht schaffen?
'1	Mecklenburg	_	_	_
'2	--	_	_	_
'3	Vorpommern	_	_	_
'4	ist	_	_	VERB
'5	ein	_	_	_
'6	traditionelles	_	_	_
'7	Agrarland	nsp	_	_
'8	,	_	_	_
'9	warum	_	_	_
'10	sollen	_	_	_
'11	wir	_	_	_
'12	das	_	_	_
'13	hier	_	_	_
'14	nicht	_	_	_
'15	schaffen	nsp	_	VERB
'16	?	_	_	_

# source_sent_id = . . train-s1870
# text = Die Gewinner dieser Ausschreibung soll umgerechnet rund 30 000 Mark erhalten.
'1	Die	_	_	_
'2	Gewinner	_	_	_
'3	dieser	_	_	_
'4	Ausschreibung	_	_	_
'5	soll	_	_	_
'6	umgerechnet	_	_	_
'7	rund	_	_	_
'8	30	_	_	_
'9	000	_	_	_
'10	Mark	_	_	_
'11	erhalten	nsp	_	VERB
'12	.	_	_	_

# source_sent_id = . . train-s1871
# text = Der Vertrag läuft offiziell bis zum 31. Dezember 1992.
'1	Der	_	_	_
'2	Vertrag	_	_	_
'3	läuft	_	_	VERB
'4	offiziell	_	_	_
'5	bis	_	_	_
'6-7	zum	_	_	_
'6	zu	_	_	_
'7	dem	_	_	_
'8	31	nsp	_	_
'9	.	_	_	_
'10	Dezember	_	_	_
'11	1992	nsp	_	_
'12	.	_	_	_

# source_sent_id = . . train-s1872
# text = Ein Beispiel hierfür ist die Gesellschaft Olympic Catering.
'1	Ein	_	_	_
'2	Beispiel	_	_	_
'3	hierfür	_	_	_
'4	ist	_	_	VERB
'5	die	_	_	_
'6	Gesellschaft	_	_	_
'7	Olympic	_	_	_
'8	Catering	nsp	_	_
'9	.	_	_	_

# source_sent_id = . . train-s1873
# text = Wenn China floriert, dann floriert auch Hongkong,'' sagt ein Hongkonger Banker.
'1	Wenn	_	_	_
'2	China	_	_	_
'3	floriert	nsp	_	VERB
'4	,	_	_	_
'5	dann	_	_	_
'6	floriert	_	_	VERB
'7	auch	_	_	_
'8	Hongkong	nsp	_	_
'9	,	nsp	_	_
'10	''	_	_	_
'11	sagt	_	_	VERB
'12	ein	_	_	_
'13	Hongkonger	_	_	_
'14	Banker	nsp	_	_
'15	.	_	_	_

# source_sent_id = . . train-s1874
# text = Dieser Vorwurf bleibt eine Lüge, egal wie oft er wiederholt wird.
'1	Dieser	_	_	_
'2	Vorwurf	_	_	_
'3	bleibt	_	_	VERB
'4	eine	_	_	_
'5	Lüge	nsp	_	_
'6	,	_	_	_
'7	egal	_	_	_
'8	wie	_	_	_
'9	oft	_	_	_
'10	er	_	_	_
'11	wiederholt	_	_	VERB
'12	wird	nsp	_	_
'13	.	_	_	_

# source_sent_id = . . train-s1875
# text = Ich vertrete meine Region mit ihren Problemen im Bundestag genauso, wie es auch West -- Kollegen tun.
'1	Ich	_	_	_
'2	vertrete	_	_	VERB
'3	meine	_	_	_
'4	Region	_	_	_
'5	mit	_	_	_
'6	ihren	_	_	_
'7	Problemen	_	_	_
'8-9	im	_	_	_
'8	in	_	_	_
'9	dem	_	_	_
'10	Bundestag	_	_	_
'11	genauso	nsp	_	_
'12	,	_	_	_
'13	wie	_	_	_
'14	es	_	_	_
'15	auch	_	_	_
'16	West	_	_	_
'17	--	_	_	_
'18	Kollegen	_	_	_
'19	tun	nsp	_	VERB
'20	.	_	_	_

# source_sent_id = . . train-s1876
# text = Bundesgeschäftsführer Karlheinz Blessing hat als Alternative zum Karenztag vorgeschlagen, daß ``Blaumacher'' ihre Fehlzeiten nacharbeiten sollten.
'1	Bundesgeschäftsführer	_	_	_
'2	Karlheinz	_	_	_
'3	Blessing	_	_	_
'4	hat	_	_	_
'5	als	_	_	_
'6	Alternative	_	_	_
'7-8	zum	_	_	_
'7	zu	_	_	_
'8	dem	_	_	_
'9	Karenztag	_	_	_
'10	vorgeschlagen	nsp	_	VERB
'11	,	_	_	_
'12	daß	_	_	_
'13	``	nsp	_	_
'14	Blaumacher	nsp	_	_
'15	''	_	_	_
'16	ihre	_	_	_
'17	Fehlzeiten	_	_	_
'18	nacharbeiten	_	_	VERB
'19	sollten	nsp	_	_
'20	.	_	_	_

# source_sent_id = . . train-s1877
# text = Die Dienstvorschriften in den drei Atomkraftwerken Taiwans sollen überprüft werden.
'1	Die	_	_	_
'2	Dienstvorschriften	_	_	_
'3	in	_	_	_
'4	den	_	_	_
'5	drei	_	_	_
'6	Atomkraftwerken	_	_	_
'7	Taiwans	_	_	_
'8	sollen	_	_	_
'9	überprüft	_	_	VERB
'10	werden	nsp	_	_
'11	.	_	_	_

# source_sent_id = . . train-s1878
# text = Dieses Urteil, das den Arbeitgeber zur Lohnfortzahlung in jedem Fall verpflichtet, ist weltfremd, praxisfern und kann dem Mißbrauch Tür und Tor öffnen,'' monierte Günther.
'1	Dieses	_	_	_
'2	Urteil	nsp	_	_
'3	,	_	_	_
'4	das	_	_	_
'5	den	_	_	_
'6	Arbeitgeber	_	_	_
'7-8	zur	_	_	_
'7	zu	_	_	_
'8	der	_	_	_
'9	Lohnfortzahlung	_	_	_
'10	in	_	_	_
'11	jedem	_	_	_
'12	Fall	_	_	_
'13	verpflichtet	nsp	_	VERB
'14	,	_	_	_
'15	ist	_	_	VERB
'16	weltfremd	nsp	_	_
'17	,	_	_	_
'18	praxisfern	_	_	_
'19	und	_	_	_
'20	kann	_	_	_
'21	dem	_	_	_
'22	Mißbrauch	_	_	_
'23	Tür	_	_	_
'24	und	_	_	_
'25	Tor	_	_	_
'26	öffnen	nsp	_	VERB
'27	,	nsp	_	_
'28	''	_	_	_
'29	monierte	_	_	VERB
'30	Günther	nsp	_	_
'31	.	_	_	_

# source_sent_id = . . train-s1879
# text = Die Leiterin einer UN -- Inspektionsdelegation, Karen Jansen, teilte am Samstag in Bagdad mit, Gerät und Anlagen, die primär der Produktion von chemischen Waffen gedient hätten, seien vernichtet.
'1	Die	_	_	_
'2	Leiterin	_	_	_
'3	einer	_	_	_
'4	UN	_	_	_
'5	--	_	_	_
'6	Inspektionsdelegation	nsp	_	_
'7	,	_	_	_
'8	Karen	_	_	_
'9	Jansen	nsp	_	_
'10	,	_	_	_
'11	teilte	_	_	VERB
'12-13	am	_	_	_
'12	an	_	_	_
'13	dem	_	_	_
'14	Samstag	_	_	_
'15	in	_	_	_
'16	Bagdad	_	_	_
'17	mit	nsp	_	_
'18	,	_	_	_
'19	Gerät	_	_	_
'20	und	_	_	_
'21	Anlagen	nsp	_	_
'22	,	_	_	_
'23	die	_	_	_
'24	primär	_	_	_
'25	der	_	_	_
'26	Produktion	_	_	_
'27	von	_	_	_
'28	chemischen	_	_	_
'29	Waffen	_	_	_
'30	gedient	_	_	VERB
'31	hätten	nsp	_	_
'32	,	_	_	_
'33	seien	_	_	_
'34	vernichtet	nsp	_	VERB
'35	.	_	_	_

# source_sent_id = . . train-s1880
# text = Dem Bericht zufolge dürfte das Defizit in der laufenden Periode noch über 160 Billionen Lire liegen.
'1	Dem	_	_	_
'2	Bericht	_	_	_
'3	zufolge	_	_	_
'4	dürfte	_	_	_
'5	das	_	_	_
'6	Defizit	_	_	_
'7	in	_	_	_
'8	der	_	_	_
'9	laufenden	_	_	_
'10	Periode	_	_	_
'11	noch	_	_	_
'12	über	_	_	_
'13	160	_	_	_
'14	Billionen	_	_	_
'15	Lire	_	_	_
'16	liegen	nsp	_	VERB
'17	.	_	_	_

# source_sent_id = . . train-s1881
# text = Die FDP werde sich an weiteren Verhandlungen über die Kostendeckung nicht beteiligen.
'1	Die	_	_	_
'2	FDP	_	_	_
'3	werde	_	_	_
'4	sich	_	_	_
'5	an	_	_	_
'6	weiteren	_	_	_
'7	Verhandlungen	_	_	_
'8	über	_	_	_
'9	die	_	_	_
'10	Kostendeckung	_	_	_
'11	nicht	_	_	_
'12	beteiligen	nsp	_	VERB
'13	.	_	_	_

# source_sent_id = . . train-s1882
# text = Die Menschen reden nicht mehr mit der Politik.
'1	Die	_	_	_
'2	Menschen	_	_	_
'3	reden	_	_	VERB
'4	nicht	_	_	_
'5	mehr	_	_	_
'6	mit	_	_	_
'7	der	_	_	_
'8	Politik	nsp	_	_
'9	.	_	_	_

# source_sent_id = . . train-s1883
# text = Man mußte diese Notbremse ziehen.
'1	Man	_	_	_
'2	mußte	_	_	_
'3	diese	_	_	_
'4	Notbremse	_	_	_
'5	ziehen	nsp	_	VERB
'6	.	_	_	_

# source_sent_id = . . train-s1884
# text = Die Zahnärzte an Rhein und Ruhr waren nach Verbandsangaben bereits 1987 an zwei Tagen in Warnstreiks getreten.
'1	Die	_	_	_
'2	Zahnärzte	_	_	_
'3	an	_	_	_
'4	Rhein	_	_	_
'5	und	_	_	_
'6	Ruhr	_	_	_
'7	waren	_	_	_
'8	nach	_	_	_
'9	Verbandsangaben	_	_	_
'10	bereits	_	_	_
'11	1987	_	_	_
'12	an	_	_	_
'13	zwei	_	_	_
'14	Tagen	_	_	_
'15	in	_	_	_
'16	Warnstreiks	_	_	_
'17	getreten	nsp	_	VERB
'18	.	_	_	_

# source_sent_id = . . train-s1885
# text = Die Partei war bei den Parlamentswahlen in den vergangenen Jahren von 18 auf neun Prozent der Stimmen zurückgefallen.
'1	Die	_	_	_
'2	Partei	_	_	_
'3	war	_	_	_
'4	bei	_	_	_
'5	den	_	_	_
'6	Parlamentswahlen	_	_	_
'7	in	_	_	_
'8	den	_	_	_
'9	vergangenen	_	_	_
'10	Jahren	_	_	_
'11	von	_	_	_
'12	18	_	_	_
'13	auf	_	_	_
'14	neun	_	_	_
'15	Prozent	_	_	_
'16	der	_	_	_
'17	Stimmen	_	_	_
'18	zurückgefallen	nsp	_	VERB
'19	.	_	_	_

# source_sent_id = . . train-s1886
# text = im vergangenen Jahr war der Fehlbetrag von zuvor 29,7 Millionen auf 67,3 Millionen Mark angeschwollen.
'1-2	im	_	_	_
'1	In	_	_	_
'2	dem	_	_	_
'3	vergangenen	_	_	_
'4	Jahr	_	_	_
'5	war	_	_	_
'6	der	_	_	_
'7	Fehlbetrag	_	_	_
'8	von	_	_	_
'9	zuvor	_	_	_
'10	29,7	_	_	_
'11	Millionen	_	_	_
'12	auf	_	_	_
'13	67,3	_	_	_
'14	Millionen	_	_	_
'15	Mark	_	_	_
'16	angeschwollen	nsp	_	VERB
'17	.	_	_	_

# source_sent_id = . . train-s1887
# text = In Istanbul läuft an diesem Nachmittag eine Großfahndung.
'1	In	_	_	_
'2	Istanbul	_	_	_
'3	läuft	_	_	VERB
'4	an	_	_	_
'5	diesem	_	_	_
'6	Nachmittag	_	_	_
'7	eine	_	_	_
'8	Großfahndung	nsp	_	_
'9	.	_	_	_

# source_sent_id = . . train-s1888
# text = Die Luftwaffe hatte am Samstag drei Fahrzeuge der LTTE bombadiert.
'1	Die	_	_	_
'2	Luftwaffe	_	_	_
'3	hatte	_	_	_
'4-5	am	_	_	_
'4	an	_	_	_
'5	dem	_	_	_
'6	Samstag	_	_	_
'7	drei	_	_	_
'8	Fahrzeuge	_	_	_
'9	der	_	_	_
'10	LTTE	_	_	_
'11	bombadiert	nsp	_	VERB
'12	.	_	_	_

# source_sent_id = . . train-s1889
# text = Die Eröffnung des Gipfels war begleitet von harten Polizeieinsätzen gegen Demonstranten.
'1	Die	_	_	_
'2	Eröffnung	_	_	_
'3	des	_	_	_
'4	Gipfels	_	_	_
'5	war	_	_	VERB
'6	begleitet	_	_	_
'7	von	_	_	_
'8	harten	_	_	_
'9	Polizeieinsätzen	_	_	_
'10	gegen	_	_	_
'11	Demonstranten	nsp	_	_
'12	.	_	_	_

# source_sent_id = . . train-s1892
# text = Dieser Vorwurf bleibt eine Lüge, egal wie oft er wiederholt wird.'
'1	Dieser	_	_	_
'2	Vorwurf	_	_	_
'3	bleibt	_	_	VERB
'4	eine	_	_	_
'5	Lüge	nsp	_	_
'6	,	_	_	_
'7	egal	_	_	_
'8	wie	_	_	_
'9	oft	_	_	_
'10	er	_	_	_
'11	wiederholt	_	_	VERB
'12	wird	nsp	_	_
'13	.	nsp	_	_
'14	'	_	_	_

# source_sent_id = . . train-s1893
# text = Der aserbaidschanische Verteidigungsministerium teilte mit, Mardakert sei ``von der Armee umzingelt''.
'1	Der	_	_	_
'2	aserbaidschanische	_	_	_
'3	Verteidigungsministerium	_	_	_
'4	teilte	_	_	VERB
'5	mit	nsp	_	_
'6	,	_	_	_
'7	Mardakert	_	_	_
'8	sei	_	_	_
'9	``	nsp	_	_
'10	von	_	_	_
'11	der	_	_	_
'12	Armee	_	_	_
'13	umzingelt	nsp	_	VERB
'14	''	nsp	_	_
'15	.	_	_	_

# source_sent_id = . . train-s1894
# text = Schmidt erinnert an besondere Verantwortung für Israel
'1	Schmidt	_	_	_
'2	erinnert	_	_	VERB
'3	an	_	_	_
'4	besondere	_	_	_
'5	Verantwortung	_	_	_
'6	für	_	_	_
'7	Israel	_	_	_

# source_sent_id = . . train-s1895
# text = Das neue Asylgesetz beschleunigt Verfahren nicht.
'1	Das	_	_	_
'2	neue	_	_	_
'3	Asylgesetz	_	_	_
'4	beschleunigt	_	_	VERB
'5	Verfahren	_	_	_
'6	nicht	nsp	_	_
'7	.	_	_	_

# source_sent_id = . . train-s1896
# text = Es gibt nur zwei Wege.
'1	Es	_	_	_
'2	gibt	_	_	VERB
'3	nur	_	_	_
'4	zwei	_	_	_
'5	Wege	nsp	_	_
'6	.	_	_	_

# source_sent_id = . . train-s1897
# text = Christophe Mitterrand, der älteste Sohn des französischen Staatspräsidenten François Mitterrand, ist nicht mehr amtlicher Afrikaberater seines Vaters.
'1	Christophe	_	_	_
'2	Mitterrand	nsp	_	_
'3	,	_	_	_
'4	der	_	_	_
'5	älteste	_	_	_
'6	Sohn	_	_	_
'7	des	_	_	_
'8	französischen	_	_	_
'9	Staatspräsidenten	_	_	_
'10	François	_	_	_
'11	Mitterrand	nsp	_	_
'12	,	_	_	_
'13	ist	_	_	VERB
'14	nicht	_	_	_
'15	mehr	_	_	_
'16	amtlicher	_	_	_
'17	Afrikaberater	_	_	_
'18	seines	_	_	_
'19	Vaters	nsp	_	_
'20	.	_	_	_

# source_sent_id = . . train-s1898
# text = Die Flics greifen an!
'1	Die	_	_	_
'2	Flics	_	_	_
'3	greifen	_	_	VERB
'4	an	nsp	_	_
'5	!	_	_	_

# source_sent_id = . . train-s1899
# text = Die Frage, ob darüber gegenwärtig Gespräche mit BASF stattfänden, bleibt unbeantwortet.
'1	Die	_	_	_
'2	Frage	nsp	_	_
'3	,	_	_	_
'4	ob	_	_	_
'5	darüber	_	_	_
'6	gegenwärtig	_	_	_
'7	Gespräche	_	_	_
'8	mit	_	_	_
'9	BASF	_	_	_
'10	stattfänden	nsp	_	VERB
'11	,	_	_	_
'12	bleibt	_	_	VERB
'13	unbeantwortet	nsp	_	_
'14	.	_	_	_

# source_sent_id = . . train-s1900
# text = Der Vorstand bereitet es sichtlich Mühe, die Gewinne halbwegs zu verstecken.
'1	Der	_	_	_
'2	Vorstand	_	_	_
'3	bereitet	_	_	VERB
'4	es	_	_	_
'5	sichtlich	_	_	_
'6	Mühe	nsp	_	_
'7	,	_	_	_
'8	die	_	_	_
'9	Gewinne	_	_	_
'10	halbwegs	_	_	_
'11	zu	_	_	_
'12	verstecken	nsp	_	VERB
'13	.	_	_	_

# source_sent_id = . . train-s1901
# text = Die Offizierskorps der irakischen Armee hat nach einem Bericht der ``New York Times'' eine Säuberungswelle begonnen.
'1	Die	_	_	_
'2	Offizierskorps	_	_	_
'3	der	_	_	_
'4	irakischen	_	_	_
'5	Armee	_	_	_
'6	hat	_	_	_
'7	nach	_	_	_
'8	einem	_	_	_
'9	Bericht	_	_	_
'10	der	_	_	_
'11	``	nsp	_	_
'12	New	_	_	_
'13	York	_	_	_
'14	Times	nsp	_	_
'15	''	_	_	_
'16	eine	_	_	_
'17	Säuberungswelle	_	_	_
'18	begonnen	nsp	_	VERB
'19	.	_	_	_

# source_sent_id = . . train-s1902
# text = Der Bundesverteidigungsminister sagte, er habe in London seinen Vorschlag bekräftigt, die taktischen Erfordernissen künftiger Verteidigung gemeinsam neu zu bewerten und zusammen mit weiteren Partnern ein gänzlich neues, um 30 bis 40 Prozent billigeres Flugzeug zu entwerfen.
'1	Der	_	_	_
'2	Bundesverteidigungsminister	_	_	_
'3	sagte	nsp	_	VERB
'4	,	_	_	_
'5	er	_	_	_
'6	habe	_	_	_
'7	in	_	_	_
'8	London	_	_	_
'9	seinen	_	_	_
'10	Vorschlag	_	_	_
'11	bekräftigt	nsp	_	VERB
'12	,	_	_	_
'13	die	_	_	_
'14	taktischen	_	_	_
'15	Erfordernissen	_	_	_
'16	künftiger	_	_	_
'17	Verteidigung	_	_	_
'18	gemeinsam	_	_	_
'19	neu	_	_	_
'20	zu	_	_	_
'21	bewerten	_	_	VERB
'22	und	_	_	_
'23	zusammen	_	_	_
'24	mit	_	_	_
'25	weiteren	_	_	_
'26	Partnern	_	_	_
'27	ein	_	_	_
'28	gänzlich	_	_	_
'29	neues	nsp	_	_
'30	,	_	_	_
'31	um	_	_	_
'32	30	_	_	_
'33	bis	_	_	_
'34	40	_	_	_
'35	Prozent	_	_	_
'36	billigeres	_	_	_
'37	Flugzeug	_	_	_
'38	zu	_	_	_
'39	entwerfen	nsp	_	VERB
'40	.	_	_	_

# source_sent_id = . . train-s1903
# text = Beobachter vertraten die Ansicht, Irak wolle lediglich testen, wie entschlossen der Sicherheitsrat sei, seine Forderung durchzusetzen.
'1	Beobachter	_	_	_
'2	vertraten	_	_	VERB
'3	die	_	_	_
'4	Ansicht	nsp	_	_
'5	,	_	_	_
'6	Irak	_	_	_
'7	wolle	_	_	_
'8	lediglich	_	_	_
'9	testen	nsp	_	VERB
'10	,	_	_	_
'11	wie	_	_	_
'12	entschlossen	_	_	_
'13	der	_	_	_
'14	Sicherheitsrat	_	_	_
'15	sei	nsp	_	VERB
'16	,	_	_	_
'17	seine	_	_	_
'18	Forderung	_	_	_
'19	durchzusetzen	nsp	_	VERB
'20	.	_	_	_

# source_sent_id = . . train-s1904
# text = Die Rektoren erwarten, daß der Staat die Hochschulen dauerhaft mit insgesamt 1,325 Millionen Studienplätzen ausstattet, davon rund 420 000 an den Fachhochschulen.
'1	Die	_	_	_
'2	Rektoren	_	_	_
'3	erwarten	nsp	_	VERB
'4	,	_	_	_
'5	daß	_	_	_
'6	der	_	_	_
'7	Staat	_	_	_
'8	die	_	_	_
'9	Hochschulen	_	_	_
'10	dauerhaft	_	_	_
'11	mit	_	_	_
'12	insgesamt	_	_	_
'13	1,325	_	_	_
'14	Millionen	_	_	_
'15	Studienplätzen	_	_	_
'16	ausstattet	nsp	_	VERB
'17	,	_	_	_
'18	davon	_	_	_
'19	rund	_	_	_
'20	420	_	_	_
'21	000	_	_	_
'22	an	_	_	_
'23	den	_	_	_
'24	Fachhochschulen	nsp	_	_
'25	.	_	_	_

# source_sent_id = . . train-s1905
# text = Die U.S. -- Menschenrechtsorganisation ``Afrika Watch'' hat dem zairischen Präsidenten Mobutu Sese Seko vorgeworfen, den demokratischen Prozeß in seinem Land zu sabotieren.
'1	Die	_	_	_
'2	U.S.	_	_	_
'3	--	_	_	_
'4	Menschenrechtsorganisation	_	_	_
'5	``	nsp	_	_
'6	Afrika	_	_	_
'7	Watch	nsp	_	_
'8	''	_	_	_
'9	hat	_	_	_
'10	dem	_	_	_
'11	zairischen	_	_	_
'12	Präsidenten	_	_	_
'13	Mobutu	_	_	_
'14	Sese	_	_	_
'15	Seko	_	_	_
'16	vorgeworfen	nsp	_	VERB
'17	,	_	_	_
'18	den	_	_	_
'19	demokratischen	_	_	_
'20	Prozeß	_	_	_
'21	in	_	_	_
'22	seinem	_	_	_
'23	Land	_	_	_
'24	zu	_	_	_
'25	sabotieren	nsp	_	VERB
'26	.	_	_	_

# source_sent_id = . . train-s1906
# text = Da geht die Marktwirtschaft kaputt.
'1	Da	_	_	_
'2	geht	_	_	VERB
'3	die	_	_	_
'4	Marktwirtschaft	_	_	_
'5	kaputt	nsp	_	_
'6	.	_	_	_

# source_sent_id = . . train-s1907
# text = die Wahlbeteiligung wurde von der polnischen Nachrichtenagentur PAP zwei Stunden vor Schließung der Wahllokale auf nur 40 bis 60 Prozent geschätzt.
'1	die	_	_	_
'2	Wahlbeteiligung	_	_	_
'3	wurde	_	_	_
'4	von	_	_	_
'5	der	_	_	_
'6	polnischen	_	_	_
'7	Nachrichtenagentur	_	_	_
'8	PAP	_	_	_
'9	zwei	_	_	_
'10	Stunden	_	_	_
'11	vor	_	_	_
'12	Schließung	_	_	_
'13	der	_	_	_
'14	Wahllokale	_	_	_
'15	auf	_	_	_
'16	nur	_	_	_
'17	40	_	_	_
'18	bis	_	_	_
'19	60	_	_	_
'20	Prozent	_	_	_
'21	geschätzt	nsp	_	VERB
'22	.	_	_	_

# source_sent_id = . . train-s1908
# text = Der Berliner Politologe und Sprecher des Komitees für Grundrechte und Demokratie ist vom Bonner Amtsgericht wegen des Aufrufs zu Straftaten zu einer Geldstrafe von 5400 Mark verurteilt worden.
'1	Der	_	_	_
'2	Berliner	_	_	_
'3	Politologe	_	_	_
'4	und	_	_	_
'5	Sprecher	_	_	_
'6	des	_	_	_
'7	Komitees	_	_	_
'8	für	_	_	_
'9	Grundrechte	_	_	_
'10	und	_	_	_
'11	Demokratie	_	_	_
'12	ist	_	_	_
'13-14	vom	_	_	_
'13	von	_	_	_
'14	dem	_	_	_
'15	Bonner	_	_	_
'16	Amtsgericht	_	_	_
'17	wegen	_	_	_
'18	des	_	_	_
'19	Aufrufs	_	_	_
'20	zu	_	_	_
'21	Straftaten	_	_	_
'22	zu	_	_	_
'23	einer	_	_	_
'24	Geldstrafe	_	_	_
'25	von	_	_	_
'26	5400	_	_	_
'27	Mark	_	_	_
'28	verurteilt	_	_	VERB
'29	worden	nsp	_	_
'30	.	_	_	_

# source_sent_id = . . train-s1909
# text = Die Flucht der Bevölkerung aus den umkämpften Gebieten riß auch am Wochenende nicht ab.
'1	Die	_	_	_
'2	Flucht	_	_	_
'3	der	_	_	_
'4	Bevölkerung	_	_	_
'5	aus	_	_	_
'6	den	_	_	_
'7	umkämpften	_	_	_
'8	Gebieten	_	_	_
'9	riß	_	_	VERB
'10	auch	_	_	_
'11-12	am	_	_	_
'11	an	_	_	_
'12	dem	_	_	_
'13	Wochenende	_	_	_
'14	nicht	_	_	_
'15	ab	nsp	_	_
'16	.	_	_	_

# source_sent_id = . . train-s1910
# text = Die Ministerien sind direkt dem Präsidenten unterstellt.
'1	Die	_	_	_
'2	Ministerien	_	_	_
'3	sind	_	_	_
'4	direkt	_	_	_
'5	dem	_	_	_
'6	Präsidenten	_	_	_
'7	unterstellt	nsp	_	VERB
'8	.	_	_	_

# source_sent_id = . . train-s1911
# text = Die Schäden sind immens, und uns fliegen Munitionsteile um die Ohren,'' berichtete ein Feuerwehrmann.
'1	Die	_	_	_
'2	Schäden	_	_	_
'3	sind	_	_	VERB
'4	immens	nsp	_	_
'5	,	_	_	_
'6	und	_	_	_
'7	uns	_	_	_
'8	fliegen	_	_	VERB
'9	Munitionsteile	_	_	_
'10	um	_	_	_
'11	die	_	_	_
'12	Ohren	nsp	_	_
'13	,	nsp	_	_
'14	''	_	_	_
'15	berichtete	_	_	VERB
'16	ein	_	_	_
'17	Feuerwehrmann	nsp	_	_
'18	.	_	_	_

# source_sent_id = . . train-s1912
# text = Der Mord an dem israelischen Regierungschef Yitzhak Rabin wurde in den meisten Ländern mit Entsetzen aufgenommen.
'1	Der	_	_	_
'2	Mord	_	_	_
'3	an	_	_	_
'4	dem	_	_	_
'5	israelischen	_	_	_
'6	Regierungschef	_	_	_
'7	Yitzhak	_	_	_
'8	Rabin	_	_	_
'9	wurde	_	_	_
'10	in	_	_	_
'11	den	_	_	_
'12	meisten	_	_	_
'13	Ländern	_	_	_
'14	mit	_	_	_
'15	Entsetzen	_	_	_
'16	aufgenommen	nsp	_	VERB
'17	.	_	_	_

# source_sent_id = . . train-s1913
# text = Weil wir nicht trinken und nicht an ihren Festen teilnehmen, haben sie uns aus dem Dorf gejagt.
'1	Weil	_	_	_
'2	wir	_	_	_
'3	nicht	_	_	_
'4	trinken	_	_	VERB
'5	und	_	_	_
'6	nicht	_	_	_
'7	an	_	_	_
'8	ihren	_	_	_
'9	Festen	_	_	_
'10	teilnehmen	nsp	_	VERB
'11	,	_	_	_
'12	haben	_	_	_
'13	sie	_	_	_
'14	uns	_	_	_
'15	aus	_	_	_
'16	dem	_	_	_
'17	Dorf	_	_	_
'18	gejagt	nsp	_	VERB
'19	.	_	_	_

# source_sent_id = . . train-s1914
# text = Es paßt nicht in die Mentalität dieser Leute, zu schmuggeln,'' meint der Vorsteher des Amtes am Autobahnübergang Weil, Gerhard Nickel.
'1	Es	_	_	_
'2	paßt	_	_	VERB
'3	nicht	_	_	_
'4	in	_	_	_
'5	die	_	_	_
'6	Mentalität	_	_	_
'7	dieser	_	_	_
'8	Leute	nsp	_	_
'9	,	_	_	_
'10	zu	_	_	_
'11	schmuggeln	nsp	_	VERB
'12	,	nsp	_	_
'13	''	_	_	_
'14	meint	_	_	VERB
'15	der	_	_	_
'16	Vorsteher	_	_	_
'17	des	_	_	_
'18	Amtes	_	_	_
'19-20	am	_	_	_
'19	an	_	_	_
'20	dem	_	_	_
'21	Autobahnübergang	_	_	_
'22	Weil	nsp	_	_
'23	,	_	_	_
'24	Gerhard	_	_	_
'25	Nickel	nsp	_	_
'26	.	_	_	_

# source_sent_id = . . train-s1915
# text = Alle UN -- Organisationen sind besorgt über die wachsende Verarmung der Landbevölkerung,'' sagte der Vertreter des Entwicklungsprogramms der Vereinten Nationen (UNDP,) Douglas W. Gardner, bei Härdtls Besuch.
'1	Alle	_	_	_
'2	UN	_	_	_
'3	--	_	_	_
'4	Organisationen	_	_	_
'5	sind	_	_	VERB
'6	besorgt	_	_	_
'7	über	_	_	_
'8	die	_	_	_
'9	wachsende	_	_	_
'10	Verarmung	_	_	_
'11	der	_	_	_
'12	Landbevölkerung	nsp	_	_
'13	,	nsp	_	_
'14	''	_	_	_
'15	sagte	_	_	VERB
'16	der	_	_	_
'17	Vertreter	_	_	_
'18	des	_	_	_
'19	Entwicklungsprogramms	_	_	_
'20	der	_	_	_
'21	Vereinten	_	_	_
'22	Nationen	_	_	_
'23	(	nsp	_	_
'24	UNDP	nsp	_	_
'25	,	nsp	_	_
'26	)	_	_	_
'27	Douglas	_	_	_
'28	W.	_	_	_
'29	Gardner	nsp	_	_
'30	,	_	_	_
'31	bei	_	_	_
'32	Härdtls	_	_	_
'33	Besuch	nsp	_	_
'34	.	_	_	_

# source_sent_id = . . train-s1916
# text = Ich lernte, mit der Pistole umzugehen und Wache zu schieben.''
'1	Ich	_	_	_
'2	lernte	nsp	_	VERB
'3	,	_	_	_
'4	mit	_	_	_
'5	der	_	_	_
'6	Pistole	_	_	_
'7	umzugehen	_	_	VERB
'8	und	_	_	_
'9	Wache	_	_	_
'10	zu	_	_	_
'11	schieben	nsp	_	VERB
'12	.	nsp	_	_
'13	''	_	_	_

# source_sent_id = . . train-s1917
# text = Ich bin völlig fertig,'' schluchzte eine alte Dame.
'1	Ich	_	_	_
'2	bin	_	_	VERB
'3	völlig	_	_	_
'4	fertig	nsp	_	_
'5	,	nsp	_	_
'6	''	_	_	_
'7	schluchzte	_	_	VERB
'8	eine	_	_	_
'9	alte	_	_	_
'10	Dame	nsp	_	_
'11	.	_	_	_

# source_sent_id = . . train-s1918
# text = Der Vorsitzende der palästinensischen Verwaltung, Yassir Arafat, wolle, daß einer der drei im Gaza -- Streifen geplanten Industrieparks von Deutschen übernommen werde.
'1	Der	_	_	_
'2	Vorsitzende	_	_	_
'3	der	_	_	_
'4	palästinensischen	_	_	_
'5	Verwaltung	nsp	_	_
'6	,	_	_	_
'7	Yassir	_	_	_
'8	Arafat	nsp	_	_
'9	,	_	_	_
'10	wolle	nsp	_	VERB
'11	,	_	_	_
'12	daß	_	_	_
'13	einer	_	_	_
'14	der	_	_	_
'15	drei	_	_	_
'16-17	im	_	_	_
'16	in	_	_	_
'17	dem	_	_	_
'18	Gaza	_	_	_
'19	--	_	_	_
'20	Streifen	_	_	_
'21	geplanten	_	_	_
'22	Industrieparks	_	_	_
'23	von	_	_	_
'24	Deutschen	_	_	_
'25	übernommen	_	_	VERB
'26	werde	nsp	_	_
'27	.	_	_	_

# source_sent_id = . . train-s1919
# text = Die Zahl der Toten nach dem Taifun auf den Philippinen ist nach offiziellen Angaben auf mehr als 600 angestiegen.
'1	Die	_	_	_
'2	Zahl	_	_	_
'3	der	_	_	_
'4	Toten	_	_	_
'5	nach	_	_	_
'6	dem	_	_	_
'7	Taifun	_	_	_
'8	auf	_	_	_
'9	den	_	_	_
'10	Philippinen	_	_	_
'11	ist	_	_	_
'12	nach	_	_	_
'13	offiziellen	_	_	_
'14	Angaben	_	_	_
'15	auf	_	_	_
'16	mehr	_	_	_
'17	als	_	_	_
'18	600	_	_	_
'19	angestiegen	nsp	_	VERB
'20	.	_	_	_

# source_sent_id = . . train-s1920
# text = Der 34jährige Algerier war im Oktober aus Mangel an Beweisen freigesprochen worden.
'1	Der	_	_	_
'2	34jährige	_	_	_
'3	Algerier	_	_	_
'4	war	_	_	_
'5-6	im	_	_	_
'5	in	_	_	_
'6	dem	_	_	_
'7	Oktober	_	_	_
'8	aus	_	_	_
'9	Mangel	_	_	_
'10	an	_	_	_
'11	Beweisen	_	_	_
'12	freigesprochen	_	_	VERB
'13	worden	nsp	_	_
'14	.	_	_	_

# source_sent_id = . . train-s1921
# text = Die Kanadier hätten seit vielen Jahren Zeit, sich umzustellen, es gebe kein Argument dafür, daß die Verordnung zu früh komme, sagt Naturschutzreferent Martin Riebe.
'1	Die	_	_	_
'2	Kanadier	_	_	_
'3	hätten	_	_	VERB
'4	seit	_	_	_
'5	vielen	_	_	_
'6	Jahren	_	_	_
'7	Zeit	nsp	_	_
'8	,	_	_	_
'9	sich	_	_	_
'10	umzustellen	nsp	_	VERB
'11	,	_	_	_
'12	es	_	_	_
'13	gebe	_	_	VERB
'14	kein	_	_	_
'15	Argument	_	_	_
'16	dafür	nsp	_	_
'17	,	_	_	_
'18	daß	_	_	_
'19	die	_	_	_
'20	Verordnung	_	_	_
'21	zu	_	_	_
'22	früh	_	_	_
'23	komme	nsp	_	VERB
'24	,	_	_	_
'25	sagt	_	_	VERB
'26	Naturschutzreferent	_	_	_
'27	Martin	_	_	_
'28	Riebe	nsp	_	_
'29	.	_	_	_

# source_sent_id = . . train-s1922
# text = Die im Frühjahr 1991 gebildete große Koalition ist abgewählt worden.
'1	Die	_	_	_
'2-3	im	_	_	_
'2	in	_	_	_
'3	dem	_	_	_
'4	Frühjahr	_	_	_
'5	1991	_	_	_
'6	gebildete	_	_	_
'7	große	_	_	_
'8	Koalition	_	_	_
'9	ist	_	_	_
'10	abgewählt	_	_	VERB
'11	worden	nsp	_	_
'12	.	_	_	_

# source_sent_id = . . train-s1923
# text = BA habe seit der Wende in Ostdeutschland drei Millionen Arbeitnehmer beruflich qualifiziert;
'1	BA	_	_	_
'2	habe	_	_	_
'3	seit	_	_	_
'4	der	_	_	_
'5	Wende	_	_	_
'6	in	_	_	_
'7	Ostdeutschland	_	_	_
'8	drei	_	_	_
'9	Millionen	_	_	_
'10	Arbeitnehmer	_	_	_
'11	beruflich	_	_	_
'12	qualifiziert	nsp	_	VERB
'13	;	_	_	_

# source_sent_id = . . train-s1924
# text = Wenn einer offen alte stalinistische Parolen vertritt, muß das ein Ausschlußgrund sein.
'1	Wenn	_	_	_
'2	einer	_	_	_
'3	offen	_	_	_
'4	alte	_	_	_
'5	stalinistische	_	_	_
'6	Parolen	_	_	_
'7	vertritt	nsp	_	VERB
'8	,	_	_	_
'9	muß	_	_	_
'10	das	_	_	_
'11	ein	_	_	_
'12	Ausschlußgrund	_	_	_
'13	sein	nsp	_	VERB
'14	.	_	_	_

# source_sent_id = . . train-s1925
# text = Haben Sie schon mal gehört,'' fragt einer aus dem SPD -- Troß ``, daß Ringstorff den Friese deckelt?''
'1	Haben	_	_	_
'2	Sie	_	_	_
'3	schon	_	_	_
'4	mal	_	_	_
'5	gehört	nsp	_	VERB
'6	,	nsp	_	_
'7	''	_	_	_
'8	fragt	_	_	VERB
'9	einer	_	_	_
'10	aus	_	_	_
'11	dem	_	_	_
'12	SPD	_	_	_
'13	--	_	_	_
'14	Troß	_	_	_
'15	``	nsp	_	_
'16	,	_	_	_
'17	daß	_	_	_
'18	Ringstorff	_	_	_
'19	den	_	_	_
'20	Friese	_	_	_
'21	deckelt	nsp	_	VERB
'22	?	nsp	_	_
'23	''	_	_	_

# source_sent_id = . . train-s1926
# text = Es gibt auch keinen Hinweis, daß die Arbeitnehmer am Montag und am Dienstag zur Arbeit kommen müssen.
'1	Es	_	_	_
'2	gibt	_	_	VERB
'3	auch	_	_	_
'4	keinen	_	_	_
'5	Hinweis	nsp	_	_
'6	,	_	_	_
'7	daß	_	_	_
'8	die	_	_	_
'9	Arbeitnehmer	_	_	_
'10-11	am	_	_	_
'10	an	_	_	_
'11	dem	_	_	_
'12	Montag	_	_	_
'13	und	_	_	_
'14-15	am	_	_	_
'14	an	_	_	_
'15	dem	_	_	_
'16	Dienstag	_	_	_
'17-18	zur	_	_	_
'17	zu	_	_	_
'18	der	_	_	_
'19	Arbeit	_	_	_
'20	kommen	_	_	VERB
'21	müssen	nsp	_	_
'22	.	_	_	_

# source_sent_id = . . train-s1927
# text = Der Zusammenbruch des Kommunismus in der Sowjetunion sei nur ein vorübergehender Rückschlag, von dem die Bewegung sich erholen werde, hieß es.
'1	Der	_	_	_
'2	Zusammenbruch	_	_	_
'3	des	_	_	_
'4	Kommunismus	_	_	_
'5	in	_	_	_
'6	der	_	_	_
'7	Sowjetunion	_	_	_
'8	sei	_	_	VERB
'9	nur	_	_	_
'10	ein	_	_	_
'11	vorübergehender	_	_	_
'12	Rückschlag	nsp	_	_
'13	,	_	_	_
'14	von	_	_	_
'15	dem	_	_	_
'16	die	_	_	_
'17	Bewegung	_	_	_
'18	sich	_	_	_
'19	erholen	_	_	VERB
'20	werde	nsp	_	_
'21	,	_	_	_
'22	hieß	_	_	VERB
'23	es	nsp	_	_
'24	.	_	_	_

# source_sent_id = . . train-s1928
# text = So kämpften sie.
'1	So	_	_	_
'2	kämpften	_	_	VERB
'3	sie	nsp	_	_
'4	.	_	_	_

# source_sent_id = . . train-s1929
# text = Die scheinbare Rettung durch Zusicherung von sieben Millionen Mark jährlich von der Bundesregierung ist in Wahrheit nur die Fortsetzung eines Sterbeprozesses,'' heißt es in einem Memorandum.
'1	Die	_	_	_
'2	scheinbare	_	_	_
'3	Rettung	_	_	_
'4	durch	_	_	_
'5	Zusicherung	_	_	_
'6	von	_	_	_
'7	sieben	_	_	_
'8	Millionen	_	_	_
'9	Mark	_	_	_
'10	jährlich	_	_	_
'11	von	_	_	_
'12	der	_	_	_
'13	Bundesregierung	_	_	_
'14	ist	_	_	VERB
'15	in	_	_	_
'16	Wahrheit	_	_	_
'17	nur	_	_	_
'18	die	_	_	_
'19	Fortsetzung	_	_	_
'20	eines	_	_	_
'21	Sterbeprozesses	nsp	_	_
'22	,	nsp	_	_
'23	''	_	_	_
'24	heißt	_	_	VERB
'25	es	_	_	_
'26	in	_	_	_
'27	einem	_	_	_
'28	Memorandum	nsp	_	_
'29	.	_	_	_

# source_sent_id = . . train-s1930
# text = Die Ukraine brauche dieses Geld unter anderem, um den Unglücksreaktorblock IV mit einem neuen Betonsarkophag zu umhüllen.
'1	Die	_	_	_
'2	Ukraine	_	_	_
'3	brauche	_	_	VERB
'4	dieses	_	_	_
'5	Geld	_	_	_
'6	unter	_	_	_
'7	anderem	nsp	_	_
'8	,	_	_	_
'9	um	_	_	_
'10	den	_	_	_
'11	Unglücksreaktorblock	_	_	_
'12	IV	_	_	_
'13	mit	_	_	_
'14	einem	_	_	_
'15	neuen	_	_	_
'16	Betonsarkophag	_	_	_
'17	zu	_	_	_
'18	umhüllen	nsp	_	VERB
'19	.	_	_	_

# source_sent_id = . . train-s1931
# text = Jacques Chirac beauftragte ihn gleich danach mit der Bildung eines neuen Kabinetts.
'1	Jacques	_	_	_
'2	Chirac	_	_	_
'3	beauftragte	_	_	VERB
'4	ihn	_	_	_
'5	gleich	_	_	_
'6	danach	_	_	_
'7	mit	_	_	_
'8	der	_	_	_
'9	Bildung	_	_	_
'10	eines	_	_	_
'11	neuen	_	_	_
'12	Kabinetts	nsp	_	_
'13	.	_	_	_

# source_sent_id = . . train-s1932
# text = An Einfällen fehlte es nicht, und vor Anachronismen schreckte sie nicht zurück.
'1	An	_	_	_
'2	Einfällen	_	_	_
'3	fehlte	_	_	VERB
'4	es	_	_	_
'5	nicht	nsp	_	_
'6	,	_	_	_
'7	und	_	_	_
'8	vor	_	_	_
'9	Anachronismen	_	_	_
'10	schreckte	_	_	VERB
'11	sie	_	_	_
'12	nicht	_	_	_
'13	zurück	nsp	_	_
'14	.	_	_	_

# source_sent_id = . . train-s1933
# text = Wir haben uns ernsthaft dazu verpflichtet, und deshalb werden wir es auch ernsthaft umsetzen,'' sagte der amtierende Ministerpräsident.
'1	Wir	_	_	_
'2	haben	_	_	_
'3	uns	_	_	_
'4	ernsthaft	_	_	_
'5	dazu	_	_	_
'6	verpflichtet	nsp	_	VERB
'7	,	_	_	_
'8	und	_	_	_
'9	deshalb	_	_	_
'10	werden	_	_	_
'11	wir	_	_	_
'12	es	_	_	_
'13	auch	_	_	_
'14	ernsthaft	_	_	_
'15	umsetzen	nsp	_	VERB
'16	,	nsp	_	_
'17	''	_	_	_
'18	sagte	_	_	VERB
'19	der	_	_	_
'20	amtierende	_	_	VERB
'21	Ministerpräsident	nsp	_	_
'22	.	_	_	_

# source_sent_id = . . train-s1934
# text = Kohlwage räumte ein, daß im vergangenen Jahr politisch Verantwortliche kaum auf den EKD -- Bericht reagiert hätten.
'1	Kohlwage	_	_	_
'2	räumte	_	_	VERB
'3	ein	nsp	_	_
'4	,	_	_	_
'5	daß	_	_	_
'6-7	im	_	_	_
'6	in	_	_	_
'7	dem	_	_	_
'8	vergangenen	_	_	_
'9	Jahr	_	_	_
'10	politisch	_	_	_
'11	Verantwortliche	_	_	_
'12	kaum	_	_	_
'13	auf	_	_	_
'14	den	_	_	_
'15	EKD	_	_	_
'16	--	_	_	_
'17	Bericht	_	_	_
'18	reagiert	_	_	VERB
'19	hätten	nsp	_	_
'20	.	_	_	_

# source_sent_id = . . train-s1935
# text = Wir müssen gemeinsam Verantwortung für Europa übernehmen,'' appellierte Waigel an die SPD und die von ihr beherrschte Länderkammer.
'1	Wir	_	_	_
'2	müssen	_	_	_
'3	gemeinsam	_	_	_
'4	Verantwortung	_	_	_
'5	für	_	_	_
'6	Europa	_	_	_
'7	übernehmen	nsp	_	VERB
'8	,	nsp	_	_
'9	''	_	_	_
'10	appellierte	_	_	VERB
'11	Waigel	_	_	_
'12	an	_	_	_
'13	die	_	_	_
'14	SPD	_	_	_
'15	und	_	_	_
'16	die	_	_	_
'17	von	_	_	_
'18	ihr	_	_	_
'19	beherrschte	_	_	_
'20	Länderkammer	nsp	_	_
'21	.	_	_	_

# source_sent_id = . . train-s1936
# text = Der Reaktor muß für etwa eine Woche abgestellt werden.
'1	Der	_	_	_
'2	Reaktor	_	_	_
'3	muß	_	_	_
'4	für	_	_	_
'5	etwa	_	_	_
'6	eine	_	_	_
'7	Woche	_	_	_
'8	abgestellt	_	_	VERB
'9	werden	nsp	_	_
'10	.	_	_	_

# source_sent_id = . . train-s1937
# text = Es scheiden die Vertreter von Ruanda, Argentinien, Oman, Nigeria und Tschechiens aus.
'1	Es	_	_	_
'2	scheiden	_	_	VERB
'3	die	_	_	_
'4	Vertreter	_	_	_
'5	von	_	_	_
'6	Ruanda	nsp	_	_
'7	,	_	_	_
'8	Argentinien	nsp	_	_
'9	,	_	_	_
'10	Oman	nsp	_	_
'11	,	_	_	_
'12	Nigeria	_	_	_
'13	und	_	_	_
'14	Tschechiens	_	_	_
'15	aus	nsp	_	_
'16	.	_	_	_

# source_sent_id = . . train-s1938
# text = Daß Tiere für studentische Praktika gequält und getötet werden, ist ethisch nicht zu vertreten und wissenschaftlich nicht zu begründen,'' sagte der Präsident der Organisation, Wolfgang Apel, am Mittwoch in Bonn.
'1	Daß	_	_	_
'2	Tiere	_	_	_
'3	für	_	_	_
'4	studentische	_	_	_
'5	Praktika	_	_	_
'6	gequält	_	_	VERB
'7	und	_	_	_
'8	getötet	_	_	VERB
'9	werden	nsp	_	_
'10	,	_	_	_
'11	ist	_	_	VERB
'12	ethisch	_	_	_
'13	nicht	_	_	_
'14	zu	_	_	_
'15	vertreten	_	_	VERB
'16	und	_	_	_
'17	wissenschaftlich	_	_	_
'18	nicht	_	_	_
'19	zu	_	_	_
'20	begründen	nsp	_	VERB
'21	,	nsp	_	_
'22	''	_	_	_
'23	sagte	_	_	VERB
'24	der	_	_	_
'25	Präsident	_	_	_
'26	der	_	_	_
'27	Organisation	nsp	_	_
'28	,	_	_	_
'29	Wolfgang	_	_	_
'30	Apel	nsp	_	_
'31	,	_	_	_
'32-33	am	_	_	_
'32	an	_	_	_
'33	dem	_	_	_
'34	Mittwoch	_	_	_
'35	in	_	_	_
'36	Bonn	nsp	_	_
'37	.	_	_	_

# source_sent_id = . . train-s1939
# text = Jacques Chirac hatte das Kabinett am Vortag aufgelöst, um seine Neubildung und Verkleinerung zu ermöglichen -- nun sind es 16 statt 25 Minister.
'1	Jacques	_	_	_
'2	Chirac	_	_	_
'3	hatte	_	_	_
'4	das	_	_	_
'5	Kabinett	_	_	_
'6-7	am	_	_	_
'6	an	_	_	_
'7	dem	_	_	_
'8	Vortag	_	_	_
'9	aufgelöst	nsp	_	VERB
'10	,	_	_	_
'11	um	_	_	_
'12	seine	_	_	_
'13	Neubildung	_	_	_
'14	und	_	_	_
'15	Verkleinerung	_	_	_
'16	zu	_	_	_
'17	ermöglichen	_	_	VERB
'18	--	_	_	_
'19	nun	_	_	_
'20	sind	_	_	VERB
'21	es	_	_	_
'22	16	_	_	_
'23	statt	_	_	_
'24	25	_	_	_
'25	Minister	nsp	_	_
'26	.	_	_	_

# source_sent_id = . . train-s1940
# text = Die Grundbedürfnis könne auf Dauer nicht unterdrückt werden, sagte die CDU -- Politikerin am Mittwoch in Bonn.
'1	Die	_	_	_
'2	Grundbedürfnis	_	_	_
'3	könne	_	_	_
'4	auf	_	_	_
'5	Dauer	_	_	_
'6	nicht	_	_	_
'7	unterdrückt	_	_	VERB
'8	werden	nsp	_	_
'9	,	_	_	_
'10	sagte	_	_	VERB
'11	die	_	_	_
'12	CDU	_	_	_
'13	--	_	_	_
'14	Politikerin	_	_	_
'15-16	am	_	_	_
'15	an	_	_	_
'16	dem	_	_	_
'17	Mittwoch	_	_	_
'18	in	_	_	_
'19	Bonn	nsp	_	_
'20	.	_	_	_

# source_sent_id = . . train-s1941
# text = Dies entschied am Mittwoch der zuständige Bundesrichter William Turnoff im U.S. -- Staat Florida.
'1	Dies	_	_	_
'2	entschied	_	_	VERB
'3-4	am	_	_	_
'3	an	_	_	_
'4	dem	_	_	_
'5	Mittwoch	_	_	_
'6	der	_	_	_
'7	zuständige	_	_	_
'8	Bundesrichter	_	_	_
'9	William	_	_	_
'10	Turnoff	_	_	_
'11-12	im	_	_	_
'11	in	_	_	_
'12	dem	_	_	_
'13	U.S.	_	_	_
'14	--	_	_	_
'15	Staat	_	_	_
'16	Florida	nsp	_	_
'17	.	_	_	_

# source_sent_id = . . train-s1942
# text = Die Stadtverwaltung von Paris muß in diesem Jahr auf die norwegische Weihnachtstanne verzichten, die traditionell den Place de Tertre auf dem Montmartre schmückt.
'1	Die	_	_	_
'2	Stadtverwaltung	_	_	_
'3	von	_	_	_
'4	Paris	_	_	_
'5	muß	_	_	_
'6	in	_	_	_
'7	diesem	_	_	_
'8	Jahr	_	_	_
'9	auf	_	_	_
'10	die	_	_	_
'11	norwegische	_	_	_
'12	Weihnachtstanne	_	_	_
'13	verzichten	nsp	_	VERB
'14	,	_	_	_
'15	die	_	_	_
'16	traditionell	_	_	_
'17	den	_	_	_
'18	Place	_	_	_
'19	de	_	_	_
'20	Tertre	_	_	_
'21	auf	_	_	_
'22	dem	_	_	_
'23	Montmartre	_	_	_
'24	schmückt	nsp	_	VERB
'25	.	_	_	_

# source_sent_id = . . train-s1943
# text = Es sei wichtig, daß sich ein breiter Kreis mit den von Heymann vorgelegten Thesen beschäftigt, meint Ringel, denn immerhin sei dieser offizieller Berater bei der Erarbeitung neuer Mathematik -- Lehrpläne in Nordrhein -- Westfalen.
'1	Es	_	_	_
'2	sei	_	_	VERB
'3	wichtig	nsp	_	_
'4	,	_	_	_
'5	daß	_	_	_
'6	sich	_	_	_
'7	ein	_	_	_
'8	breiter	_	_	_
'9	Kreis	_	_	_
'10	mit	_	_	_
'11	den	_	_	_
'12	von	_	_	_
'13	Heymann	_	_	_
'14	vorgelegten	_	_	_
'15	Thesen	_	_	_
'16	beschäftigt	nsp	_	VERB
'17	,	_	_	_
'18	meint	_	_	VERB
'19	Ringel	nsp	_	_
'20	,	_	_	_
'21	denn	_	_	_
'22	immerhin	_	_	_
'23	sei	_	_	VERB
'24	dieser	_	_	_
'25	offizieller	_	_	_
'26	Berater	_	_	_
'27	bei	_	_	_
'28	der	_	_	_
'29	Erarbeitung	_	_	_
'30	neuer	_	_	_
'31	Mathematik	_	_	_
'32	--	_	_	_
'33	Lehrpläne	_	_	_
'34	in	_	_	_
'35	Nordrhein	_	_	_
'36	--	_	_	_
'37	Westfalen	nsp	_	_
'38	.	_	_	_

# source_sent_id = . . train-s1944
# text = Die Minister reagierte darauf mit einem Zitat des früheren CDU -- Finanzministers Manfred Kanther.
'1	Die	_	_	_
'2	Minister	_	_	_
'3	reagierte	_	_	VERB
'4	darauf	_	_	_
'5	mit	_	_	_
'6	einem	_	_	_
'7	Zitat	_	_	_
'8	des	_	_	_
'9	früheren	_	_	_
'10	CDU	_	_	_
'11	--	_	_	_
'12	Finanzministers	_	_	_
'13	Manfred	_	_	_
'14	Kanther	nsp	_	_
'15	.	_	_	_

# source_sent_id = . . train-s1945
# text = Die Arbeitslosenquote liegt zwischen 40 und 60 Prozent -- trotzdem sind ``Gastarbeiter'' im Land.
'1	Die	_	_	_
'2	Arbeitslosenquote	_	_	_
'3	liegt	_	_	VERB
'4	zwischen	_	_	_
'5	40	_	_	_
'6	und	_	_	_
'7	60	_	_	_
'8	Prozent	_	_	_
'9	--	_	_	_
'10	trotzdem	_	_	_
'11	sind	_	_	VERB
'12	``	nsp	_	_
'13	Gastarbeiter	nsp	_	_
'14	''	_	_	_
'15-16	im	_	_	_
'15	in	_	_	_
'16	dem	_	_	_
'17	Land	nsp	_	_
'18	.	_	_	_

# source_sent_id = . . train-s1946
# text = Die Antragsteller schließen deshalb Gewalt nicht völlig aus.
'1	Die	_	_	_
'2	Antragsteller	_	_	_
'3	schließen	_	_	VERB
'4	deshalb	_	_	_
'5	Gewalt	_	_	_
'6	nicht	_	_	_
'7	völlig	_	_	_
'8	aus	nsp	_	_
'9	.	_	_	_

# source_sent_id = . . train-s1947
# text = Der FDP -- Politiker schloß jedoch eine höhere Nettokreditaufnahme aus.
'1	Der	_	_	_
'2	FDP	_	_	_
'3	--	_	_	_
'4	Politiker	_	_	_
'5	schloß	_	_	VERB
'6	jedoch	_	_	_
'7	eine	_	_	_
'8	höhere	_	_	_
'9	Nettokreditaufnahme	_	_	_
'10	aus	nsp	_	_
'11	.	_	_	_

# source_sent_id = . . train-s1948
# text = Ein Anschlag könne daher praktisch ausgeschlossen werden.
'1	Ein	_	_	_
'2	Anschlag	_	_	_
'3	könne	_	_	_
'4	daher	_	_	_
'5	praktisch	_	_	_
'6	ausgeschlossen	_	_	VERB
'7	werden	nsp	_	_
'8	.	_	_	_

# source_sent_id = . . train-s1949
# text = Der Commonwealth -- Gipfel beginnt am morgigen Freitag offiziell mit der Eröffnungsfeier.
'1	Der	_	_	_
'2	Commonwealth	_	_	_
'3	--	_	_	_
'4	Gipfel	_	_	_
'5	beginnt	_	_	VERB
'6-7	am	_	_	_
'6	an	_	_	_
'7	dem	_	_	_
'8	morgigen	_	_	_
'9	Freitag	_	_	_
'10	offiziell	_	_	_
'11	mit	_	_	_
'12	der	_	_	_
'13	Eröffnungsfeier	nsp	_	_
'14	.	_	_	_

# source_sent_id = . . train-s1950
# text = Der 58jährige bestätigte aber, daß er inzwischen Mitglied der Republikaner geworden ist.
'1	Der	_	_	_
'2	58jährige	_	_	_
'3	bestätigte	_	_	VERB
'4	aber	nsp	_	_
'5	,	_	_	_
'6	daß	_	_	_
'7	er	_	_	_
'8	inzwischen	_	_	_
'9	Mitglied	_	_	_
'10	der	_	_	_
'11	Republikaner	_	_	_
'12	geworden	_	_	VERB
'13	ist	nsp	_	_
'14	.	_	_	_

# source_sent_id = . . train-s1951
# text = So sitzen der geständige Todesschütze Jigal Amir und sein Bruder in Untersuchungshaft.
'1	So	_	_	_
'2	sitzen	_	_	VERB
'3	der	_	_	_
'4	geständige	_	_	_
'5	Todesschütze	_	_	_
'6	Jigal	_	_	_
'7	Amir	_	_	_
'8	und	_	_	_
'9	sein	_	_	_
'10	Bruder	_	_	_
'11	in	_	_	_
'12	Untersuchungshaft	nsp	_	_
'13	.	_	_	_

# source_sent_id = . . train-s1952
# text = Das Sondereinsatzkommando der Polizei stürmte die Boeing 747 auf dem internationalen Flughafen von Athen und nahm den Luftpiraten fest.
'1	Das	_	_	_
'2	Sondereinsatzkommando	_	_	_
'3	der	_	_	_
'4	Polizei	_	_	_
'5	stürmte	_	_	VERB
'6	die	_	_	_
'7	Boeing	_	_	_
'8	747	_	_	_
'9	auf	_	_	_
'10	dem	_	_	_
'11	internationalen	_	_	_
'12	Flughafen	_	_	_
'13	von	_	_	_
'14	Athen	_	_	_
'15	und	_	_	_
'16	nahm	_	_	VERB
'17	den	_	_	_
'18	Luftpiraten	_	_	_
'19	fest	nsp	_	_
'20	.	_	_	_

# source_sent_id = . . train-s1953
# text = Wer Beamte beschimpft, kriegt immer Beifall, selbst wenn er aus der Verwaltung kommt!
'1	Wer	_	_	_
'2	Beamte	_	_	_
'3	beschimpft	nsp	_	VERB
'4	,	_	_	_
'5	kriegt	_	_	VERB
'6	immer	_	_	_
'7	Beifall	nsp	_	_
'8	,	_	_	_
'9	selbst	_	_	_
'10	wenn	_	_	_
'11	er	_	_	_
'12	aus	_	_	_
'13	der	_	_	_
'14	Verwaltung	_	_	_
'15	kommt	nsp	_	VERB
'16	!	_	_	_

# source_sent_id = . . train-s1954
# text = Die Polizei verhaftet weiterhin nicht nur Verdächtige, sondern auch deren Verwandte und Freunde.
'1	Die	_	_	_
'2	Polizei	_	_	_
'3	verhaftet	_	_	VERB
'4	weiterhin	_	_	_
'5	nicht	_	_	_
'6	nur	_	_	_
'7	Verdächtige	nsp	_	_
'8	,	_	_	_
'9	sondern	_	_	_
'10	auch	_	_	_
'11	deren	_	_	_
'12	Verwandte	_	_	_
'13	und	_	_	_
'14	Freunde	nsp	_	_
'15	.	_	_	_

# source_sent_id = . . train-s1955
# text = Darf eine Firma sich der Verantwortung für ausgediente Produktionsanlagen durch Wegschmeißen entledigen oder nicht?
'1	Darf	_	_	_
'2	eine	_	_	_
'3	Firma	_	_	_
'4	sich	_	_	_
'5	der	_	_	_
'6	Verantwortung	_	_	_
'7	für	_	_	_
'8	ausgediente	_	_	_
'9	Produktionsanlagen	_	_	_
'10	durch	_	_	_
'11	Wegschmeißen	_	_	_
'12	entledigen	_	_	VERB
'13	oder	_	_	_
'14	nicht	nsp	_	_
'15	?	_	_	_

# source_sent_id = . . train-s1956
# text = Was glauben Sie denn, wie lange es dauert, bis etwa der Rhein dieselben Mengen in die Nordsee befördert hat''? fragt er in die Journalistenrunde.
'1	Was	_	_	_
'2	glauben	_	_	VERB
'3	Sie	_	_	_
'4	denn	nsp	_	_
'5	,	_	_	_
'6	wie	_	_	_
'7	lange	_	_	_
'8	es	_	_	_
'9	dauert	nsp	_	VERB
'10	,	_	_	_
'11	bis	_	_	_
'12	etwa	_	_	_
'13	der	_	_	_
'14	Rhein	_	_	_
'15	dieselben	_	_	_
'16	Mengen	_	_	_
'17	in	_	_	_
'18	die	_	_	_
'19	Nordsee	_	_	_
'20	befördert	_	_	VERB
'21	hat	nsp	_	_
'22	''	nsp	_	_
'23	?	_	_	_
'24	fragt	_	_	VERB
'25	er	_	_	_
'26	in	_	_	_
'27	die	_	_	_
'28	Journalistenrunde	nsp	_	_
'29	.	_	_	_

# source_sent_id = . . train-s1957
# text = Das Problem hätte sich von selbst erledigt.
'1	Das	_	_	_
'2	Problem	_	_	_
'3	hätte	_	_	_
'4	sich	_	_	_
'5	von	_	_	_
'6	selbst	_	_	_
'7	erledigt	nsp	_	VERB
'8	.	_	_	_

# source_sent_id = . . train-s1958
# text = Die Mitglieder des Commonwealth fragen sich nun, wem diese Organisation noch nützt, wenn sich Großbritannien in derart wichtigen Punkten gegen seine einstigen südpazifischen Kolonialgebiete stellt.
'1	Die	_	_	_
'2	Mitglieder	_	_	_
'3	des	_	_	_
'4	Commonwealth	_	_	_
'5	fragen	_	_	VERB
'6	sich	_	_	_
'7	nun	nsp	_	_
'8	,	_	_	_
'9	wem	_	_	_
'10	diese	_	_	_
'11	Organisation	_	_	_
'12	noch	_	_	_
'13	nützt	nsp	_	VERB
'14	,	_	_	_
'15	wenn	_	_	_
'16	sich	_	_	_
'17	Großbritannien	_	_	_
'18	in	_	_	_
'19	derart	_	_	_
'20	wichtigen	_	_	_
'21	Punkten	_	_	_
'22	gegen	_	_	_
'23	seine	_	_	_
'24	einstigen	_	_	_
'25	südpazifischen	_	_	_
'26	Kolonialgebiete	_	_	_
'27	stellt	nsp	_	VERB
'28	.	_	_	_

# source_sent_id = . . train-s1959
# text = Mit den fertigen Konzepten wird man nicht bis ans Ende des Jahrhunderts kommen.
'1	Mit	_	_	_
'2	den	_	_	_
'3	fertigen	_	_	_
'4	Konzepten	_	_	_
'5	wird	_	_	_
'6	man	_	_	_
'7	nicht	_	_	_
'8	bis	_	_	_
'9-10	ans	_	_	_
'9	an	_	_	_
'10	das	_	_	_
'11	Ende	_	_	_
'12	des	_	_	_
'13	Jahrhunderts	_	_	_
'14	kommen	nsp	_	VERB
'15	.	_	_	_

# source_sent_id = . . train-s1960
# text = Ein bedauerlicher Rückschritt in die Steinzeit des Naturschutzes,'' kommentiert Naturschützer und Kletterer Sander.
'1	Ein	_	_	_
'2	bedauerlicher	_	_	_
'3	Rückschritt	_	_	_
'4	in	_	_	_
'5	die	_	_	_
'6	Steinzeit	_	_	_
'7	des	_	_	_
'8	Naturschutzes	nsp	_	_
'9	,	nsp	_	_
'10	''	_	_	_
'11	kommentiert	_	_	VERB
'12	Naturschützer	_	_	_
'13	und	_	_	_
'14	Kletterer	_	_	_
'15	Sander	nsp	_	_
'16	.	_	_	_

# source_sent_id = . . train-s1961
# text = Der Haftbefehl wird mit Fluchtgefahr begründet.
'1	Der	_	_	_
'2	Haftbefehl	_	_	_
'3	wird	_	_	_
'4	mit	_	_	_
'5	Fluchtgefahr	_	_	_
'6	begründet	nsp	_	VERB
'7	.	_	_	_

# source_sent_id = . . train-s1962
# text = Der Eintritt in die Politik hätte ``Opfer und Änderungen in unserem Leben verlangt, die wir zu diesem Zeitpunkt nur schwer ertragen hätten,'' sagte er bei dem Auftritt mit seiner Frau Alma.
'1	Der	_	_	_
'2	Eintritt	_	_	_
'3	in	_	_	_
'4	die	_	_	_
'5	Politik	_	_	_
'6	hätte	_	_	_
'7	``	nsp	_	_
'8	Opfer	_	_	_
'9	und	_	_	_
'10	Änderungen	_	_	_
'11	in	_	_	_
'12	unserem	_	_	_
'13	Leben	_	_	_
'14	verlangt	nsp	_	VERB
'15	,	_	_	_
'16	die	_	_	_
'17	wir	_	_	_
'18	zu	_	_	_
'19	diesem	_	_	_
'20	Zeitpunkt	_	_	_
'21	nur	_	_	_
'22	schwer	_	_	_
'23	ertragen	_	_	VERB
'24	hätten	nsp	_	_
'25	,	nsp	_	_
'26	''	_	_	_
'27	sagte	_	_	VERB
'28	er	_	_	_
'29	bei	_	_	_
'30	dem	_	_	_
'31	Auftritt	_	_	_
'32	mit	_	_	_
'33	seiner	_	_	_
'34	Frau	_	_	_
'35	Alma	nsp	_	_
'36	.	_	_	_

# source_sent_id = . . train-s1963
# text = Sie sind wunderschön,'' sagt ihre Mutter, die 26 -- jährige Gabriela Bonk, die zuletzt als Technikerin in einer Koksfabrik gearbeitet hatte.
'1	Sie	_	_	_
'2	sind	_	_	VERB
'3	wunderschön	nsp	_	_
'4	,	nsp	_	_
'5	''	_	_	_
'6	sagt	_	_	VERB
'7	ihre	_	_	_
'8	Mutter	nsp	_	_
'9	,	_	_	_
'10	die	_	_	_
'11	26	_	_	_
'12	--	_	_	_
'13	jährige	_	_	_
'14	Gabriela	_	_	_
'15	Bonk	nsp	_	_
'16	,	_	_	_
'17	die	_	_	_
'18	zuletzt	_	_	_
'19	als	_	_	_
'20	Technikerin	_	_	_
'21	in	_	_	_
'22	einer	_	_	_
'23	Koksfabrik	_	_	_
'24	gearbeitet	_	_	VERB
'25	hatte	nsp	_	_
'26	.	_	_	_

# source_sent_id = . . train-s1964
# text = Klaus Kinkel (FDP) ging in seiner Würdigung des Mauerfalls zumindest auf den 9. November 1938 ein.
'1	Klaus	_	_	_
'2	Kinkel	_	_	_
'3	(	nsp	_	_
'4	FDP	nsp	_	_
'5	)	_	_	_
'6	ging	_	_	VERB
'7	in	_	_	_
'8	seiner	_	_	_
'9	Würdigung	_	_	_
'10	des	_	_	_
'11	Mauerfalls	_	_	_
'12	zumindest	_	_	_
'13	auf	_	_	_
'14	den	_	_	_
'15	9	nsp	_	_
'16	.	_	_	_
'17	November	_	_	_
'18	1938	_	_	_
'19	ein	nsp	_	_
'20	.	_	_	_

# source_sent_id = . . train-s1965
# text = Der Nahverkehr ist ein interessanter, allerdings auch schwieriger und anspruchsvoller Wachstumsmarkt.
'1	Der	_	_	_
'2	Nahverkehr	_	_	_
'3	ist	_	_	VERB
'4	ein	_	_	_
'5	interessanter	nsp	_	_
'6	,	_	_	_
'7	allerdings	_	_	_
'8	auch	_	_	_
'9	schwieriger	_	_	_
'10	und	_	_	_
'11	anspruchsvoller	_	_	_
'12	Wachstumsmarkt	nsp	_	_
'13	.	_	_	_

# source_sent_id = . . train-s1966
# text = Die Frankfurter SPD hatte Oberbürgermeisterin Roth am Samstag aufgefordert, Verfassungsklage gegen den Bund wegen Aushöhlung der kommunalen Selbstverwaltung einzureichen.
'1	Die	_	_	_
'2	Frankfurter	_	_	_
'3	SPD	_	_	_
'4	hatte	_	_	_
'5	Oberbürgermeisterin	_	_	_
'6	Roth	_	_	_
'7-8	am	_	_	_
'7	an	_	_	_
'8	dem	_	_	_
'9	Samstag	_	_	_
'10	aufgefordert	nsp	_	VERB
'11	,	_	_	_
'12	Verfassungsklage	_	_	_
'13	gegen	_	_	_
'14	den	_	_	_
'15	Bund	_	_	_
'16	wegen	_	_	_
'17	Aushöhlung	_	_	_
'18	der	_	_	_
'19	kommunalen	_	_	_
'20	Selbstverwaltung	_	_	_
'21	einzureichen	nsp	_	VERB
'22	.	_	_	_

# source_sent_id = . . train-s1967
# text = Der Vorsitzende der Armutskonferenz in Potsdam, Ruth Brand, sagte am Rande der Generalversammlung der Europa -- Organisation, zwischen 1983 und 1993 habe sich die Zahl der Sozialhilfeempfänger in Deutschland vervierfacht.
'1	Der	_	_	_
'2	Vorsitzende	_	_	_
'3	der	_	_	_
'4	Armutskonferenz	_	_	_
'5	in	_	_	_
'6	Potsdam	nsp	_	_
'7	,	_	_	_
'8	Ruth	_	_	_
'9	Brand	nsp	_	_
'10	,	_	_	_
'11	sagte	_	_	VERB
'12-13	am	_	_	_
'12	an	_	_	_
'13	dem	_	_	_
'14	Rande	_	_	_
'15	der	_	_	_
'16	Generalversammlung	_	_	_
'17	der	_	_	_
'18	Europa	_	_	_
'19	--	_	_	_
'20	Organisation	nsp	_	_
'21	,	_	_	_
'22	zwischen	_	_	_
'23	1983	_	_	_
'24	und	_	_	_
'25	1993	_	_	_
'26	habe	_	_	_
'27	sich	_	_	_
'28	die	_	_	_
'29	Zahl	_	_	_
'30	der	_	_	_
'31	Sozialhilfeempfänger	_	_	_
'32	in	_	_	_
'33	Deutschland	_	_	_
'34	vervierfacht	nsp	_	VERB
'35	.	_	_	_

# source_sent_id = . . train-s1968
# text = Wir schreiben seit dem vierten Quartal 1992 rote Zahlen.
'1	Wir	_	_	_
'2	schreiben	_	_	VERB
'3	seit	_	_	_
'4	dem	_	_	_
'5	vierten	_	_	_
'6	Quartal	_	_	_
'7	1992	_	_	_
'8	rote	_	_	_
'9	Zahlen	nsp	_	_
'10	.	_	_	_

# source_sent_id = . . train-s1969
# text = Sprecher Thomas Wunder sagte in Stuttgart, der Tarifvertrag habe eine Laufzeit von 18 Monaten.
'1	Sprecher	_	_	_
'2	Thomas	_	_	_
'3	Wunder	_	_	_
'4	sagte	_	_	VERB
'5	in	_	_	_
'6	Stuttgart	nsp	_	_
'7	,	_	_	_
'8	der	_	_	_
'9	Tarifvertrag	_	_	_
'10	habe	_	_	VERB
'11	eine	_	_	_
'12	Laufzeit	_	_	_
'13	von	_	_	_
'14	18	_	_	_
'15	Monaten	nsp	_	_
'16	.	_	_	_

# source_sent_id = . . train-s1970
# text = So hoffen die Forscher, erstmals die am Rande unseres Sonnensystems vermuteten eisigen Kometenwolken, sogenannte Schmutzige Schneebälle, nachweisen zu können.
'1	So	_	_	_
'2	hoffen	_	_	VERB
'3	die	_	_	_
'4	Forscher	nsp	_	_
'5	,	_	_	_
'6	erstmals	_	_	_
'7	die	_	_	_
'8-9	am	_	_	_
'8	an	_	_	_
'9	dem	_	_	_
'10	Rande	_	_	_
'11	unseres	_	_	_
'12	Sonnensystems	_	_	_
'13	vermuteten	_	_	_
'14	eisigen	_	_	_
'15	Kometenwolken	nsp	_	_
'16	,	_	_	_
'17	sogenannte	_	_	_
'18	Schmutzige	_	_	_
'19	Schneebälle	nsp	_	_
'20	,	_	_	_
'21	nachweisen	_	_	VERB
'22	zu	_	_	_
'23	können	nsp	_	_
'24	.	_	_	_

# source_sent_id = . . train-s1971
# text = Es wäre so schön gewesen, wenn das zu vermeiden gewesen wäre,'' meint Kannegießer.
'1	Es	_	_	_
'2	wäre	_	_	_
'3	so	_	_	_
'4	schön	_	_	_
'5	gewesen	nsp	_	VERB
'6	,	_	_	_
'7	wenn	_	_	_
'8	das	_	_	_
'9	zu	_	_	_
'10	vermeiden	_	_	VERB
'11	gewesen	_	_	VERB
'12	wäre	nsp	_	_
'13	,	nsp	_	_
'14	''	_	_	_
'15	meint	_	_	VERB
'16	Kannegießer	nsp	_	_
'17	.	_	_	_

# source_sent_id = . . train-s1972
# text = Die Wohlstandsentwicklung in der Bundesrepublik und die zunehmende und verbesserte Qualifizierung verändern auch die Ansprüche, politischen Einstellungen sowie Handlungs -- und Verhaltensweisen.
'1	Die	_	_	_
'2	Wohlstandsentwicklung	_	_	_
'3	in	_	_	_
'4	der	_	_	_
'5	Bundesrepublik	_	_	_
'6	und	_	_	_
'7	die	_	_	_
'8	zunehmende	_	_	_
'9	und	_	_	_
'10	verbesserte	_	_	_
'11	Qualifizierung	_	_	_
'12	verändern	_	_	VERB
'13	auch	_	_	_
'14	die	_	_	_
'15	Ansprüche	nsp	_	_
'16	,	_	_	_
'17	politischen	_	_	_
'18	Einstellungen	_	_	_
'19	sowie	_	_	_
'20	Handlungs	_	_	_
'21	--	_	_	_
'22	und	_	_	_
'23	Verhaltensweisen	nsp	_	_
'24	.	_	_	_

# source_sent_id = . . train-s1973
# text = Außenminister Ali Akbar Welayati hat die Fatwa ausdrücklich begrüßt.
'1	Außenminister	_	_	_
'2	Ali	_	_	_
'3	Akbar	_	_	_
'4	Welayati	_	_	_
'5	hat	_	_	_
'6	die	_	_	_
'7	Fatwa	_	_	_
'8	ausdrücklich	_	_	_
'9	begrüßt	nsp	_	VERB
'10	.	_	_	_

# source_sent_id = . . train-s1974
# text = Günter Rexrodt hat das Berliner Wahldebakel der FDP einigermaßen unbeschadet überstanden, mit dem längeren Ladenschluß sogar einen echten Coup gelandet.
'1	Günter	_	_	_
'2	Rexrodt	_	_	_
'3	hat	_	_	_
'4	das	_	_	_
'5	Berliner	_	_	_
'6	Wahldebakel	_	_	_
'7	der	_	_	_
'8	FDP	_	_	_
'9	einigermaßen	_	_	_
'10	unbeschadet	_	_	_
'11	überstanden	nsp	_	VERB
'12	,	_	_	_
'13	mit	_	_	_
'14	dem	_	_	_
'15	längeren	_	_	_
'16	Ladenschluß	_	_	_
'17	sogar	_	_	_
'18	einen	_	_	_
'19	echten	_	_	_
'20	Coup	_	_	_
'21	gelandet	nsp	_	VERB
'22	.	_	_	_

# source_sent_id = . . train-s1976
# text = Der Vorschlag habe bei deren Mitgliedern eine breite Diskussion ausgelöst.
'1	Der	_	_	_
'2	Vorschlag	_	_	_
'3	habe	_	_	_
'4	bei	_	_	_
'5	deren	_	_	_
'6	Mitgliedern	_	_	_
'7	eine	_	_	_
'8	breite	_	_	_
'9	Diskussion	_	_	_
'10	ausgelöst	nsp	_	VERB
'11	.	_	_	_

# source_sent_id = . . train-s1977
# text = In Sevilla wurden nach Meteorologen -- Angaben von Freitag bis Sonntag fast 100 Liter Regen pro Quadratmeter gemessen.
'1	In	_	_	_
'2	Sevilla	_	_	_
'3	wurden	_	_	_
'4	nach	_	_	_
'5	Meteorologen	_	_	_
'6	--	_	_	_
'7	Angaben	_	_	_
'8	von	_	_	_
'9	Freitag	_	_	_
'10	bis	_	_	_
'11	Sonntag	_	_	_
'12	fast	_	_	_
'13	100	_	_	_
'14	Liter	_	_	_
'15	Regen	_	_	_
'16	pro	_	_	_
'17	Quadratmeter	_	_	_
'18	gemessen	nsp	_	VERB
'19	.	_	_	_

# source_sent_id = . . train-s1978
# text = Wir wollen noch mehr,'' betont Omicevic.
'1	Wir	_	_	_
'2	wollen	_	_	VERB
'3	noch	_	_	_
'4	mehr	nsp	_	_
'5	,	nsp	_	_
'6	''	_	_	_
'7	betont	_	_	VERB
'8	Omicevic	nsp	_	_
'9	.	_	_	_

# source_sent_id = . . train-s1979
# text = Bonn hofft, daß diese politische Geste in Peking mit Wohlwollen zur Kenntnis genommen und mit fetten Aufträgen für deutsche Großunternehmen belohnt wird.
'1	Bonn	_	_	_
'2	hofft	nsp	_	VERB
'3	,	_	_	_
'4	daß	_	_	_
'5	diese	_	_	_
'6	politische	_	_	_
'7	Geste	_	_	_
'8	in	_	_	_
'9	Peking	_	_	_
'10	mit	_	_	_
'11	Wohlwollen	_	_	_
'12-13	zur	_	_	_
'12	zu	_	_	_
'13	der	_	_	_
'14	Kenntnis	_	_	_
'15	genommen	_	_	VERB
'16	und	_	_	_
'17	mit	_	_	_
'18	fetten	_	_	_
'19	Aufträgen	_	_	_
'20	für	_	_	_
'21	deutsche	_	_	_
'22	Großunternehmen	_	_	_
'23	belohnt	_	_	VERB
'24	wird	nsp	_	_
'25	.	_	_	_

# source_sent_id = . . train-s1980
# text = Buddha besucht keine Kasernen.
'1	Buddha	_	_	_
'2	besucht	_	_	VERB
'3	keine	_	_	_
'4	Kasernen	nsp	_	_
'5	.	_	_	_

# source_sent_id = . . train-s1981
# text = Nur um einen Bohrkopf zu transportieren, gruben die Ölingenieure vor einigen Jahren einen vier Kilometer langen Kanal, wo sich seitdem Süß -- und Salzwasser miteinander vermischen.
'1	Nur	_	_	_
'2	um	_	_	_
'3	einen	_	_	_
'4	Bohrkopf	_	_	_
'5	zu	_	_	_
'6	transportieren	nsp	_	VERB
'7	,	_	_	_
'8	gruben	_	_	VERB
'9	die	_	_	_
'10	Ölingenieure	_	_	_
'11	vor	_	_	_
'12	einigen	_	_	_
'13	Jahren	_	_	_
'14	einen	_	_	_
'15	vier	_	_	_
'16	Kilometer	_	_	_
'17	langen	_	_	_
'18	Kanal	nsp	_	_
'19	,	_	_	_
'20	wo	_	_	_
'21	sich	_	_	_
'22	seitdem	_	_	_
'23	Süß	_	_	_
'24	--	_	_	_
'25	und	_	_	_
'26	Salzwasser	_	_	_
'27	miteinander	_	_	_
'28	vermischen	nsp	_	VERB
'29	.	_	_	_

# source_sent_id = . . train-s1982
# text = Hauptziel des neuen Dachverbandes ist die Abschaffung der rigiden Arbeitsgesetzgebung aus der Zeit der Militärdiktatur.
'1	Hauptziel	_	_	_
'2	des	_	_	_
'3	neuen	_	_	_
'4	Dachverbandes	_	_	_
'5	ist	_	_	VERB
'6	die	_	_	_
'7	Abschaffung	_	_	_
'8	der	_	_	_
'9	rigiden	_	_	_
'10	Arbeitsgesetzgebung	_	_	_
'11	aus	_	_	_
'12	der	_	_	_
'13	Zeit	_	_	_
'14	der	_	_	_
'15	Militärdiktatur	nsp	_	_
'16	.	_	_	_

# source_sent_id = . . train-s1983
# text = Wir stellen uns nicht nur vor jedes Opernhaus oder Theater, sondern auch zum Beispiel vor die Bibliotheken.
'1	Wir	_	_	_
'2	stellen	_	_	VERB
'3	uns	_	_	_
'4	nicht	_	_	_
'5	nur	_	_	_
'6	vor	_	_	_
'7	jedes	_	_	_
'8	Opernhaus	_	_	_
'9	oder	_	_	_
'10	Theater	nsp	_	_
'11	,	_	_	_
'12	sondern	_	_	_
'13	auch	_	_	_
'14-15	zum	_	_	_
'14	zu	_	_	_
'15	dem	_	_	_
'16	Beispiel	_	_	_
'17	vor	_	_	_
'18	die	_	_	_
'19	Bibliotheken	nsp	_	_
'20	.	_	_	_

# source_sent_id = . . train-s1984
# text = Wir wollen alles tun, um auf diesem Weg weiter voranzukommen,'' sagte der Bundeskanzler.
'1	Wir	_	_	_
'2	wollen	_	_	_
'3	alles	_	_	_
'4	tun	nsp	_	VERB
'5	,	_	_	_
'6	um	_	_	_
'7	auf	_	_	_
'8	diesem	_	_	_
'9	Weg	_	_	_
'10	weiter	_	_	_
'11	voranzukommen	nsp	_	VERB
'12	,	nsp	_	_
'13	''	_	_	_
'14	sagte	_	_	VERB
'15	der	_	_	_
'16	Bundeskanzler	nsp	_	_
'17	.	_	_	_

# source_sent_id = . . train-s1985
# text = Die Festgenommenen sollen am heutigen Montag einem Richter vorgeführt werden.
'1	Die	_	_	_
'2	Festgenommenen	_	_	_
'3	sollen	_	_	_
'4-5	am	_	_	_
'4	an	_	_	_
'5	dem	_	_	_
'6	heutigen	_	_	_
'7	Montag	_	_	_
'8	einem	_	_	_
'9	Richter	_	_	_
'10	vorgeführt	_	_	VERB
'11	werden	nsp	_	_
'12	.	_	_	_

# source_sent_id = . . train-s1986
# text = Gianni Menig, Träger eines künstlichen Herzens, feierte die Messe mit weiteren Kunstherz -- Trägern und Empfängern von Spenderherzen.
'1	Gianni	_	_	_
'2	Menig	nsp	_	_
'3	,	_	_	_
'4	Träger	_	_	_
'5	eines	_	_	_
'6	künstlichen	_	_	_
'7	Herzens	nsp	_	_
'8	,	_	_	_
'9	feierte	_	_	VERB
'10	die	_	_	_
'11	Messe	_	_	_
'12	mit	_	_	_
'13	weiteren	_	_	_
'14	Kunstherz	_	_	_
'15	--	_	_	_
'16	Trägern	_	_	_
'17	und	_	_	_
'18	Empfängern	_	_	_
'19	von	_	_	_
'20	Spenderherzen	nsp	_	_
'21	.	_	_	_

# source_sent_id = . . train-s1987
# text = Die Beschäftigtenzahl kletterte um 9400 auf 82 100.
'1	Die	_	_	_
'2	Beschäftigtenzahl	_	_	_
'3	kletterte	_	_	VERB
'4	um	_	_	_
'5	9400	_	_	_
'6	auf	_	_	_
'7	82	_	_	_
'8	100	nsp	_	_
'9	.	_	_	_

# source_sent_id = . . train-s1988
# text = Das deutschen Musiktheater wären damit im internationalen Kontext nicht mehr konkurrenzfähig.
'1	Das	_	_	_
'2	deutschen	_	_	_
'3	Musiktheater	_	_	_
'4	wären	_	_	VERB
'5	damit	_	_	_
'6-7	im	_	_	_
'6	in	_	_	_
'7	dem	_	_	_
'8	internationalen	_	_	_
'9	Kontext	_	_	_
'10	nicht	_	_	_
'11	mehr	_	_	_
'12	konkurrenzfähig	nsp	_	_
'13	.	_	_	_

# source_sent_id = . . train-s1989
# text = Eine Änderung sei nicht in Sicht.
'1	Eine	_	_	_
'2	Änderung	_	_	_
'3	sei	_	_	VERB
'4	nicht	_	_	_
'5	in	_	_	_
'6	Sicht	nsp	_	_
'7	.	_	_	_

# source_sent_id = . . train-s1990
# text = Die Medaille wird seit 1993 an Persönlichkeiten verliehen, die sich im Sinne des jüdischen Philosophen um Ausgleich zwischen Juden und Deutschen bemühen.
'1	Die	_	_	_
'2	Medaille	_	_	_
'3	wird	_	_	_
'4	seit	_	_	_
'5	1993	_	_	_
'6	an	_	_	_
'7	Persönlichkeiten	_	_	_
'8	verliehen	nsp	_	VERB
'9	,	_	_	_
'10	die	_	_	_
'11	sich	_	_	_
'12-13	im	_	_	_
'12	in	_	_	_
'13	dem	_	_	_
'14	Sinne	_	_	_
'15	des	_	_	_
'16	jüdischen	_	_	_
'17	Philosophen	_	_	_
'18	um	_	_	_
'19	Ausgleich	_	_	_
'20	zwischen	_	_	_
'21	Juden	_	_	_
'22	und	_	_	_
'23	Deutschen	_	_	_
'24	bemühen	nsp	_	VERB
'25	.	_	_	_

# source_sent_id = . . train-s1991
# text = Die Abgeordneten der Grünen und einem von den Grünen benannten Experten werde die Einreise in die Türkei auf gar keinen Fall gestattet, teilte das Außenministerium mit.
'1	Die	_	_	_
'2	Abgeordneten	_	_	_
'3	der	_	_	_
'4	Grünen	_	_	_
'5	und	_	_	_
'6	einem	_	_	_
'7	von	_	_	_
'8	den	_	_	_
'9	Grünen	_	_	_
'10	benannten	_	_	_
'11	Experten	_	_	_
'12	werde	_	_	_
'13	die	_	_	_
'14	Einreise	_	_	_
'15	in	_	_	_
'16	die	_	_	_
'17	Türkei	_	_	_
'18	auf	_	_	_
'19	gar	_	_	_
'20	keinen	_	_	_
'21	Fall	_	_	_
'22	gestattet	nsp	_	VERB
'23	,	_	_	_
'24	teilte	_	_	VERB
'25	das	_	_	_
'26	Außenministerium	_	_	_
'27	mit	nsp	_	_
'28	.	_	_	_

# source_sent_id = . . train-s1992
# text = Er war am Morgen als erster gekommen, sprach lange mit Wartenden, darunter Bekannte aus alten Tagen wie der verurteilte DDR -- Verteidigungsminister Heinz Keßler.
'1	Er	_	_	_
'2	war	_	_	_
'3-4	am	_	_	_
'3	an	_	_	_
'4	dem	_	_	_
'5	Morgen	_	_	_
'6	als	_	_	_
'7	erster	_	_	_
'8	gekommen	nsp	_	VERB
'9	,	_	_	_
'10	sprach	_	_	VERB
'11	lange	_	_	_
'12	mit	_	_	_
'13	Wartenden	nsp	_	_
'14	,	_	_	_
'15	darunter	_	_	_
'16	Bekannte	_	_	_
'17	aus	_	_	_
'18	alten	_	_	_
'19	Tagen	_	_	_
'20	wie	_	_	_
'21	der	_	_	_
'22	verurteilte	_	_	_
'23	DDR	_	_	_
'24	--	_	_	_
'25	Verteidigungsminister	_	_	_
'26	Heinz	_	_	_
'27	Keßler	nsp	_	_
'28	.	_	_	_

# source_sent_id = . . train-s1993
# text = Günter Rexrodt befürwortet die Aufhebung des heutigen Gebietsschutzes und eine Durchleitungspflicht.
'1	Günter	_	_	_
'2	Rexrodt	_	_	_
'3	befürwortet	_	_	VERB
'4	die	_	_	_
'5	Aufhebung	_	_	_
'6	des	_	_	_
'7	heutigen	_	_	_
'8	Gebietsschutzes	_	_	_
'9	und	_	_	_
'10	eine	_	_	_
'11	Durchleitungspflicht	nsp	_	_
'12	.	_	_	_

# source_sent_id = . . train-s1994
# text = Die heutigen PC sind zu komplex geworden.
'1	Die	_	_	_
'2	heutigen	_	_	_
'3	PC	_	_	_
'4	sind	_	_	VERB
'5	zu	_	_	_
'6	komplex	_	_	_
'7	geworden	nsp	_	_
'8	.	_	_	_

# source_sent_id = . . train-s1995
# text = Die Angebote lagen nahe beieinander,'' gibt Cheong zu.
'1	Die	_	_	_
'2	Angebote	_	_	_
'3	lagen	_	_	VERB
'4	nahe	_	_	_
'5	beieinander	nsp	_	_
'6	,	nsp	_	_
'7	''	_	_	_
'8	gibt	_	_	VERB
'9	Cheong	_	_	_
'10	zu	nsp	_	_
'11	.	_	_	_

# source_sent_id = . . train-s1996
# text = im August und September wurden viele geplante Sonderaktionen zu Frankreich abgesagt.
'1-2	im	_	_	_
'1	In	_	_	_
'2	dem	_	_	_
'3	August	_	_	_
'4	und	_	_	_
'5	September	_	_	_
'6	wurden	_	_	_
'7	viele	_	_	_
'8	geplante	_	_	_
'9	Sonderaktionen	_	_	_
'10	zu	_	_	_
'11	Frankreich	_	_	_
'12	abgesagt	nsp	_	VERB
'13	.	_	_	_

# source_sent_id = . . train-s1997
# text = Aga Khan will nach eigenen Angaben den Erlös der Versteigerung einer karitativen Organisation spenden.
'1	Aga	_	_	_
'2	Khan	_	_	_
'3	will	_	_	_
'4	nach	_	_	_
'5	eigenen	_	_	_
'6	Angaben	_	_	_
'7	den	_	_	_
'8	Erlös	_	_	_
'9	der	_	_	_
'10	Versteigerung	_	_	_
'11	einer	_	_	_
'12	karitativen	_	_	_
'13	Organisation	_	_	_
'14	spenden	nsp	_	VERB
'15	.	_	_	_

# source_sent_id = . . train-s1998
# text = Die IG Metall hat eine Untersuchungskommission zur Aufklärung umstrittener Immobiliengeschäfte beim Ausbau ihrer Frankfurter Gewerkschaftszentrale eingesetzt.
'1	Die	_	_	_
'2	IG	_	_	_
'3	Metall	_	_	_
'4	hat	_	_	_
'5	eine	_	_	_
'6	Untersuchungskommission	_	_	_
'7-8	zur	_	_	_
'7	zu	_	_	_
'8	der	_	_	_
'9	Aufklärung	_	_	_
'10	umstrittener	_	_	_
'11	Immobiliengeschäfte	_	_	_
'12-13	beim	_	_	_
'12	bei	_	_	_
'13	dem	_	_	_
'14	Ausbau	_	_	_
'15	ihrer	_	_	_
'16	Frankfurter	_	_	_
'17	Gewerkschaftszentrale	_	_	_
'18	eingesetzt	nsp	_	VERB
'19	.	_	_	_

# source_sent_id = . . train-s1999
# text = Die EU favorisiert also den Ausbau von Verteilnetzen.
'1	Die	_	_	_
'2	EU	_	_	_
'3	favorisiert	_	_	VERB
'4	also	_	_	_
'5	den	_	_	_
'6	Ausbau	_	_	_
'7	von	_	_	_
'8	Verteilnetzen	nsp	_	_
'9	.	_	_	_

# source_sent_id = . . train-s2000
# text = Der früherer Polizeichef Necdet Menzir dürfte auf die türkische Ministerpräsidentin Tansu Ciller nicht gut zu sprechen sein:
'1	Der	_	_	_
'2	früherer	_	_	_
'3	Polizeichef	_	_	_
'4	Necdet	_	_	_
'5	Menzir	_	_	_
'6	dürfte	_	_	_
'7	auf	_	_	_
'8	die	_	_	_
'9	türkische	_	_	_
'10	Ministerpräsidentin	_	_	_
'11	Tansu	_	_	_
'12	Ciller	_	_	_
'13	nicht	_	_	_
'14	gut	_	_	_
'15	zu	_	_	_
'16	sprechen	_	_	VERB
'17	sein	nsp	_	VERB
'18	:	_	_	_

# source_sent_id = . . train-s2001
# text = Die Ministerpräsidentin möchte ein dynamisches und junges Team bilden,'' sagt der türkische Treuhandchef Söylemez.
'1	Die	_	_	_
'2	Ministerpräsidentin	_	_	_
'3	möchte	_	_	_
'4	ein	_	_	_
'5	dynamisches	_	_	_
'6	und	_	_	_
'7	junges	_	_	_
'8	Team	_	_	_
'9	bilden	nsp	_	VERB
'10	,	nsp	_	_
'11	''	_	_	_
'12	sagt	_	_	VERB
'13	der	_	_	_
'14	türkische	_	_	_
'15	Treuhandchef	_	_	_
'16	Söylemez	nsp	_	_
'17	.	_	_	_

# source_sent_id = . . train-s2002
# text = Wir konzentrieren uns auf Marktnischen, in denen wir schneller sein können als die Telekom,'' erklärt Deutschland -- Chef Horst Enzelmüller.
'1	Wir	_	_	_
'2	konzentrieren	_	_	VERB
'3	uns	_	_	_
'4	auf	_	_	_
'5	Marktnischen	nsp	_	_
'6	,	_	_	_
'7	in	_	_	_
'8	denen	_	_	_
'9	wir	_	_	_
'10	schneller	_	_	_
'11	sein	_	_	VERB
'12	können	_	_	_
'13	als	_	_	_
'14	die	_	_	_
'15	Telekom	nsp	_	_
'16	,	nsp	_	_
'17	''	_	_	_
'18	erklärt	_	_	VERB
'19	Deutschland	_	_	_
'20	--	_	_	_
'21	Chef	_	_	_
'22	Horst	_	_	_
'23	Enzelmüller	nsp	_	_
'24	.	_	_	_

# source_sent_id = . . train-s2003
# text = im kommenden Jahr sollen dann Eschborn und Hausen angeschlossen werden.
'1-2	im	_	_	_
'1	In	_	_	_
'2	dem	_	_	_
'3	kommenden	_	_	_
'4	Jahr	_	_	_
'5	sollen	_	_	_
'6	dann	_	_	_
'7	Eschborn	_	_	_
'8	und	_	_	_
'9	Hausen	_	_	_
'10	angeschlossen	_	_	VERB
'11	werden	nsp	_	_
'12	.	_	_	_

# source_sent_id = . . train-s2004
# text = Die Wohnräume sollten ausreichend, aber nicht übertrieben beheizt werden.
'1	Die	_	_	_
'2	Wohnräume	_	_	_
'3	sollten	_	_	_
'4	ausreichend	nsp	_	_
'5	,	_	_	_
'6	aber	_	_	_
'7	nicht	_	_	_
'8	übertrieben	_	_	_
'9	beheizt	_	_	VERB
'10	werden	nsp	_	_
'11	.	_	_	_

# source_sent_id = . . train-s2005
# text = Die Löhne sind zu hoch, die Steuer -- und Abgabenlasten auch, die Staatsdefizite ebenfalls und die Arbeitslosenzahlen sowieso.
'1	Die	_	_	_
'2	Löhne	_	_	_
'3	sind	_	_	VERB
'4	zu	_	_	_
'5	hoch	nsp	_	_
'6	,	_	_	_
'7	die	_	_	_
'8	Steuer	_	_	_
'9	--	_	_	_
'10	und	_	_	_
'11	Abgabenlasten	_	_	_
'12	auch	nsp	_	_
'13	,	_	_	_
'14	die	_	_	_
'15	Staatsdefizite	_	_	_
'16	ebenfalls	_	_	_
'17	und	_	_	_
'18	die	_	_	_
'19	Arbeitslosenzahlen	_	_	_
'20	sowieso	nsp	_	_
'21	.	_	_	_

# source_sent_id = . . train-s2006
# text = Wo wart ihr, als unser Haus von den Raubtieren umstellt war?
'1	Wo	_	_	_
'2	wart	_	_	VERB
'3	ihr	nsp	_	_
'4	,	_	_	_
'5	als	_	_	_
'6	unser	_	_	_
'7	Haus	_	_	_
'8	von	_	_	_
'9	den	_	_	_
'10	Raubtieren	_	_	_
'11	umstellt	_	_	VERB
'12	war	nsp	_	_
'13	?	_	_	_

# source_sent_id = . . train-s2007
# text = 30 000 Tier -- und Pflanzenarten sind weltweit in ihrer Existenz bedroht.
'1	30	_	_	_
'2	000	_	_	_
'3	Tier	_	_	_
'4	--	_	_	_
'5	und	_	_	_
'6	Pflanzenarten	_	_	_
'7	sind	_	_	VERB
'8	weltweit	_	_	_
'9	in	_	_	_
'10	ihrer	_	_	_
'11	Existenz	_	_	_
'12	bedroht	nsp	_	_
'13	.	_	_	_

# source_sent_id = . . train-s2008
# text = In einer Rede vor dem Plenum rief Bundesumweltministerin Angela Merkel (CDU) dazu auf, daß Industrie -- und Entwicklungländer gemeinsam nach Wegen suchen, um Ressourcen nachhaltig zu entwickeln und zu erhalten.
'1	In	_	_	_
'2	einer	_	_	_
'3	Rede	_	_	_
'4	vor	_	_	_
'5	dem	_	_	_
'6	Plenum	_	_	_
'7	rief	_	_	VERB
'8	Bundesumweltministerin	_	_	_
'9	Angela	_	_	_
'10	Merkel	_	_	_
'11	(	nsp	_	_
'12	CDU	nsp	_	_
'13	)	_	_	_
'14	dazu	_	_	_
'15	auf	nsp	_	_
'16	,	_	_	_
'17	daß	_	_	_
'18	Industrie	_	_	_
'19	--	_	_	_
'20	und	_	_	_
'21	Entwicklungländer	_	_	_
'22	gemeinsam	_	_	_
'23	nach	_	_	_
'24	Wegen	_	_	_
'25	suchen	nsp	_	VERB
'26	,	_	_	_
'27	um	_	_	_
'28	Ressourcen	_	_	_
'29	nachhaltig	_	_	_
'30	zu	_	_	_
'31	entwickeln	_	_	VERB
'32	und	_	_	_
'33	zu	_	_	_
'34	erhalten	nsp	_	VERB
'35	.	_	_	_

# source_sent_id = . . train-s2009
# text = Tage vor dem Beginn des Forums der Asiatisch -- Pazifischen Wirtschaftskooperation (Apec) im japanischen Osaka machen die asiatischen Staatschefs keinen Hehl aus ihrem Ärger über das Gastgeberland.
'1	Tage	_	_	_
'2	vor	_	_	_
'3	dem	_	_	_
'4	Beginn	_	_	_
'5	des	_	_	_
'6	Forums	_	_	_
'7	der	_	_	_
'8	Asiatisch	_	_	_
'9	--	_	_	_
'10	Pazifischen	_	_	_
'11	Wirtschaftskooperation	_	_	_
'12	(	nsp	_	_
'13	Apec	nsp	_	_
'14	)	_	_	_
'15-16	im	_	_	_
'15	in	_	_	_
'16	dem	_	_	_
'17	japanischen	_	_	_
'18	Osaka	_	_	_
'19	machen	_	_	VERB
'20	die	_	_	_
'21	asiatischen	_	_	_
'22	Staatschefs	_	_	_
'23	keinen	_	_	_
'24	Hehl	_	_	_
'25	aus	_	_	_
'26	ihrem	_	_	_
'27	Ärger	_	_	_
'28	über	_	_	_
'29	das	_	_	_
'30	Gastgeberland	nsp	_	_
'31	.	_	_	_

# source_sent_id = . . train-s2010
# text = Ich wünsche mir, daß das auch hier möglich sein wird,'' sagt der Kanzler.
'1	Ich	_	_	_
'2	wünsche	_	_	VERB
'3	mir	nsp	_	_
'4	,	_	_	_
'5	daß	_	_	_
'6	das	_	_	_
'7	auch	_	_	_
'8	hier	_	_	_
'9	möglich	_	_	_
'10	sein	_	_	VERB
'11	wird	nsp	_	_
'12	,	nsp	_	_
'13	''	_	_	_
'14	sagt	_	_	VERB
'15	der	_	_	_
'16	Kanzler	nsp	_	_
'17	.	_	_	_

# source_sent_id = . . train-s2011
# text = Der Großteil kommt aus Japan und Taiwan.
'1	Der	_	_	_
'2	Großteil	_	_	_
'3	kommt	_	_	VERB
'4	aus	_	_	_
'5	Japan	_	_	_
'6	und	_	_	_
'7	Taiwan	nsp	_	_
'8	.	_	_	_

# source_sent_id = . . train-s2012
# text = Dienstag abend waren erneute Gespräche zwischen Haushaltsexperten des Weißen Hauses und des von den Republikanern beherrschten Kongresses ergebnislos abgebrochen worden.
'1	Dienstag	_	_	_
'2	abend	_	_	_
'3	waren	_	_	_
'4	erneute	_	_	_
'5	Gespräche	_	_	_
'6	zwischen	_	_	_
'7	Haushaltsexperten	_	_	_
'8	des	_	_	_
'9	Weißen	_	_	_
'10	Hauses	_	_	_
'11	und	_	_	_
'12	des	_	_	_
'13	von	_	_	_
'14	den	_	_	_
'15	Republikanern	_	_	_
'16	beherrschten	_	_	VERB
'17	Kongresses	_	_	_
'18	ergebnislos	_	_	_
'19	abgebrochen	_	_	VERB
'20	worden	nsp	_	_
'21	.	_	_	_

# source_sent_id = . . train-s2013
# text = 2000 Nasa -- Angestellte mußten zu Hause bleiben.
'1	2000	_	_	_
'2	Nasa	_	_	_
'3	--	_	_	_
'4	Angestellte	_	_	_
'5	mußten	_	_	_
'6	zu	_	_	_
'7	Hause	_	_	_
'8	bleiben	nsp	_	VERB
'9	.	_	_	_

# source_sent_id = . . train-s2014
# text = Die Repubulikaner hielten eine längere Schließung der Regierungsbehörden für möglich.
'1	Die	_	_	_
'2	Repubulikaner	_	_	_
'3	hielten	_	_	VERB
'4	eine	_	_	_
'5	längere	_	_	_
'6	Schließung	_	_	_
'7	der	_	_	_
'8	Regierungsbehörden	_	_	_
'9	für	_	_	_
'10	möglich	nsp	_	_
'11	.	_	_	_

# source_sent_id = . . train-s2015
# text = Kritik am Truppenbesuch Bundeskanzler Helmut Kohls in China äußerte auch die Fraktion von Bündnis 90 / Die Grünen.
'1	Kritik	_	_	_
'2-3	am	_	_	_
'2	an	_	_	_
'3	dem	_	_	_
'4	Truppenbesuch	_	_	_
'5	Bundeskanzler	_	_	_
'6	Helmut	_	_	_
'7	Kohls	_	_	_
'8	in	_	_	_
'9	China	_	_	_
'10	äußerte	_	_	VERB
'11	auch	_	_	_
'12	die	_	_	_
'13	Fraktion	_	_	_
'14	von	_	_	_
'15	Bündnis	_	_	_
'16	90	_	_	_
'17	/	_	_	_
'18	Die	_	_	_
'19	Grünen	nsp	_	_
'20	.	_	_	_

# source_sent_id = . . train-s2016
# text = Er will Ende November in Washington mit der U.S. -- Regierung über den Friedensprozeß sprechen.
'1	Er	_	_	_
'2	will	_	_	_
'3	Ende	_	_	_
'4	November	_	_	_
'5	in	_	_	_
'6	Washington	_	_	_
'7	mit	_	_	_
'8	der	_	_	_
'9	U.S.	_	_	_
'10	--	_	_	_
'11	Regierung	_	_	_
'12	über	_	_	_
'13	den	_	_	_
'14	Friedensprozeß	_	_	_
'15	sprechen	nsp	_	VERB
'16	.	_	_	_

# source_sent_id = . . train-s2017
# text = 5000 Stellen will die U.S. -- Gruppe 3M streichen.
'1	5000	_	_	_
'2	Stellen	_	_	_
'3	will	_	_	_
'4	die	_	_	_
'5	U.S.	_	_	_
'6	--	_	_	_
'7	Gruppe	_	_	_
'8	3M	_	_	_
'9	streichen	nsp	_	VERB
'10	.	_	_	_

# source_sent_id = . . train-s2018
# text = Die Universität konnte ihre Aufgaben nur noch durch eine erhebliche Steigerung der Drittmittel erfüllen.
'1	Die	_	_	_
'2	Universität	_	_	_
'3	konnte	_	_	_
'4	ihre	_	_	_
'5	Aufgaben	_	_	_
'6	nur	_	_	_
'7	noch	_	_	_
'8	durch	_	_	_
'9	eine	_	_	_
'10	erhebliche	_	_	_
'11	Steigerung	_	_	_
'12	der	_	_	_
'13	Drittmittel	_	_	_
'14	erfüllen	nsp	_	VERB
'15	.	_	_	_

# source_sent_id = . . train-s2019
# text = Die Fragen waren im Vorfeld des Symposiums an zahlreiche Ärzte verschickt worden.
'1	Die	_	_	_
'2	Fragen	_	_	_
'3	waren	_	_	_
'4-5	im	_	_	_
'4	in	_	_	_
'5	dem	_	_	_
'6	Vorfeld	_	_	_
'7	des	_	_	_
'8	Symposiums	_	_	_
'9	an	_	_	_
'10	zahlreiche	_	_	_
'11	Ärzte	_	_	_
'12	verschickt	_	_	VERB
'13	worden	nsp	_	_
'14	.	_	_	_

# source_sent_id = . . train-s2020
# text = 1989 entstanden 156 Stellen.
'1	1989	_	_	_
'2	entstanden	_	_	VERB
'3	156	_	_	_
'4	Stellen	nsp	_	_
'5	.	_	_	_

# source_sent_id = . . train-s2021
# text = Wir wollen ein würdiges Leben für alle,'' redet Scheich Nahnah scheinbar unbeeindruckt weiter.
'1	Wir	_	_	_
'2	wollen	_	_	VERB
'3	ein	_	_	_
'4	würdiges	_	_	_
'5	Leben	_	_	_
'6	für	_	_	_
'7	alle	nsp	_	_
'8	,	nsp	_	_
'9	''	_	_	_
'10	redet	_	_	VERB
'11	Scheich	_	_	_
'12	Nahnah	_	_	_
'13	scheinbar	_	_	_
'14	unbeeindruckt	_	_	_
'15	weiter	nsp	_	_
'16	.	_	_	_

# source_sent_id = . . train-s2022
# text = Die SPD könne nur mit ``Ja'' oder mit ``Nein'' stimmen.
'1	Die	_	_	_
'2	SPD	_	_	_
'3	könne	_	_	_
'4	nur	_	_	_
'5	mit	_	_	_
'6	``	nsp	_	_
'7	Ja	nsp	_	_
'8	''	_	_	_
'9	oder	_	_	_
'10	mit	_	_	_
'11	``	nsp	_	_
'12	Nein	nsp	_	_
'13	''	_	_	_
'14	stimmen	nsp	_	VERB
'15	.	_	_	_

# source_sent_id = . . train-s2023
# text = Die EU beschloß am Mittwoch nach Agenturberichten ein Waffenembargo gegen Nigeria.
'1	Die	_	_	_
'2	EU	_	_	_
'3	beschloß	_	_	VERB
'4-5	am	_	_	_
'4	an	_	_	_
'5	dem	_	_	_
'6	Mittwoch	_	_	_
'7	nach	_	_	_
'8	Agenturberichten	_	_	_
'9	ein	_	_	_
'10	Waffenembargo	_	_	_
'11	gegen	_	_	_
'12	Nigeria	nsp	_	_
'13	.	_	_	_

# source_sent_id = . . train-s2024
# text = Wir werden dieses Thema zum Gegenstand der kommenden Wahlen machen.
'1	Wir	_	_	_
'2	werden	_	_	_
'3	dieses	_	_	_
'4	Thema	_	_	_
'5-6	zum	_	_	_
'5	zu	_	_	_
'6	dem	_	_	_
'7	Gegenstand	_	_	_
'8	der	_	_	_
'9	kommenden	_	_	_
'10	Wahlen	_	_	_
'11	machen	nsp	_	VERB
'12	.	_	_	_

# source_sent_id = . . train-s2025
# text = Der Einzelhandel in den Vororten geht daran zugrunde.''
'1	Der	_	_	_
'2	Einzelhandel	_	_	_
'3	in	_	_	_
'4	den	_	_	_
'5	Vororten	_	_	_
'6	geht	_	_	VERB
'7	daran	_	_	_
'8	zugrunde	nsp	_	_
'9	.	nsp	_	_
'10	''	_	_	_

# source_sent_id = . . train-s2026
# text = Der Sprecher des Justizministeriums Giorgos Pavleas gab bekannt, die sechs Wärter seien nach 28 Stunden unverletzt freigekommen.
'1	Der	_	_	_
'2	Sprecher	_	_	_
'3	des	_	_	_
'4	Justizministeriums	_	_	_
'5	Giorgos	_	_	_
'6	Pavleas	_	_	_
'7	gab	_	_	VERB
'8	bekannt	nsp	_	_
'9	,	_	_	_
'10	die	_	_	_
'11	sechs	_	_	_
'12	Wärter	_	_	_
'13	seien	_	_	_
'14	nach	_	_	_
'15	28	_	_	_
'16	Stunden	_	_	_
'17	unverletzt	_	_	_
'18	freigekommen	nsp	_	VERB
'19	.	_	_	_

# source_sent_id = . . train-s2027
# text = Das würde Druck auf die ganze Branche ausüben und eine Lawine lostreten.''
'1	Das	_	_	_
'2	würde	_	_	_
'3	Druck	_	_	_
'4	auf	_	_	_
'5	die	_	_	_
'6	ganze	_	_	_
'7	Branche	_	_	_
'8	ausüben	_	_	VERB
'9	und	_	_	_
'10	eine	_	_	_
'11	Lawine	_	_	_
'12	lostreten	nsp	_	VERB
'13	.	nsp	_	_
'14	''	_	_	_

# source_sent_id = . . train-s2028
# text = Man könnte sich klüger äußern''.
'1	Man	_	_	_
'2	könnte	_	_	_
'3	sich	_	_	_
'4	klüger	_	_	_
'5	äußern	nsp	_	VERB
'6	''	nsp	_	_
'7	.	_	_	_

# source_sent_id = . . train-s2029
# text = Gemeinsam mit der Deutschen Bahn wurde ein Ferienzugkonzept mit dem Titel'' im Zug der Zeit -- Zügig in den Schwarzwald ``geschaffen.
'1	Gemeinsam	_	_	_
'2	mit	_	_	_
'3	der	_	_	_
'4	Deutschen	_	_	_
'5	Bahn	_	_	_
'6	wurde	_	_	_
'7	ein	_	_	_
'8	Ferienzugkonzept	_	_	_
'9	mit	_	_	_
'10	dem	_	_	_
'11	Titel	nsp	_	_
'12	''	_	_	_
'13-14	im	_	_	_
'13	In	_	_	_
'14	dem	_	_	_
'15	Zug	_	_	_
'16	der	_	_	_
'17	Zeit	_	_	_
'18	--	_	_	_
'19	Zügig	_	_	_
'20	in	_	_	_
'21	den	_	_	_
'22	Schwarzwald	_	_	_
'23	``	nsp	_	_
'24	geschaffen	nsp	_	VERB
'25	.	_	_	_

# source_sent_id = . . train-s2030
# text = 1200 wurden in Gewahrsam genommen oder festgenommen.
'1	1200	_	_	_
'2	wurden	_	_	_
'3	in	_	_	_
'4	Gewahrsam	_	_	_
'5	genommen	_	_	VERB
'6	oder	_	_	_
'7	festgenommen	nsp	_	VERB
'8	.	_	_	_

# source_sent_id = . . train-s2031
# text = Zweifel gebe es an seiner politischen Verantwortung.
'1	Zweifel	_	_	_
'2	gebe	_	_	VERB
'3	es	_	_	_
'4	an	_	_	_
'5	seiner	_	_	_
'6	politischen	_	_	_
'7	Verantwortung	nsp	_	_
'8	.	_	_	_

# source_sent_id = . . train-s2032
# text = Der 22jährige Sanitäter, der auf einem Stützpunkt in Schweinfurt stationiert ist, hatte im Oktober einen Einsatz unter UN -- Kommando im ehemaligen Jugoslawien verweigert.
'1	Der	_	_	_
'2	22jährige	_	_	_
'3	Sanitäter	nsp	_	_
'4	,	_	_	_
'5	der	_	_	_
'6	auf	_	_	_
'7	einem	_	_	_
'8	Stützpunkt	_	_	_
'9	in	_	_	_
'10	Schweinfurt	_	_	_
'11	stationiert	_	_	VERB
'12	ist	nsp	_	_
'13	,	_	_	_
'14	hatte	_	_	_
'15-16	im	_	_	_
'15	in	_	_	_
'16	dem	_	_	_
'17	Oktober	_	_	_
'18	einen	_	_	_
'19	Einsatz	_	_	_
'20	unter	_	_	_
'21	UN	_	_	_
'22	--	_	_	_
'23	Kommando	_	_	_
'24-25	im	_	_	_
'24	in	_	_	_
'25	dem	_	_	_
'26	ehemaligen	_	_	_
'27	Jugoslawien	_	_	_
'28	verweigert	nsp	_	VERB
'29	.	_	_	_

# source_sent_id = . . train-s2033
# text = Die Soldaten hätten sowieso nichts zu tun, sagte ein Sprecher.
'1	Die	_	_	_
'2	Soldaten	_	_	_
'3	hätten	_	_	VERB
'4	sowieso	_	_	_
'5	nichts	_	_	_
'6	zu	_	_	_
'7	tun	nsp	_	VERB
'8	,	_	_	_
'9	sagte	_	_	VERB
'10	ein	_	_	_
'11	Sprecher	nsp	_	_
'12	.	_	_	_

# source_sent_id = . . train-s2034
# text = Die Staaten enthielten sich der Stimme, darunter auch Deutschland, Rußland, Israel, Spanien sowie alle osteuropäischen Länder.
'1	Die	_	_	_
'2	Staaten	_	_	_
'3	enthielten	_	_	VERB
'4	sich	_	_	_
'5	der	_	_	_
'6	Stimme	nsp	_	_
'7	,	_	_	_
'8	darunter	_	_	_
'9	auch	_	_	_
'10	Deutschland	nsp	_	_
'11	,	_	_	_
'12	Rußland	nsp	_	_
'13	,	_	_	_
'14	Israel	nsp	_	_
'15	,	_	_	_
'16	Spanien	_	_	_
'17	sowie	_	_	_
'18	alle	_	_	_
'19	osteuropäischen	_	_	_
'20	Länder	nsp	_	_
'21	.	_	_	_

# source_sent_id = . . train-s2035
# text = Ich beteilige mich nicht an Spekulationen.
'1	Ich	_	_	_
'2	beteilige	_	_	VERB
'3	mich	_	_	_
'4	nicht	_	_	_
'5	an	_	_	_
'6	Spekulationen	nsp	_	_
'7	.	_	_	_

# source_sent_id = . . train-s2036
# text = Die Regierung teilte nur mit, Rushdies Auftritt bei der Messe sei aus Sicherheitsgründen abgesagt worden.
'1	Die	_	_	_
'2	Regierung	_	_	_
'3	teilte	_	_	VERB
'4	nur	_	_	_
'5	mit	nsp	_	_
'6	,	_	_	_
'7	Rushdies	_	_	_
'8	Auftritt	_	_	_
'9	bei	_	_	_
'10	der	_	_	_
'11	Messe	_	_	_
'12	sei	_	_	_
'13	aus	_	_	_
'14	Sicherheitsgründen	_	_	_
'15	abgesagt	_	_	VERB
'16	worden	nsp	_	_
'17	.	_	_	_

# source_sent_id = . . train-s2037
# text = Besonderheit auf Santo ist das Santo Hotel an der einzigen Hauptstraße der Insel in der Hauptstadt Luganville.
'1	Besonderheit	_	_	_
'2	auf	_	_	_
'3	Santo	_	_	_
'4	ist	_	_	VERB
'5	das	_	_	_
'6	Santo	_	_	_
'7	Hotel	_	_	_
'8	an	_	_	_
'9	der	_	_	_
'10	einzigen	_	_	_
'11	Hauptstraße	_	_	_
'12	der	_	_	_
'13	Insel	_	_	_
'14	in	_	_	_
'15	der	_	_	_
'16	Hauptstadt	_	_	_
'17	Luganville	nsp	_	_
'18	.	_	_	_

# source_sent_id = . . train-s2038
# text = Alle wollen doch so schlafen wie Alexandra und Joachim.
'1	Alle	_	_	_
'2	wollen	_	_	_
'3	doch	_	_	_
'4	so	_	_	_
'5	schlafen	_	_	VERB
'6	wie	_	_	_
'7	Alexandra	_	_	_
'8	und	_	_	_
'9	Joachim	nsp	_	_
'10	.	_	_	_

# source_sent_id = . . train-s2039
# text = Mit meinen 45 Jahren bin ich zu alt für diese Art Leben,'' erzählt Wang.
'1	Mit	_	_	_
'2	meinen	_	_	_
'3	45	_	_	_
'4	Jahren	_	_	_
'5	bin	_	_	VERB
'6	ich	_	_	_
'7	zu	_	_	_
'8	alt	_	_	_
'9	für	_	_	_
'10	diese	_	_	_
'11	Art	_	_	_
'12	Leben	nsp	_	_
'13	,	nsp	_	_
'14	''	_	_	_
'15	erzählt	_	_	VERB
'16	Wang	nsp	_	_
'17	.	_	_	_

# source_sent_id = . . train-s2040
# text = Wenn mir eine Ernte kaputtgeht, dann wird es schlimm,'' sagt Bauer Qin Qunzhu im Dorf Xiao Zhang im Kreis Binxian.
'1	Wenn	_	_	_
'2	mir	_	_	_
'3	eine	_	_	_
'4	Ernte	_	_	_
'5	kaputtgeht	nsp	_	VERB
'6	,	_	_	_
'7	dann	_	_	_
'8	wird	_	_	VERB
'9	es	_	_	_
'10	schlimm	nsp	_	_
'11	,	nsp	_	_
'12	''	_	_	_
'13	sagt	_	_	VERB
'14	Bauer	_	_	_
'15	Qin	_	_	_
'16	Qunzhu	_	_	_
'17-18	im	_	_	_
'17	in	_	_	_
'18	dem	_	_	_
'19	Dorf	_	_	_
'20	Xiao	_	_	_
'21	Zhang	_	_	_
'22-23	im	_	_	_
'22	in	_	_	_
'23	dem	_	_	_
'24	Kreis	_	_	_
'25	Binxian	nsp	_	_
'26	.	_	_	_

# source_sent_id = . . train-s2041
# text = Deutschland war das erste europäische Land, das den Mißbrauch von Kindern auch dann unter Strafe stellte, wenn er im Ausland geschah,'' erläutert Felizardo.
'1	Deutschland	_	_	_
'2	war	_	_	VERB
'3	das	_	_	_
'4	erste	_	_	_
'5	europäische	_	_	_
'6	Land	nsp	_	_
'7	,	_	_	_
'8	das	_	_	_
'9	den	_	_	_
'10	Mißbrauch	_	_	_
'11	von	_	_	_
'12	Kindern	_	_	_
'13	auch	_	_	_
'14	dann	_	_	_
'15	unter	_	_	_
'16	Strafe	_	_	_
'17	stellte	nsp	_	VERB
'18	,	_	_	_
'19	wenn	_	_	_
'20	er	_	_	_
'21-22	im	_	_	_
'21	in	_	_	_
'22	dem	_	_	_
'23	Ausland	_	_	_
'24	geschah	nsp	_	VERB
'25	,	nsp	_	_
'26	''	_	_	_
'27	erläutert	_	_	VERB
'28	Felizardo	nsp	_	_
'29	.	_	_	_

# source_sent_id = . . train-s2042
# text = Die Lebenserwartung liege bei 21 Jahren.
'1	Die	_	_	_
'2	Lebenserwartung	_	_	_
'3	liege	_	_	VERB
'4	bei	_	_	_
'5	21	_	_	_
'6	Jahren	nsp	_	_
'7	.	_	_	_

# source_sent_id = . . train-s2043
# text = Waigels Forderung, Maastricht mit einem ``Stabilitätspakt'' anzureichern, findet enormen Widerhall, Schwedens Vorstoß für
'1	Waigels	_	_	_
'2	Forderung	nsp	_	_
'3	,	_	_	_
'4	Maastricht	_	_	_
'5	mit	_	_	_
'6	einem	_	_	_
'7	``	nsp	_	_
'8	Stabilitätspakt	nsp	_	_
'9	''	_	_	_
'10	anzureichern	nsp	_	VERB
'11	,	_	_	_
'12	findet	_	_	VERB
'13	enormen	_	_	_
'14	Widerhall	nsp	_	_
'15	,	_	_	_
'16	Schwedens	_	_	_
'17	Vorstoß	_	_	_
'18	für	_	_	_

# source_sent_id = . . train-s2044
# text = Wir haben der ganzen Welt gezeigt, daß wir Demokraten sind,'' sagte ein alter Gemüsehändler.
'1	Wir	_	_	_
'2	haben	_	_	_
'3	der	_	_	_
'4	ganzen	_	_	_
'5	Welt	_	_	_
'6	gezeigt	nsp	_	VERB
'7	,	_	_	_
'8	daß	_	_	_
'9	wir	_	_	_
'10	Demokraten	_	_	_
'11	sind	nsp	_	VERB
'12	,	nsp	_	_
'13	''	_	_	_
'14	sagte	_	_	VERB
'15	ein	_	_	_
'16	alter	_	_	_
'17	Gemüsehändler	nsp	_	_
'18	.	_	_	_

# source_sent_id = . . train-s2045
# text = Chef und Bischof Armando Franco wies darauf hin, daß die Ausländer zum Reichtum des Landes beitrügen.
'1	Chef	_	_	_
'2	und	_	_	_
'3	Bischof	_	_	_
'4	Armando	_	_	_
'5	Franco	_	_	_
'6	wies	_	_	VERB
'7	darauf	_	_	_
'8	hin	nsp	_	_
'9	,	_	_	_
'10	daß	_	_	_
'11	die	_	_	_
'12	Ausländer	_	_	_
'13-14	zum	_	_	_
'13	zu	_	_	_
'14	dem	_	_	_
'15	Reichtum	_	_	_
'16	des	_	_	_
'17	Landes	_	_	_
'18	beitrügen	nsp	_	VERB
'19	.	_	_	_

# source_sent_id = . . train-s2046
# text = Wahlbeobachter hatten nur unbedeutende Unregelmäßigkeiten bemerkt.
'1	Wahlbeobachter	_	_	_
'2	hatten	_	_	_
'3	nur	_	_	_
'4	unbedeutende	_	_	_
'5	Unregelmäßigkeiten	_	_	_
'6	bemerkt	nsp	_	VERB
'7	.	_	_	_

# source_sent_id = . . train-s2047
# text = Die politische Situation dort (in der DDR) war mit der während des Dritten Reiches vergleichbar.
'1	Die	_	_	_
'2	politische	_	_	_
'3	Situation	_	_	_
'4	dort	_	_	_
'5	(	nsp	_	_
'6	in	_	_	_
'7	der	_	_	_
'8	DDR	nsp	_	_
'9	)	_	_	_
'10	war	_	_	VERB
'11	mit	_	_	_
'12	der	_	_	_
'13	während	_	_	_
'14	des	_	_	_
'15	Dritten	_	_	_
'16	Reiches	_	_	_
'17	vergleichbar	nsp	_	_
'18	.	_	_	_

# source_sent_id = . . train-s2048
# text = Paris selbst nahmen zur gleichen Zeit rund tausend Studenten an einer Kundgebung im Quartier Latin teil.
'1	Paris	_	_	_
'2	selbst	_	_	_
'3	nahmen	_	_	VERB
'4-5	zur	_	_	_
'4	zu	_	_	_
'5	der	_	_	_
'6	gleichen	_	_	_
'7	Zeit	_	_	_
'8	rund	_	_	_
'9	tausend	_	_	_
'10	Studenten	_	_	_
'11	an	_	_	_
'12	einer	_	_	_
'13	Kundgebung	_	_	_
'14-15	im	_	_	_
'14	in	_	_	_
'15	dem	_	_	_
'16	Quartier	_	_	_
'17	Latin	_	_	_
'18	teil	nsp	_	_
'19	.	_	_	_

# source_sent_id = . . train-s2049
# text = William Perry sagte, nach Abwägung der Folgen für ``unsere geschätzten Beziehungen zu Japan und Okinawa'' sei der Fehler des Admirals so schwerwiegend, daß er seine Pflichten nicht mehr wirksam ausüben könne.
'1	William	_	_	_
'2	Perry	_	_	_
'3	sagte	nsp	_	VERB
'4	,	_	_	_
'5	nach	_	_	_
'6	Abwägung	_	_	_
'7	der	_	_	_
'8	Folgen	_	_	_
'9	für	_	_	_
'10	``	nsp	_	_
'11	unsere	_	_	_
'12	geschätzten	_	_	_
'13	Beziehungen	_	_	_
'14	zu	_	_	_
'15	Japan	_	_	_
'16	und	_	_	_
'17	Okinawa	nsp	_	_
'18	''	_	_	_
'19	sei	_	_	VERB
'20	der	_	_	_
'21	Fehler	_	_	_
'22	des	_	_	_
'23	Admirals	_	_	_
'24	so	_	_	_
'25	schwerwiegend	nsp	_	_
'26	,	_	_	_
'27	daß	_	_	_
'28	er	_	_	_
'29	seine	_	_	_
'30	Pflichten	_	_	_
'31	nicht	_	_	_
'32	mehr	_	_	_
'33	wirksam	_	_	_
'34	ausüben	_	_	VERB
'35	könne	nsp	_	_
'36	.	_	_	_

# source_sent_id = . . train-s2050
# text = So sind die Auszeichnungen wenigstens zu etwas nütze,'' erklärte der Vater von fünf Kindern, Miguel Angel Fernandez aus San Juan in Westargentinien.
'1	So	_	_	_
'2	sind	_	_	VERB
'3	die	_	_	_
'4	Auszeichnungen	_	_	_
'5	wenigstens	_	_	_
'6	zu	_	_	_
'7	etwas	_	_	_
'8	nütze	nsp	_	_
'9	,	nsp	_	_
'10	''	_	_	_
'11	erklärte	_	_	VERB
'12	der	_	_	_
'13	Vater	_	_	_
'14	von	_	_	_
'15	fünf	_	_	_
'16	Kindern	nsp	_	_
'17	,	_	_	_
'18	Miguel	_	_	_
'19	Angel	_	_	_
'20	Fernandez	_	_	_
'21	aus	_	_	_
'22	San	_	_	_
'23	Juan	_	_	_
'24	in	_	_	_
'25	Westargentinien	nsp	_	_
'26	.	_	_	_

# source_sent_id = . . train-s2051
# text = Es muß mit der Illusion aufgeräumt werden, unter den multinationalen Konzernen gäbe es noch ``nationale'' Unternehmen, die in besonderer Weise den Arbeitnehmern, Steuerzahlern oder sonst irgendwem in ``ihrem'' Land verpflichtet wären.
'1	Es	_	_	_
'2	muß	_	_	_
'3	mit	_	_	_
'4	der	_	_	_
'5	Illusion	_	_	_
'6	aufgeräumt	_	_	VERB
'7	werden	nsp	_	_
'8	,	_	_	_
'9	unter	_	_	_
'10	den	_	_	_
'11	multinationalen	_	_	_
'12	Konzernen	_	_	_
'13	gäbe	_	_	VERB
'14	es	_	_	_
'15	noch	_	_	_
'16	``	nsp	_	_
'17	nationale	nsp	_	_
'18	''	_	_	_
'19	Unternehmen	nsp	_	_
'20	,	_	_	_
'21	die	_	_	_
'22	in	_	_	_
'23	besonderer	_	_	_
'24	Weise	_	_	_
'25	den	_	_	_
'26	Arbeitnehmern	nsp	_	_
'27	,	_	_	_
'28	Steuerzahlern	_	_	_
'29	oder	_	_	_
'30	sonst	_	_	_
'31	irgendwem	_	_	_
'32	in	_	_	_
'33	``	nsp	_	_
'34	ihrem	nsp	_	_
'35	''	_	_	_
'36	Land	_	_	_
'37	verpflichtet	_	_	_
'38	wären	nsp	_	VERB
'39	.	_	_	_

# source_sent_id = . . train-s2052
# text = Die Arbeitgeberverbände reagieren mit Empörung auf den, wie sie es nennen ``, Rückfall in die schlechten Zeiten'' gewerkschaftlicher Großstreiks.
'1	Die	_	_	_
'2	Arbeitgeberverbände	_	_	_
'3	reagieren	_	_	VERB
'4	mit	_	_	_
'5	Empörung	_	_	_
'6	auf	_	_	_
'7	den	nsp	_	_
'8	,	_	_	_
'9	wie	_	_	_
'10	sie	_	_	_
'11	es	_	_	_
'12	nennen	_	_	VERB
'13	``	nsp	_	_
'14	,	_	_	_
'15	Rückfall	_	_	_
'16	in	_	_	_
'17	die	_	_	_
'18	schlechten	_	_	_
'19	Zeiten	nsp	_	_
'20	''	_	_	_
'21	gewerkschaftlicher	_	_	_
'22	Großstreiks	nsp	_	_
'23	.	_	_	_

# source_sent_id = . . train-s2053
# text = Wir dürfen niemals vergessen, daß nach dem gleichen Maß, mit dem wir die Angeklagten heute messen, auch wir morgen von der Geschichte gemessen werden.
'1	Wir	_	_	_
'2	dürfen	_	_	_
'3	niemals	_	_	_
'4	vergessen	nsp	_	VERB
'5	,	_	_	_
'6	daß	_	_	_
'7	nach	_	_	_
'8	dem	_	_	_
'9	gleichen	_	_	_
'10	Maß	nsp	_	_
'11	,	_	_	_
'12	mit	_	_	_
'13	dem	_	_	_
'14	wir	_	_	_
'15	die	_	_	_
'16	Angeklagten	_	_	_
'17	heute	_	_	_
'18	messen	nsp	_	VERB
'19	,	_	_	_
'20	auch	_	_	_
'21	wir	_	_	_
'22	morgen	_	_	_
'23	von	_	_	_
'24	der	_	_	_
'25	Geschichte	_	_	_
'26	gemessen	_	_	VERB
'27	werden	nsp	_	_
'28	.	_	_	_

# source_sent_id = . . train-s2054
# text = Die lokale Nähe von Universität und Wirtschaft ist sehr wichtig,'' betont Stanford -- Vizedekan George Parker ``, leider machen sich viele unserer besten Dozenten irgendwann selbständig''.
'1	Die	_	_	_
'2	lokale	_	_	_
'3	Nähe	_	_	_
'4	von	_	_	_
'5	Universität	_	_	_
'6	und	_	_	_
'7	Wirtschaft	_	_	_
'8	ist	_	_	VERB
'9	sehr	_	_	_
'10	wichtig	nsp	_	_
'11	,	nsp	_	_
'12	''	_	_	_
'13	betont	_	_	VERB
'14	Stanford	_	_	_
'15	--	_	_	_
'16	Vizedekan	_	_	_
'17	George	_	_	_
'18	Parker	_	_	_
'19	``	nsp	_	_
'20	,	_	_	_
'21	leider	_	_	_
'22	machen	_	_	VERB
'23	sich	_	_	_
'24	viele	_	_	_
'25	unserer	_	_	_
'26	besten	_	_	_
'27	Dozenten	_	_	_
'28	irgendwann	_	_	_
'29	selbständig	nsp	_	_
'30	''	nsp	_	_
'31	.	_	_	_

# source_sent_id = . . train-s2055
# text = Wir wollten die von der Opposition beantragte Anhörung sowieso nicht.
'1	Wir	_	_	_
'2	wollten	_	_	VERB
'3	die	_	_	_
'4	von	_	_	_
'5	der	_	_	_
'6	Opposition	_	_	_
'7	beantragte	_	_	_
'8	Anhörung	_	_	_
'9	sowieso	_	_	_
'10	nicht	nsp	_	_
'11	.	_	_	_

# source_sent_id = . . train-s2056
# text = Der Professor für Raumplanung verwies auf die Schwierigkeiten des Eurotunnels zwischen Frankreich und England.
'1	Der	_	_	_
'2	Professor	_	_	_
'3	für	_	_	_
'4	Raumplanung	_	_	_
'5	verwies	_	_	VERB
'6	auf	_	_	_
'7	die	_	_	_
'8	Schwierigkeiten	_	_	_
'9	des	_	_	_
'10	Eurotunnels	_	_	_
'11	zwischen	_	_	_
'12	Frankreich	_	_	_
'13	und	_	_	_
'14	England	nsp	_	_
'15	.	_	_	_

# source_sent_id = . . train-s2057
# text = Die Länder repräsentieren den größten Wirtschaftsraum der Erde.
'1	Die	_	_	_
'2	Länder	_	_	_
'3	repräsentieren	_	_	VERB
'4	den	_	_	_
'5	größten	_	_	_
'6	Wirtschaftsraum	_	_	_
'7	der	_	_	_
'8	Erde	nsp	_	_
'9	.	_	_	_

# source_sent_id = . . train-s2058
# text = Präsident Bill Clinton hatte den Liberalisierungsprozeß vor zwei Jahren initiiert, um den U.S. -- Konzerne neue Märkte zu erschließen.
'1	Präsident	_	_	_
'2	Bill	_	_	_
'3	Clinton	_	_	_
'4	hatte	_	_	_
'5	den	_	_	_
'6	Liberalisierungsprozeß	_	_	_
'7	vor	_	_	_
'8	zwei	_	_	_
'9	Jahren	_	_	_
'10	initiiert	nsp	_	VERB
'11	,	_	_	_
'12	um	_	_	_
'13	den	_	_	_
'14	U.S.	_	_	_
'15	--	_	_	_
'16	Konzerne	_	_	_
'17	neue	_	_	_
'18	Märkte	_	_	_
'19	zu	_	_	_
'20	erschließen	nsp	_	VERB
'21	.	_	_	_

# source_sent_id = . . train-s2059
# text = beim Parteitag in Dillingen erhielt Müller 398 von 422 Stimmen.
'1-2	beim	_	_	_
'1	Bei	_	_	_
'2	dem	_	_	_
'3	Parteitag	_	_	_
'4	in	_	_	_
'5	Dillingen	_	_	_
'6	erhielt	_	_	VERB
'7	Müller	_	_	_
'8	398	_	_	_
'9	von	_	_	_
'10	422	_	_	_
'11	Stimmen	nsp	_	_
'12	.	_	_	_

# source_sent_id = . . train-s2060
# text = Die Bundesregierung halte auch weiter an ihrer Forderung fest, mit 30 Prozent von der Herstellung des ``Eurofighters'' zu profitieren.
'1	Die	_	_	_
'2	Bundesregierung	_	_	_
'3	halte	_	_	VERB
'4	auch	_	_	_
'5	weiter	_	_	_
'6	an	_	_	_
'7	ihrer	_	_	_
'8	Forderung	_	_	_
'9	fest	nsp	_	_
'10	,	_	_	_
'11	mit	_	_	_
'12	30	_	_	_
'13	Prozent	_	_	_
'14	von	_	_	_
'15	der	_	_	_
'16	Herstellung	_	_	_
'17	des	_	_	_
'18	``	nsp	_	_
'19	Eurofighters	nsp	_	_
'20	''	_	_	_
'21	zu	_	_	_
'22	profitieren	nsp	_	VERB
'23	.	_	_	_

# source_sent_id = . . train-s2061
# text = Das Verhältnis zum Fraktionsmanager Peter Struck wird als reibungslos geschildert.
'1	Das	_	_	_
'2	Verhältnis	_	_	_
'3-4	zum	_	_	_
'3	zu	_	_	_
'4	dem	_	_	_
'5	Fraktionsmanager	_	_	_
'6	Peter	_	_	_
'7	Struck	_	_	_
'8	wird	_	_	_
'9	als	_	_	_
'10	reibungslos	_	_	_
'11	geschildert	nsp	_	VERB
'12	.	_	_	_

# source_sent_id = . . train-s2062
# text = Das Männerpaar trägt petrolgrüne, seidenschimmernde Anzüge.
'1	Das	_	_	_
'2	Männerpaar	_	_	_
'3	trägt	_	_	VERB
'4	petrolgrüne	nsp	_	_
'5	,	_	_	_
'6	seidenschimmernde	_	_	_
'7	Anzüge	nsp	_	_
'8	.	_	_	_

# source_sent_id = . . train-s2063
# text = Die Microsoft -- Aktie sank daraufhin an der Wall Street um über vier Dollar auf 89,87 Dollar.
'1	Die	_	_	_
'2	Microsoft	_	_	_
'3	--	_	_	_
'4	Aktie	_	_	_
'5	sank	_	_	VERB
'6	daraufhin	_	_	_
'7	an	_	_	_
'8	der	_	_	_
'9	Wall	_	_	_
'10	Street	_	_	_
'11	um	_	_	_
'12	über	_	_	_
'13	vier	_	_	_
'14	Dollar	_	_	_
'15	auf	_	_	_
'16	89,87	_	_	_
'17	Dollar	nsp	_	_
'18	.	_	_	_

# source_sent_id = . . train-s2064
# text = 60 Personen wurden verletzt, der Botschafter kam mit dem Schrecken davon.
'1	60	_	_	_
'2	Personen	_	_	_
'3	wurden	_	_	_
'4	verletzt	nsp	_	VERB
'5	,	_	_	_
'6	der	_	_	_
'7	Botschafter	_	_	_
'8	kam	_	_	VERB
'9	mit	_	_	_
'10	dem	_	_	_
'11	Schrecken	_	_	_
'12	davon	nsp	_	_
'13	.	_	_	_

# source_sent_id = . . train-s2065
# text = Ob in Miami, Sydney oder Tokio -- weihnachtlicher Schmuck aus Lauscha ist wieder rund um den Globus präsent.
'1	Ob	_	_	_
'2	in	_	_	_
'3	Miami	nsp	_	_
'4	,	_	_	_
'5	Sydney	_	_	_
'6	oder	_	_	_
'7	Tokio	_	_	_
'8	--	_	_	_
'9	weihnachtlicher	_	_	_
'10	Schmuck	_	_	_
'11	aus	_	_	_
'12	Lauscha	_	_	_
'13	ist	_	_	VERB
'14	wieder	_	_	_
'15	rund	_	_	_
'16	um	_	_	_
'17	den	_	_	_
'18	Globus	_	_	_
'19	präsent	nsp	_	_
'20	.	_	_	_

# source_sent_id = . . train-s2066
# text = Ich erwarte von einer unverwässerten Reform einen deutlichen Wachstumsschub,'' erklärte Rexrodt.
'1	Ich	_	_	_
'2	erwarte	_	_	VERB
'3	von	_	_	_
'4	einer	_	_	_
'5	unverwässerten	_	_	_
'6	Reform	_	_	_
'7	einen	_	_	_
'8	deutlichen	_	_	_
'9	Wachstumsschub	nsp	_	_
'10	,	nsp	_	_
'11	''	_	_	_
'12	erklärte	_	_	VERB
'13	Rexrodt	nsp	_	_
'14	.	_	_	_

# source_sent_id = . . train-s2067
# text = Tag später kündigte die MG das geplante Engagement mit Verweis auf den ``bisherigen Stand'' der Untersuchung auf.
'1	Tag	_	_	_
'2	später	_	_	_
'3	kündigte	_	_	VERB
'4	die	_	_	_
'5	MG	_	_	_
'6	das	_	_	_
'7	geplante	_	_	_
'8	Engagement	_	_	_
'9	mit	_	_	_
'10	Verweis	_	_	_
'11	auf	_	_	_
'12	den	_	_	_
'13	``	nsp	_	_
'14	bisherigen	_	_	_
'15	Stand	nsp	_	_
'16	''	_	_	_
'17	der	_	_	_
'18	Untersuchung	_	_	_
'19	auf	nsp	_	_
'20	.	_	_	_

# source_sent_id = . . train-s2068
# text = Mit Warnstreiks haben Arbeiter des französischen Autokonzerns Renault in verschiedenen europäischen Werken gegen die geplante Schließung des belgischen Standortes Vilvoorde demonstriert.
'1	Mit	_	_	_
'2	Warnstreiks	_	_	_
'3	haben	_	_	_
'4	Arbeiter	_	_	_
'5	des	_	_	_
'6	französischen	_	_	_
'7	Autokonzerns	_	_	_
'8	Renault	_	_	_
'9	in	_	_	_
'10	verschiedenen	_	_	_
'11	europäischen	_	_	_
'12	Werken	_	_	_
'13	gegen	_	_	_
'14	die	_	_	_
'15	geplante	_	_	_
'16	Schließung	_	_	_
'17	des	_	_	_
'18	belgischen	_	_	_
'19	Standortes	_	_	_
'20	Vilvoorde	_	_	_
'21	demonstriert	nsp	_	VERB
'22	.	_	_	_

# source_sent_id = . . train-s2069
# text = Auf ihrem langen Weg des Zusammenwachsens hat die Gemeinschaft gelernt, auch größere Stolpersteine beiseite zu räumen.
'1	Auf	_	_	_
'2	ihrem	_	_	_
'3	langen	_	_	_
'4	Weg	_	_	_
'5	des	_	_	_
'6	Zusammenwachsens	_	_	_
'7	hat	_	_	_
'8	die	_	_	_
'9	Gemeinschaft	_	_	_
'10	gelernt	nsp	_	VERB
'11	,	_	_	_
'12	auch	_	_	_
'13	größere	_	_	_
'14	Stolpersteine	_	_	_
'15	beiseite	_	_	_
'16	zu	_	_	_
'17	räumen	nsp	_	VERB
'18	.	_	_	_

# source_sent_id = . . train-s2070
# text = Der angestrebte Abbau der Getreideüberschüsse innerhalb der Europäischen Union durch eine Flächenstillegung von 30 Prozent könnte somit auch durch eine Umstellung der gesamten Flächen auf ökologischen Anbau erzielt werden.
'1	Der	_	_	_
'2	angestrebte	_	_	_
'3	Abbau	_	_	_
'4	der	_	_	_
'5	Getreideüberschüsse	_	_	_
'6	innerhalb	_	_	_
'7	der	_	_	_
'8	Europäischen	_	_	_
'9	Union	_	_	_
'10	durch	_	_	_
'11	eine	_	_	_
'12	Flächenstillegung	_	_	_
'13	von	_	_	_
'14	30	_	_	_
'15	Prozent	_	_	_
'16	könnte	_	_	_
'17	somit	_	_	_
'18	auch	_	_	_
'19	durch	_	_	_
'20	eine	_	_	_
'21	Umstellung	_	_	_
'22	der	_	_	_
'23	gesamten	_	_	_
'24	Flächen	_	_	_
'25	auf	_	_	_
'26	ökologischen	_	_	_
'27	Anbau	_	_	_
'28	erzielt	_	_	VERB
'29	werden	nsp	_	_
'30	.	_	_	_

# source_sent_id = . . train-s2071
# text = Das Bundeskartellamt hat erwartungsmäß beantragt, die Prüfung von Brüssel in die Bundeshauptstadt zu verweisen.
'1	Das	_	_	_
'2	Bundeskartellamt	_	_	_
'3	hat	_	_	_
'4	erwartungsmäß	_	_	_
'5	beantragt	nsp	_	VERB
'6	,	_	_	_
'7	die	_	_	_
'8	Prüfung	_	_	_
'9	von	_	_	_
'10	Brüssel	_	_	_
'11	in	_	_	_
'12	die	_	_	_
'13	Bundeshauptstadt	_	_	_
'14	zu	_	_	_
'15	verweisen	nsp	_	VERB
'16	.	_	_	_
