# source_sent_id = . . autogen--data.parsemetsv--834
# text = رفیق اگیلوی که یک ساعت پیش وجود نداشت , الان یک واقعیت بود .
'1	رفیق	_	_	_
'2	اگیلوی	_	_	_
'3	که	_	_	_
'4	یک	_	_	_
'5	ساعت	_	_	_
'6	پیش	_	_	_
'7	وجود	_	_	_
'8	نداشت	_	_	VERB
'9	,	_	_	_
'10	الان	_	_	_
'11	یک	_	_	_
'12	واقعیت	_	_	_
'13	بود	_	_	VERB
'14	.	_	_	_

# source_sent_id = . . autogen--data.parsemetsv--835
# text = برای ش خیلی عجیب بود که چه راحت می‌شد انسان‌های مرده , نه انسان‌های زنده , را به وجود آورد .
'1	برای	_	_	_
'2	ش	_	_	_
'3	خیلی	_	_	_
'4	عجیب	_	_	_
'5	بود	_	_	VERB
'6	که	_	_	_
'7	چه	_	_	_
'8	راحت	_	_	_
'9	می‌شد	_	_	VERB
'10	انسان‌های	_	_	_
'11	مرده	_	_	_
'12	,	_	_	_
'13	نه	_	_	_
'14	انسان‌های	_	_	_
'15	زنده	_	_	_
'16	,	_	_	_
'17	را	_	_	_
'18	به	_	_	_
'19	وجود	_	_	_
'20	آورد	_	_	VERB
'21	.	_	_	_

# source_sent_id = . . autogen--data.parsemetsv--836
# text = رفیق اگیلوی که هرگز در زمان حال وجود نداشت , اکنون در گذشته وجود داشت و در آینده هنگامی‌که موضوع جعل و دستکاری به فراموشی سپرده می‌شد , می‌شد گفت طبق همان شواهدی که شارلمانی یا ژولیوس سزار وجود داشته اند , او نیز مسلما وجود داشته است .
'1	رفیق	_	_	_
'2	اگیلوی	_	_	_
'3	که	_	_	_
'4	هرگز	_	_	_
'5	در	_	_	_
'6	زمان	_	_	_
'7	حال	_	_	_
'8	وجود	_	_	_
'9	نداشت	_	_	VERB
'10	,	_	_	_
'11	اکنون	_	_	_
'12	در	_	_	_
'13	گذشته	_	_	_
'14	وجود	_	_	_
'15	داشت	_	_	VERB
'16	و	_	_	_
'17	در	_	_	_
'18	آینده	_	_	_
'19	هنگامی‌که	_	_	_
'20	موضوع	_	_	_
'21	جعل	_	_	_
'22	و	_	_	_
'23	دستکاری	_	_	_
'24	به	_	_	_
'25	فراموشی	_	_	_
'26	سپرده	_	_	VERB
'27	می‌شد	_	_	_
'28	,	_	_	_
'29	می‌شد	_	_	VERB
'30	گفت	_	_	VERB
'31	طبق	_	_	_
'32	همان	_	_	_
'33	شواهدی	_	_	_
'34	که	_	_	_
'35	شارلمانی	_	_	_
'36	یا	_	_	_
'37	ژولیوس	_	_	_
'38	سزار	_	_	_
'39	وجود	_	_	_
'40	داشته	_	_	VERB
'41	اند	_	_	_
'42	,	_	_	_
'43	او	_	_	_
'44	نیز	_	_	_
'45	مسلما	_	_	_
'46	وجود	_	_	_
'47	داشته	_	_	VERB
'48	است	_	_	_
'49	.	_	_	_

# source_sent_id = . . autogen--data.parsemetsv--837
# text = در سالن غذاخوری که چند طبقه پایین‌تر از سطح زمین بود و سقفی کوتاه داشت ، صف کارمندان به آهستگی جلو می‌رفت .
'1	در	_	_	_
'2	سالن	_	_	_
'3	غذاخوری	_	_	_
'4	که	_	_	_
'5	چند	_	_	_
'6	طبقه	_	_	_
'7	پایین‌تر	_	_	_
'8	از	_	_	_
'9	سطح	_	_	_
'10	زمین	_	_	_
'11	بود	_	_	VERB
'12	و	_	_	_
'13	سقفی	_	_	_
'14	کوتاه	_	_	_
'15	داشت	_	_	VERB
'16	،	_	_	_
'17	صف	_	_	_
'18	کارمندان	_	_	_
'19	به	_	_	_
'20	آهستگی	_	_	_
'21	جلو	_	_	_
'22	می‌رفت	_	_	VERB
'23	.	_	_	_

# source_sent_id = . . autogen--data.parsemetsv--838
# text = سروصدای جمعیت زیادی که در سالن بودند کرکننده بود .
'1	سروصدای	_	_	_
'2	جمعیت	_	_	_
'3	زیادی	_	_	_
'4	که	_	_	_
'5	در	_	_	_
'6	سالن	_	_	_
'7	بودند	_	_	VERB
'8	کرکننده	_	_	_
'9	بود	_	_	VERB
'10	.	_	_	_

# source_sent_id = . . autogen--data.parsemetsv--839
# text = از اجاقی که نزدیک پیشخوان بود بخار خوراک آب‌پز همراه‌با بوی ترش نامطبوعی بیرون می‌زد که نمی‌توانست بوی مشروب جین پیروزی را از بین ببرد .
'1	از	_	_	_
'2	اجاقی	_	_	_
'3	که	_	_	_
'4	نزدیک	_	_	_
'5	پیشخوان	_	_	_
'6	بود	_	_	VERB
'7	بخار	_	_	_
'8	خوراک	_	_	_
'9	آب‌پز	_	_	_
'10	همراه‌با	_	_	_
'11	بوی	_	_	_
'12	ترش	_	_	_
'13	نامطبوعی	_	_	_
'14	بیرون	_	_	_
'15	می‌زد	_	_	VERB
'16	که	_	_	_
'17	نمی‌توانست	_	_	VERB
'18	بوی	_	_	_
'19	مشروب	_	_	_
'20	جین	_	_	_
'21	پیروزی	_	_	_
'22	را	_	_	_
'23	از	_	_	_
'24	بین	_	_	_
'25	ببرد	_	_	VERB
'26	.	_	_	_

# source_sent_id = . . autogen--data.parsemetsv--840
# text = در آن‌سوی سالن یک بار کوچک ، به صورت حفره‌ای در دیوار بود که هر گیلاس بزرگ جین را به ده سنت می‌فروختند .
'1	در	_	_	_
'2	آن‌سوی	_	_	_
'3	سالن	_	_	_
'4	یک	_	_	_
'5	بار	_	_	_
'6	کوچک	_	_	_
'7	،	_	_	_
'8	به	_	_	_
'9	صورت	_	_	_
'10	حفره‌ای	_	_	_
'11	در	_	_	_
'12	دیوار	_	_	_
'13	بود	_	_	VERB
'14	که	_	_	_
'15	هر	_	_	_
'16	گیلاس	_	_	_
'17	بزرگ	_	_	_
'18	جین	_	_	_
'19	را	_	_	_
'20	به	_	_	_
'21	ده	_	_	_
'22	سنت	_	_	_
'23	می‌فروختند	_	_	VERB
'24	.	_	_	_

# source_sent_id = . . autogen--data.parsemetsv--841
# text = یک نفر پشت‌سر وینستون گفت : « همان کسی که دنبال ش می‌گشتم » .
'1	یک	_	_	_
'2	نفر	_	_	_
'3	پشت‌سر	_	_	_
'4	وینستون	_	_	_
'5	گفت	_	_	VERB
'6	:	_	_	_
'7	«	_	_	_
'8	همان	_	_	_
'9	کسی	_	_	_
'10	که	_	_	_
'11	دنبال	_	_	_
'12	ش	_	_	_
'13	می‌گشتم	_	_	VERB
'14	»	_	_	_
'15	.	_	_	_

# source_sent_id = . . autogen--data.parsemetsv--842
# text = وینستون برگشت .
'1	وینستون	_	_	_
'2	برگشت	_	_	VERB
'3	.	_	_	_

# source_sent_id = . . autogen--data.parsemetsv--843
# text = دوست ش سایم بود که در بخش تحقیقات کار می‌کرد .
'1	دوست	_	_	_
'2	ش	_	_	_
'3	سایم	_	_	_
'4	بود	_	_	VERB
'5	که	_	_	_
'6	در	_	_	_
'7	بخش	_	_	_
'8	تحقیقات	_	_	_
'9	کار	_	_	_
'10	می‌کرد	_	_	VERB
'11	.	_	_	_

# source_sent_id = . . autogen--data.parsemetsv--844
# text = البته « دوست » زیاد هم کلمه مناسبی نبود .
'1	البته	_	_	_
'2	«	_	_	_
'3	دوست	_	_	_
'4	»	_	_	_
'5	زیاد	_	_	_
'6	هم	_	_	_
'7	کلمه	_	_	_
'8	مناسبی	_	_	_
'9	نبود	_	_	VERB
'10	.	_	_	_

# source_sent_id = . . autogen--data.parsemetsv--845
# text = این روزها دیگر کسی دوست نداشت ، همه رفیق داشتند ؛ ولی بعضی از رفقا از بعضی دیگر خوشایندتر بودند .
'1	این	_	_	_
'2	روزها	_	_	_
'3	دیگر	_	_	_
'4	کسی	_	_	_
'5	دوست	_	_	_
'6	نداشت	_	_	VERB
'7	،	_	_	_
'8	همه	_	_	_
'9	رفیق	_	_	_
'10	داشتند	_	_	VERB
'11	؛	_	_	_
'12	ولی	_	_	_
'13	بعضی	_	_	_
'14	از	_	_	_
'15	رفقا	_	_	_
'16	از	_	_	_
'17	بعضی	_	_	_
'18	دیگر	_	_	_
'19	خوشایندتر	_	_	_
'20	بودند	_	_	VERB
'21	.	_	_	_

# source_sent_id = . . autogen--data.parsemetsv--846
# text = سایم لغت‌شناس و متخصص زبان نوین بود .
'1	سایم	_	_	_
'2	لغت‌شناس	_	_	_
'3	و	_	_	_
'4	متخصص	_	_	_
'5	زبان	_	_	_
'6	نوین	_	_	_
'7	بود	_	_	VERB
'8	.	_	_	_

# source_sent_id = . . autogen--data.parsemetsv--847
# text = در واقع او یکی از متخصصان تیم بزرگی بود که برای تدوین یازدهمین چاپ فرهنگ لغت زبان نوین بسیج شده بودند .
'1	در	_	_	_
'2	واقع	_	_	_
'3	او	_	_	_
'4	یکی	_	_	_
'5	از	_	_	_
'6	متخصصان	_	_	_
'7	تیم	_	_	_
'8	بزرگی	_	_	_
'9	بود	_	_	VERB
'10	که	_	_	_
'11	برای	_	_	_
'12	تدوین	_	_	_
'13	یازدهمین	_	_	_
'14	چاپ	_	_	_
'15	فرهنگ	_	_	_
'16	لغت	_	_	_
'17	زبان	_	_	_
'18	نوین	_	_	_
'19	بسیج	_	_	_
'20	شده	_	_	VERB
'21	بودند	_	_	_
'22	.	_	_	_

# source_sent_id = . . autogen--data.parsemetsv--848
# text = موجودی لاغر و ریزنقش‌تر از وینستون بود ، موهایی تیره و چشمانی متورم و درشت داشت که آکنده از اندوه و تمسخرآمیز بودند و به نظر می‌رسید هنگام صحبت چهره مخاطب را می‌کاود .
'1	موجودی	_	_	_
'2	لاغر	_	_	_
'3	و	_	_	_
'4	ریزنقش‌تر	_	_	_
'5	از	_	_	_
'6	وینستون	_	_	_
'7	بود	_	_	VERB
'8	،	_	_	_
'9	موهایی	_	_	_
'10	تیره	_	_	_
'11	و	_	_	_
'12	چشمانی	_	_	_
'13	متورم	_	_	_
'14	و	_	_	_
'15	درشت	_	_	_
'16	داشت	_	_	VERB
'17	که	_	_	_
'18	آکنده	_	_	_
'19	از	_	_	_
'20	اندوه	_	_	_
'21	و	_	_	_
'22	تمسخرآمیز	_	_	_
'23	بودند	_	_	VERB
'24	و	_	_	_
'25	به	_	_	_
'26	نظر	_	_	_
'27	می‌رسید	_	_	VERB
'28	هنگام	_	_	_
'29	صحبت	_	_	_
'30	چهره	_	_	_
'31	مخاطب	_	_	_
'32	را	_	_	_
'33	می‌کاود	_	_	VERB
'34	.	_	_	_

# source_sent_id = . . autogen--data.parsemetsv--849
# text = به او گفت : « می‌خواستم بپرسم که تیغ ریش‌تراش داری ؟ »
'1	به	_	_	_
'2	او	_	_	_
'3	گفت	_	_	VERB
'4	:	_	_	_
'5	«	_	_	_
'6	می‌خواستم	_	_	VERB
'7	بپرسم	_	_	VERB
'8	که	_	_	_
'9	تیغ	_	_	_
'10	ریش‌تراش	_	_	_
'11	داری	_	_	VERB
'12	؟	_	_	_
'13	»	_	_	_

# source_sent_id = . . autogen--data.parsemetsv--850
# text = وینستون با نوعی عجله حاکی از گناهکاری گفت : « نه ، حتی یکی !
'1	وینستون	_	_	_
'2	با	_	_	_
'3	نوعی	_	_	_
'4	عجله	_	_	_
'5	حاکی	_	_	_
'6	از	_	_	_
'7	گناهکاری	_	_	_
'8	گفت	_	_	VERB
'9	:	_	_	_
'10	«	_	_	_
'11	نه	_	_	_
'12	،	_	_	_
'13	حتی	_	_	_
'14	یکی	_	_	_
'15	!	_	_	_

# source_sent_id = . . autogen--data.parsemetsv--851
# text = همه جا را گشته ام .
'1	همه	_	_	_
'2	جا	_	_	_
'3	را	_	_	_
'4	گشته	_	_	VERB
'5	ام	_	_	_
'6	.	_	_	_

# source_sent_id = . . autogen--data.parsemetsv--852
# text = ولی حتی یک دانه هم پیدا نکردم . »
'1	ولی	_	_	_
'2	حتی	_	_	_
'3	یک	_	_	_
'4	دانه	_	_	_
'5	هم	_	_	_
'6	پیدا	_	_	_
'7	نکردم	_	_	VERB
'8	.	_	_	_
'9	»	_	_	_

# source_sent_id = . . autogen--data.parsemetsv--853
# text = همه از آدم تقاضای تیغ ریش‌تراشی می‌کردند .
'1	همه	_	_	_
'2	از	_	_	_
'3	آدم	_	_	_
'4	تقاضای	_	_	_
'5	تیغ	_	_	_
'6	ریش‌تراشی	_	_	_
'7	می‌کردند	_	_	VERB
'8	.	_	_	_

# source_sent_id = . . autogen--data.parsemetsv--854
# text = وینستون در واقع هنوز دو تا تیغ نو داشت که برای روز مبادا نگه داشته بود .
'1	وینستون	_	_	_
'2	در	_	_	_
'3	واقع	_	_	_
'4	هنوز	_	_	_
'5	دو	_	_	_
'6	تا	_	_	_
'7	تیغ	_	_	_
'8	نو	_	_	_
'9	داشت	_	_	VERB
'10	که	_	_	_
'11	برای	_	_	_
'12	روز	_	_	_
'13	مبادا	_	_	_
'14	نگه	_	_	_
'15	داشته	_	_	VERB
'16	بود	_	_	_
'17	.	_	_	_

# source_sent_id = . . autogen--data.parsemetsv--855
# text = در ماه‌های گذشته با کمبود تیغ مواجه شده بودند .
'1	در	_	_	_
'2	ماه‌های	_	_	_
'3	گذشته	_	_	_
'4	با	_	_	_
'5	کمبود	_	_	_
'6	تیغ	_	_	_
'7	مواجه	_	_	_
'8	شده	_	_	VERB
'9	بودند	_	_	_
'10	.	_	_	_

# source_sent_id = . . autogen--data.parsemetsv--856
# text = هروقت به فروشگاه‌های حزب می‌رفتی بعضی از اجناس ضروری را نداشتند .
'1	هروقت	_	_	_
'2	به	_	_	_
'3	فروشگاه‌های	_	_	_
'4	حزب	_	_	_
'5	می‌رفتی	_	_	VERB
'6	بعضی	_	_	_
'7	از	_	_	_
'8	اجناس	_	_	_
'9	ضروری	_	_	_
'10	را	_	_	_
'11	نداشتند	_	_	VERB
'12	.	_	_	_

# source_sent_id = . . autogen--data.parsemetsv--857
# text = گاهی ، دکمه ، گاهی نخ رفو ، گاهی بند کفش و درحال‌حاضر هم تیغ نداشتند .
'1	گاهی	_	_	_
'2	،	_	_	_
'3	دکمه	_	_	_
'4	،	_	_	_
'5	گاهی	_	_	_
'6	نخ	_	_	_
'7	رفو	_	_	_
'8	،	_	_	_
'9	گاهی	_	_	_
'10	بند	_	_	_
'11	کفش	_	_	_
'12	و	_	_	_
'13	درحال‌حاضر	_	_	_
'14	هم	_	_	_
'15	تیغ	_	_	_
'16	نداشتند	_	_	VERB
'17	.	_	_	_

# source_sent_id = . . autogen--data.parsemetsv--858
# text = اما در بازار سیاه ، آن هم با زحمت بسیار می‌شد آنها را تهیه کرد .
'1	اما	_	_	_
'2	در	_	_	_
'3	بازار	_	_	_
'4	سیاه	_	_	_
'5	،	_	_	_
'6	آن	_	_	_
'7	هم	_	_	_
'8	با	_	_	_
'9	زحمت	_	_	_
'10	بسیار	_	_	_
'11	می‌شد	_	_	VERB
'12	آنها	_	_	_
'13	را	_	_	_
'14	تهیه	_	_	_
'15	کرد	_	_	VERB
'16	.	_	_	_

# source_sent_id = . . autogen--data.parsemetsv--859
# text = باز به دروغ اضافه کرد : « شش هفته است که از یک تیغ استفاده می‌کنم . »
'1	باز	_	_	_
'2	به	_	_	_
'3	دروغ	_	_	_
'4	اضافه	_	_	_
'5	کرد	_	_	VERB
'6	:	_	_	_
'7	«	_	_	_
'8	شش	_	_	_
'9	هفته	_	_	_
'10	است	_	_	VERB
'11	که	_	_	_
'12	از	_	_	_
'13	یک	_	_	_
'14	تیغ	_	_	_
'15	استفاده	_	_	_
'16	می‌کنم	_	_	VERB
'17	.	_	_	_
'18	»	_	_	_

# source_sent_id = . . autogen--data.parsemetsv--860
# text = صف کمی جلوتر رفت .
'1	صف	_	_	_
'2	کمی	_	_	_
'3	جلوتر	_	_	_
'4	رفت	_	_	VERB
'5	.	_	_	_

# source_sent_id = . . autogen--data.parsemetsv--861
# text = وقتی متوقف شدند برگشت و دوباره با سایم رودررو شد .
'1	وقتی	_	_	_
'2	متوقف	_	_	_
'3	شدند	_	_	VERB
'4	برگشت	_	_	VERB
'5	و	_	_	_
'6	دوباره	_	_	_
'7	با	_	_	_
'8	سایم	_	_	_
'9	رودررو	_	_	_
'10	شد	_	_	VERB
'11	.	_	_	_

# source_sent_id = . . autogen--data.parsemetsv--862
# text = هرکدام یک سینی فلزی چرب از لبه پیشخوان برداشتند .
'1	هرکدام	_	_	_
'2	یک	_	_	_
'3	سینی	_	_	_
'4	فلزی	_	_	_
'5	چرب	_	_	_
'6	از	_	_	_
'7	لبه	_	_	_
'8	پیشخوان	_	_	_
'9	برداشتند	_	_	VERB
'10	.	_	_	_

# source_sent_id = . . autogen--data.parsemetsv--863
# text = سایم گفت : « دیروز برای دیدن اعدام زندانی‌ها رفتی ؟ »
'1	سایم	_	_	_
'2	گفت	_	_	VERB
'3	:	_	_	_
'4	«	_	_	_
'5	دیروز	_	_	_
'6	برای	_	_	_
'7	دیدن	_	_	_
'8	اعدام	_	_	_
'9	زندانی‌ها	_	_	_
'10	رفتی	_	_	VERB
'11	؟	_	_	_
'12	»	_	_	_

# source_sent_id = . . autogen--data.parsemetsv--864
# text = وینستون با بی‌تفاوتی گفت : « سر کار بودم .
'1	وینستون	_	_	_
'2	با	_	_	_
'3	بی‌تفاوتی	_	_	_
'4	گفت	_	_	VERB
'5	:	_	_	_
'6	«	_	_	_
'7	سر	_	_	_
'8	کار	_	_	_
'9	بودم	_	_	VERB
'10	.	_	_	_

# source_sent_id = . . autogen--data.parsemetsv--865
# text = فکر کنم بعدا تو سینما ببینم ش . »
'1	فکر	_	_	_
'2	کنم	_	_	VERB
'3	بعدا	_	_	_
'4	تو	_	_	_
'5	سینما	_	_	_
'6	ببینم	_	_	VERB
'7	ش	_	_	_
'8	.	_	_	_
'9	»	_	_	_

# source_sent_id = . . autogen--data.parsemetsv--866
# text = سایم گفت : « دیدن صحنه زنده یک چیز دیگر است . »
'1	سایم	_	_	_
'2	گفت	_	_	VERB
'3	:	_	_	_
'4	«	_	_	_
'5	دیدن	_	_	_
'6	صحنه	_	_	_
'7	زنده	_	_	_
'8	یک	_	_	_
'9	چیز	_	_	_
'10	دیگر	_	_	_
'11	است	_	_	VERB
'12	.	_	_	_
'13	»	_	_	_

# source_sent_id = . . autogen--data.parsemetsv--867
# text = چشم‌های سایم به حالت تمسخرآمیزی صورت وینستون را برانداز کرد .
'1	چشم‌های	_	_	_
'2	سایم	_	_	_
'3	به	_	_	_
'4	حالت	_	_	_
'5	تمسخرآمیزی	_	_	_
'6	صورت	_	_	_
'7	وینستون	_	_	_
'8	را	_	_	_
'9	برانداز	_	_	_
'10	کرد	_	_	VERB
'11	.	_	_	_

# source_sent_id = . . autogen--data.parsemetsv--868
# text = به نظر می‌آمد با نگاه ش می‌گفت : « من تو را می‌شناسم .
'1	به	_	_	_
'2	نظر	_	_	_
'3	می‌آمد	_	_	VERB
'4	با	_	_	_
'5	نگاه	_	_	_
'6	ش	_	_	_
'7	می‌گفت	_	_	VERB
'8	:	_	_	_
'9	«	_	_	_
'10	من	_	_	_
'11	تو	_	_	_
'12	را	_	_	_
'13	می‌شناسم	_	_	VERB
'14	.	_	_	_

# source_sent_id = . . autogen--data.parsemetsv--869
# text = من درون تو را می‌بینم ، می‌دانم چرا به دیدن اعدام آن زندانی‌ها نرفتی . »
'1	من	_	_	_
'2	درون	_	_	_
'3	تو	_	_	_
'4	را	_	_	_
'5	می‌بینم	_	_	VERB
'6	،	_	_	_
'7	می‌دانم	_	_	VERB
'8	چرا	_	_	_
'9	به	_	_	_
'10	دیدن	_	_	_
'11	اعدام	_	_	_
'12	آن	_	_	_
'13	زندانی‌ها	_	_	_
'14	نرفتی	_	_	VERB
'15	.	_	_	_
'16	»	_	_	_

# source_sent_id = . . autogen--data.parsemetsv--870
# text = سایم با نوعی روشنفکری و تعصب کین‌توزانه به اعتقادات مرسوم پایبند بود .
'1	سایم	_	_	_
'2	با	_	_	_
'3	نوعی	_	_	_
'4	روشنفکری	_	_	_
'5	و	_	_	_
'6	تعصب	_	_	_
'7	کین‌توزانه	_	_	_
'8	به	_	_	_
'9	اعتقادات	_	_	_
'10	مرسوم	_	_	_
'11	پایبند	_	_	_
'12	بود	_	_	VERB
'13	.	_	_	_

# source_sent_id = . . autogen--data.parsemetsv--871
# text = با رضایتی غرورآمیز ولی ناخوشایند درباره حمله هلیکوپترها به دهکده‌های دشمن ، یا محاکمه مجرمان فکری و اعترافات آنها و یا اعدام‌هایی که در سرداب‌های وزارت عشق صورت می‌گرفت ، صحبت می‌کرد .
'1	با	_	_	_
'2	رضایتی	_	_	_
'3	غرورآمیز	_	_	_
'4	ولی	_	_	_
'5	ناخوشایند	_	_	_
'6	درباره	_	_	_
'7	حمله	_	_	_
'8	هلیکوپترها	_	_	_
'9	به	_	_	_
'10	دهکده‌های	_	_	_
'11	دشمن	_	_	_
'12	،	_	_	_
'13	یا	_	_	_
'14	محاکمه	_	_	_
'15	مجرمان	_	_	_
'16	فکری	_	_	_
'17	و	_	_	_
'18	اعترافات	_	_	_
'19	آنها	_	_	_
'20	و	_	_	_
'21	یا	_	_	_
'22	اعدام‌هایی	_	_	_
'23	که	_	_	_
'24	در	_	_	_
'25	سرداب‌های	_	_	_
'26	وزارت	_	_	_
'27	عشق	_	_	_
'28	صورت	_	_	_
'29	می‌گرفت	_	_	VERB
'30	،	_	_	_
'31	صحبت	_	_	_
'32	می‌کرد	_	_	VERB
'33	.	_	_	_

# source_sent_id = . . autogen--data.parsemetsv--872
# text = در صحبت‌کردن با او باید تلاش زیادی به خرج می‌دادی تا وادار ش کنی از چنین موضوع‌هایی دست بکشد و به ریزه‌کاری‌های زبان نوین بپردازد که هم در آن تبحر داشت و هم به آن علاقه‌مند بود .
'1	در	_	_	_
'2	صحبت‌کردن	_	_	_
'3	با	_	_	_
'4	او	_	_	_
'5	باید	_	_	VERB
'6	تلاش	_	_	_
'7	زیادی	_	_	_
'8	به	_	_	_
'9	خرج	_	_	_
'10	می‌دادی	_	_	VERB
'11	تا	_	_	_
'12	وادار	_	_	_
'13	ش	_	_	_
'14	کنی	_	_	VERB
'15	از	_	_	_
'16	چنین	_	_	_
'17	موضوع‌هایی	_	_	_
'18	دست	_	_	_
'19	بکشد	_	_	VERB
'20	و	_	_	_
'21	به	_	_	_
'22	ریزه‌کاری‌های	_	_	_
'23	زبان	_	_	_
'24	نوین	_	_	_
'25	بپردازد	_	_	VERB
'26	که	_	_	_
'27	هم	_	_	_
'28	در	_	_	_
'29	آن	_	_	_
'30	تبحر	_	_	_
'31	داشت	_	_	VERB
'32	و	_	_	_
'33	هم	_	_	_
'34	به	_	_	_
'35	آن	_	_	_
'36	علاقه‌مند	_	_	_
'37	بود	_	_	VERB
'38	.	_	_	_

# source_sent_id = . . autogen--data.parsemetsv--873
# text = وینستون سر ش را کمی به عقب کشید تا از شر کنجکاوی آن چشم‌های سیاه درشت در امان بماند .
'1	وینستون	_	_	_
'2	سر	_	_	_
'3	ش	_	_	_
'4	را	_	_	_
'5	کمی	_	_	_
'6	به	_	_	_
'7	عقب	_	_	_
'8	کشید	_	_	VERB
'9	تا	_	_	_
'10	از	_	_	_
'11	شر	_	_	_
'12	کنجکاوی	_	_	_
'13	آن	_	_	_
'14	چشم‌های	_	_	_
'15	سیاه	_	_	_
'16	درشت	_	_	_
'17	در	_	_	_
'18	امان	_	_	_
'19	بماند	_	_	VERB
'20	.	_	_	_

# source_sent_id = . . autogen--data.parsemetsv--874
# text = سایم با به‌یادآوردن صحنه گفت : « اعدام خوبی بود ، به نظر م حیف شد که پاهای آنها را به هم گره زده بودند .
'1	سایم	_	_	_
'2	با	_	_	_
'3	به‌یادآوردن	_	_	_
'4	صحنه	_	_	_
'5	گفت	_	_	VERB
'6	:	_	_	_
'7	«	_	_	_
'8	اعدام	_	_	_
'9	خوبی	_	_	_
'10	بود	_	_	VERB
'11	،	_	_	_
'12	به	_	_	_
'13	نظر	_	_	_
'14	م	_	_	_
'15	حیف	_	_	_
'16	شد	_	_	VERB
'17	که	_	_	_
'18	پاهای	_	_	_
'19	آنها	_	_	_
'20	را	_	_	_
'21	به	_	_	_
'22	هم	_	_	_
'23	گره	_	_	_
'24	زده	_	_	VERB
'25	بودند	_	_	_
'26	.	_	_	_

# source_sent_id = . . autogen--data.parsemetsv--875
# text = دل م می‌خواست تکان‌خوردن آنها را ببینم .
'1	دل	_	_	_
'2	م	_	_	_
'3	می‌خواست	_	_	VERB
'4	تکان‌خوردن	_	_	_
'5	آنها	_	_	_
'6	را	_	_	_
'7	ببینم	_	_	VERB
'8	.	_	_	_

# source_sent_id = . . autogen--data.parsemetsv--876
# text = از همه مهمتر زبان شان که بیرون می‌زند و رنگ ش حسابی کبود می‌شود .
'1	از	_	_	_
'2	همه	_	_	_
'3	مهمتر	_	_	_
'4	زبان	_	_	_
'5	شان	_	_	_
'6	که	_	_	_
'7	بیرون	_	_	_
'8	می‌زند	_	_	VERB
'9	و	_	_	_
'10	رنگ	_	_	_
'11	ش	_	_	_
'12	حسابی	_	_	_
'13	کبود	_	_	_
'14	می‌شود	_	_	VERB
'15	.	_	_	_

# source_sent_id = . . autogen--data.parsemetsv--877
# text = من این‌جوری دوست دارم ببینم . »
'1	من	_	_	_
'2	این‌جوری	_	_	_
'3	دوست	_	_	_
'4	دارم	_	_	VERB
'5	ببینم	_	_	VERB
'6	.	_	_	_
'7	»	_	_	_

# source_sent_id = . . autogen--data.parsemetsv--878
# text = کارگری که پیشبند سفید بسته بود و ملاقه‌ای در دست داشت ، گفت : « نفر بعدی ! »
'1	کارگری	_	_	_
'2	که	_	_	_
'3	پیشبند	_	_	_
'4	سفید	_	_	_
'5	بسته	_	_	VERB
'6	بود	_	_	_
'7	و	_	_	_
'8	ملاقه‌ای	_	_	_
'9	در	_	_	_
'10	دست	_	_	_
'11	داشت	_	_	VERB
'12	،	_	_	_
'13	گفت	_	_	VERB
'14	:	_	_	_
'15	«	_	_	_
'16	نفر	_	_	_
'17	بعدی	_	_	_
'18	!	_	_	_
'19	»	_	_	_

# source_sent_id = . . autogen--data.parsemetsv--879
# text = وینستون و سایم سینی‌ها یشان را به‌زیر نرده‌های فلزی روی پیشخوان هل دادند .
'1	وینستون	_	_	_
'2	و	_	_	_
'3	سایم	_	_	_
'4	سینی‌ها	_	_	_
'5	یشان	_	_	_
'6	را	_	_	_
'7	به‌زیر	_	_	_
'8	نرده‌های	_	_	_
'9	فلزی	_	_	_
'10	روی	_	_	_
'11	پیشخوان	_	_	_
'12	هل	_	_	_
'13	دادند	_	_	VERB
'14	.	_	_	_

# source_sent_id = . . autogen--data.parsemetsv--880
# text = چند لحظه بعد ناهار همیشگی به‌درون سینی‌ها گذاشته شد : یک پیاله خوراک آب‌پز به رنگ صورتی تیره ، تکه‌ای نان ، قطعه‌ای پنیر ، یک فنجان قهوه پیروزی بدون شیر و یک حبه قند ساخارین .
'1	چند	_	_	_
'2	لحظه	_	_	_
'3	بعد	_	_	_
'4	ناهار	_	_	_
'5	همیشگی	_	_	_
'6	به‌درون	_	_	_
'7	سینی‌ها	_	_	_
'8	گذاشته	_	_	VERB
'9	شد	_	_	_
'10	:	_	_	_
'11	یک	_	_	_
'12	پیاله	_	_	_
'13	خوراک	_	_	_
'14	آب‌پز	_	_	_
'15	به	_	_	_
'16	رنگ	_	_	_
'17	صورتی	_	_	_
'18	تیره	_	_	_
'19	،	_	_	_
'20	تکه‌ای	_	_	_
'21	نان	_	_	_
'22	،	_	_	_
'23	قطعه‌ای	_	_	_
'24	پنیر	_	_	_
'25	،	_	_	_
'26	یک	_	_	_
'27	فنجان	_	_	_
'28	قهوه	_	_	_
'29	پیروزی	_	_	_
'30	بدون	_	_	_
'31	شیر	_	_	_
'32	و	_	_	_
'33	یک	_	_	_
'34	حبه	_	_	_
'35	قند	_	_	_
'36	ساخارین	_	_	_
'37	.	_	_	_

# source_sent_id = . . autogen--data.parsemetsv--881
# text = سایم گفت : « آنجا زیر صفحه سخنگو میزی خالی هست ، سر راه یک گیلاس جین هم می‌گیریم . »
'1	سایم	_	_	_
'2	گفت	_	_	VERB
'3	:	_	_	_
'4	«	_	_	_
'5	آنجا	_	_	_
'6	زیر	_	_	_
'7	صفحه	_	_	_
'8	سخنگو	_	_	_
'9	میزی	_	_	_
'10	خالی	_	_	_
'11	هست	_	_	VERB
'12	،	_	_	_
'13	سر	_	_	_
'14	راه	_	_	_
'15	یک	_	_	_
'16	گیلاس	_	_	_
'17	جین	_	_	_
'18	هم	_	_	_
'19	می‌گیریم	_	_	VERB
'20	.	_	_	_
'21	»	_	_	_

# source_sent_id = . . autogen--data.parsemetsv--882
# text = جین را در گیلاس‌های چینی بدون‌دسته می‌فروختند .
'1	جین	_	_	_
'2	را	_	_	_
'3	در	_	_	_
'4	گیلاس‌های	_	_	_
'5	چینی	_	_	_
'6	بدون‌دسته	_	_	_
'7	می‌فروختند	_	_	VERB
'8	.	_	_	_

# source_sent_id = . . autogen--data.parsemetsv--883
# text = آنها راه خود را ازبین جمعیت باز کردند و سینی‌ها یشان را روی میز فلزی گذاشتند .
'1	آنها	_	_	_
'2	راه	_	_	_
'3	خود	_	_	_
'4	را	_	_	_
'5	ازبین	_	_	_
'6	جمعیت	_	_	_
'7	باز	_	_	_
'8	کردند	_	_	VERB
'9	و	_	_	_
'10	سینی‌ها	_	_	_
'11	یشان	_	_	_
'12	را	_	_	_
'13	روی	_	_	_
'14	میز	_	_	_
'15	فلزی	_	_	_
'16	گذاشتند	_	_	VERB
'17	.	_	_	_

# source_sent_id = . . autogen--data.parsemetsv--884
# text = در گوشه میز یک نفر ته‌مانده خوراک ش را به شکل زشتی که شبیه به استفراغ بود همان‌طور رها کرده و رفته بود .
'1	در	_	_	_
'2	گوشه	_	_	_
'3	میز	_	_	_
'4	یک	_	_	_
'5	نفر	_	_	_
'6	ته‌مانده	_	_	_
'7	خوراک	_	_	_
'8	ش	_	_	_
'9	را	_	_	_
'10	به	_	_	_
'11	شکل	_	_	_
'12	زشتی	_	_	_
'13	که	_	_	_
'14	شبیه	_	_	_
'15	به	_	_	_
'16	استفراغ	_	_	_
'17	بود	_	_	VERB
'18	همان‌طور	_	_	_
'19	رها	_	_	_
'20	کرده	_	_	VERB
'21	و	_	_	_
'22	رفته	_	_	VERB
'23	بود	_	_	_
'24	.	_	_	_

# source_sent_id = . . autogen--data.parsemetsv--885
# text = وینستون گیلاس جین را برداشت لحظه‌ای صبر کرد تا آرامش خود را به دست آورد و سپس آن را سرکشید .
'1	وینستون	_	_	_
'2	گیلاس	_	_	_
'3	جین	_	_	_
'4	را	_	_	_
'5	برداشت	_	_	VERB
'6	لحظه‌ای	_	_	_
'7	صبر	_	_	_
'8	کرد	_	_	VERB
'9	تا	_	_	_
'10	آرامش	_	_	_
'11	خود	_	_	_
'12	را	_	_	_
'13	به	_	_	_
'14	دست	_	_	_
'15	آورد	_	_	VERB
'16	و	_	_	_
'17	سپس	_	_	_
'18	آن	_	_	_
'19	را	_	_	_
'20	سرکشید	_	_	VERB
'21	.	_	_	_

# source_sent_id = . . autogen--data.parsemetsv--886
# text = وقتی اشک‌ها را از گوشه چشم‌ها یش پاک می‌کرد ناگهان متوجه گرسنگی اش شد .
'1	وقتی	_	_	_
'2	اشک‌ها	_	_	_
'3	را	_	_	_
'4	از	_	_	_
'5	گوشه	_	_	_
'6	چشم‌ها	_	_	_
'7	یش	_	_	_
'8	پاک	_	_	_
'9	می‌کرد	_	_	VERB
'10	ناگهان	_	_	_
'11	متوجه	_	_	_
'12	گرسنگی	_	_	_
'13	اش	_	_	_
'14	شد	_	_	VERB
'15	.	_	_	_

# source_sent_id = . . autogen--data.parsemetsv--887
# text = شروع به خوردن کرد و قاشق‌های پر از خوراک را به دهان برد .
'1	شروع	_	_	_
'2	به	_	_	_
'3	خوردن	_	_	_
'4	کرد	_	_	VERB
'5	و	_	_	_
'6	قاشق‌های	_	_	_
'7	پر	_	_	_
'8	از	_	_	_
'9	خوراک	_	_	_
'10	را	_	_	_
'11	به	_	_	_
'12	دهان	_	_	_
'13	برد	_	_	VERB
'14	.	_	_	_

# source_sent_id = . . autogen--data.parsemetsv--888
# text = درمیان خوراک ، تکه‌های صورتی‌رنگی هم به چشم می‌خورد که احتمالا گوشت بود .
'1	درمیان	_	_	_
'2	خوراک	_	_	_
'3	،	_	_	_
'4	تکه‌های	_	_	_
'5	صورتی‌رنگی	_	_	_
'6	هم	_	_	_
'7	به	_	_	_
'8	چشم	_	_	_
'9	می‌خورد	_	_	VERB
'10	که	_	_	_
'11	احتمالا	_	_	_
'12	گوشت	_	_	_
'13	بود	_	_	VERB
'14	.	_	_	_

# source_sent_id = . . autogen--data.parsemetsv--889
# text = تا تمام‌شدن غذا یشان هیچ‌یک صحبتی نکردند .
'1	تا	_	_	_
'2	تمام‌شدن	_	_	_
'3	غذا	_	_	_
'4	یشان	_	_	_
'5	هیچ‌یک	_	_	_
'6	صحبتی	_	_	_
'7	نکردند	_	_	VERB
'8	.	_	_	_

# source_sent_id = . . autogen--data.parsemetsv--890
# text = از میز سمت چپ وینستون و کمی نزدیک به پشت‌سر ش صدای وراجی سریع و مداوم یک نفر به گوش می‌رسید ، لحنی خشن شبیه صدای ارگ که ازمیان همهمه سالن خودنمایی می‌کرد .
'1	از	_	_	_
'2	میز	_	_	_
'3	سمت	_	_	_
'4	چپ	_	_	_
'5	وینستون	_	_	_
'6	و	_	_	_
'7	کمی	_	_	_
'8	نزدیک	_	_	_
'9	به	_	_	_
'10	پشت‌سر	_	_	_
'11	ش	_	_	_
'12	صدای	_	_	_
'13	وراجی	_	_	_
'14	سریع	_	_	_
'15	و	_	_	_
'16	مداوم	_	_	_
'17	یک	_	_	_
'18	نفر	_	_	_
'19	به	_	_	_
'20	گوش	_	_	_
'21	می‌رسید	_	_	VERB
'22	،	_	_	_
'23	لحنی	_	_	_
'24	خشن	_	_	_
'25	شبیه	_	_	_
'26	صدای	_	_	_
'27	ارگ	_	_	_
'28	که	_	_	_
'29	ازمیان	_	_	_
'30	همهمه	_	_	_
'31	سالن	_	_	_
'32	خودنمایی	_	_	_
'33	می‌کرد	_	_	VERB
'34	.	_	_	_

# source_sent_id = . . autogen--data.parsemetsv--891
# text = وینستون با بلندکردن صدا یش به‌منظور غلبه بر همهمه گفت : « فرهنگ لغت چه‌طور پیش می‌رود ؟ »
'1	وینستون	_	_	_
'2	با	_	_	_
'3	بلندکردن	_	_	_
'4	صدا	_	_	_
'5	یش	_	_	_
'6	به‌منظور	_	_	_
'7	غلبه	_	_	_
'8	بر	_	_	_
'9	همهمه	_	_	_
'10	گفت	_	_	VERB
'11	:	_	_	_
'12	«	_	_	_
'13	فرهنگ	_	_	_
'14	لغت	_	_	_
'15	چه‌طور	_	_	_
'16	پیش	_	_	_
'17	می‌رود	_	_	VERB
'18	؟	_	_	_
'19	»	_	_	_

# source_sent_id = . . autogen--data.parsemetsv--892
# text = سایم گفت : « خیلی کند ، به صفت‌ها رسیده ام .
'1	سایم	_	_	_
'2	گفت	_	_	VERB
'3	:	_	_	_
'4	«	_	_	_
'5	خیلی	_	_	_
'6	کند	_	_	_
'7	،	_	_	_
'8	به	_	_	_
'9	صفت‌ها	_	_	_
'10	رسیده	_	_	VERB
'11	ام	_	_	_
'12	.	_	_	_

# source_sent_id = . . autogen--data.parsemetsv--893
# text = خیلی جالب است . »
'1	خیلی	_	_	_
'2	جالب	_	_	_
'3	است	_	_	VERB
'4	.	_	_	_
'5	»	_	_	_

# source_sent_id = . . autogen--data.parsemetsv--894
# text = به‌محض اشاره به زبان نوین سر حال آمد .
'1	به‌محض	_	_	_
'2	اشاره	_	_	_
'3	به	_	_	_
'4	زبان	_	_	_
'5	نوین	_	_	_
'6	سر	_	_	_
'7	حال	_	_	_
'8	آمد	_	_	VERB
'9	.	_	_	_

# source_sent_id = . . autogen--data.parsemetsv--895
# text = ظرف غذا یش را کنار زد تکه نان ش را در یک دست و پنیر ش را در دست دیگر گرفت و سر ش را جلو آورد تا بدون فریادزدن صحبت کند .
'1	ظرف	_	_	_
'2	غذا	_	_	_
'3	یش	_	_	_
'4	را	_	_	_
'5	کنار	_	_	_
'6	زد	_	_	VERB
'7	تکه	_	_	_
'8	نان	_	_	_
'9	ش	_	_	_
'10	را	_	_	_
'11	در	_	_	_
'12	یک	_	_	_
'13	دست	_	_	_
'14	و	_	_	_
'15	پنیر	_	_	_
'16	ش	_	_	_
'17	را	_	_	_
'18	در	_	_	_
'19	دست	_	_	_
'20	دیگر	_	_	_
'21	گرفت	_	_	VERB
'22	و	_	_	_
'23	سر	_	_	_
'24	ش	_	_	_
'25	را	_	_	_
'26	جلو	_	_	_
'27	آورد	_	_	VERB
'28	تا	_	_	_
'29	بدون	_	_	_
'30	فریادزدن	_	_	_
'31	صحبت	_	_	_
'32	کند	_	_	VERB
'33	.	_	_	_

# source_sent_id = . . autogen--data.parsemetsv--896
# text = ادامه داد : « چاپ یازدهم ، چاپ نهایی کتاب است .
'1	ادامه	_	_	_
'2	داد	_	_	VERB
'3	:	_	_	_
'4	«	_	_	_
'5	چاپ	_	_	_
'6	یازدهم	_	_	_
'7	،	_	_	_
'8	چاپ	_	_	_
'9	نهایی	_	_	_
'10	کتاب	_	_	_
'11	است	_	_	VERB
'12	.	_	_	_

# source_sent_id = . . autogen--data.parsemetsv--897
# text = داریم زبان را به آخرین حد تکامل اش می‌رسانیم .
'1	داریم	_	_	_
'2	زبان	_	_	_
'3	را	_	_	_
'4	به	_	_	_
'5	آخرین	_	_	_
'6	حد	_	_	_
'7	تکامل	_	_	_
'8	اش	_	_	_
'9	می‌رسانیم	_	_	VERB
'10	.	_	_	_

# source_sent_id = . . autogen--data.parsemetsv--898
# text = یعنی برای زمانی که همه فقط به این زبان صحبت کنند .
'1	یعنی	_	_	_
'2	برای	_	_	_
'3	زمانی	_	_	_
'4	که	_	_	_
'5	همه	_	_	_
'6	فقط	_	_	_
'7	به	_	_	_
'8	این	_	_	_
'9	زبان	_	_	_
'10	صحبت	_	_	_
'11	کنند	_	_	VERB
'12	.	_	_	_

# source_sent_id = . . autogen--data.parsemetsv--899
# text = وقتی کار تمام شود افرادی مثل تو باید دوباره از اول همه آن را یاد بگیرند .
'1	وقتی	_	_	_
'2	کار	_	_	_
'3	تمام	_	_	_
'4	شود	_	_	VERB
'5	افرادی	_	_	_
'6	مثل	_	_	_
'7	تو	_	_	_
'8	باید	_	_	VERB
'9	دوباره	_	_	_
'10	از	_	_	_
'11	اول	_	_	_
'12	همه	_	_	_
'13	آن	_	_	_
'14	را	_	_	_
'15	یاد	_	_	_
'16	بگیرند	_	_	VERB
'17	.	_	_	_

# source_sent_id = . . autogen--data.parsemetsv--900
# text = می‌دانی عمده کار ما خلق واژه‌های جدید است ، اما نه به این سادگی که فکر می‌کنی !
'1	می‌دانی	_	_	VERB
'2	عمده	_	_	_
'3	کار	_	_	_
'4	ما	_	_	_
'5	خلق	_	_	_
'6	واژه‌های	_	_	_
'7	جدید	_	_	_
'8	است	_	_	VERB
'9	،	_	_	_
'10	اما	_	_	_
'11	نه	_	_	_
'12	به	_	_	_
'13	این	_	_	_
'14	سادگی	_	_	_
'15	که	_	_	_
'16	فکر	_	_	_
'17	می‌کنی	_	_	VERB
'18	!	_	_	_

# source_sent_id = . . autogen--data.parsemetsv--901
# text = ما هر روز ده‌ها و صدها کلمه را تجزیه می‌کنیم .
'1	ما	_	_	_
'2	هر	_	_	_
'3	روز	_	_	_
'4	ده‌ها	_	_	_
'5	و	_	_	_
'6	صدها	_	_	_
'7	کلمه	_	_	_
'8	را	_	_	_
'9	تجزیه	_	_	_
'10	می‌کنیم	_	_	VERB
'11	.	_	_	_

# source_sent_id = . . autogen--data.parsemetsv--902
# text = زبان را به ریزترین اجزا یش تبدیل می‌کنیم .
'1	زبان	_	_	_
'2	را	_	_	_
'3	به	_	_	_
'4	ریزترین	_	_	_
'5	اجزا	_	_	_
'6	یش	_	_	_
'7	تبدیل	_	_	_
'8	می‌کنیم	_	_	VERB
'9	.	_	_	_

# source_sent_id = . . autogen--data.parsemetsv--903
# text = در چاپ یازدهم حتی یک کلمه هم نمی‌توانی پیدا کنی که حداقل تا سال 2050 معتبر نباشد . »
'1	در	_	_	_
'2	چاپ	_	_	_
'3	یازدهم	_	_	_
'4	حتی	_	_	_
'5	یک	_	_	_
'6	کلمه	_	_	_
'7	هم	_	_	_
'8	نمی‌توانی	_	_	VERB
'9	پیدا	_	_	_
'10	کنی	_	_	VERB
'11	که	_	_	_
'12	حداقل	_	_	_
'13	تا	_	_	_
'14	سال	_	_	_
'15	2050	_	_	_
'16	معتبر	_	_	_
'17	نباشد	_	_	VERB
'18	.	_	_	_
'19	»	_	_	_

# source_sent_id = . . autogen--data.parsemetsv--904
# text = با لذت نان ش را گاز زد و دو لقمه از آن را قورت داد ، بعد با حالتی فضل‌فروشانه به صحبت ش ادامه داد .
'1	با	_	_	_
'2	لذت	_	_	_
'3	نان	_	_	_
'4	ش	_	_	_
'5	را	_	_	_
'6	گاز	_	_	_
'7	زد	_	_	VERB
'8	و	_	_	_
'9	دو	_	_	_
'10	لقمه	_	_	_
'11	از	_	_	_
'12	آن	_	_	_
'13	را	_	_	_
'14	قورت	_	_	_
'15	داد	_	_	VERB
'16	،	_	_	_
'17	بعد	_	_	_
'18	با	_	_	_
'19	حالتی	_	_	_
'20	فضل‌فروشانه	_	_	_
'21	به	_	_	_
'22	صحبت	_	_	_
'23	ش	_	_	_
'24	ادامه	_	_	_
'25	داد	_	_	VERB
'26	.	_	_	_

# source_sent_id = . . autogen--data.parsemetsv--905
# text = صورت لاغر و تیره اش جان گرفته بود و در چشم‌ها یش به‌جای تمسخر ، حالتی رویایی پدید آمده بود .
'1	صورت	_	_	_
'2	لاغر	_	_	_
'3	و	_	_	_
'4	تیره	_	_	_
'5	اش	_	_	_
'6	جان	_	_	_
'7	گرفته	_	_	VERB
'8	بود	_	_	_
'9	و	_	_	_
'10	در	_	_	_
'11	چشم‌ها	_	_	_
'12	یش	_	_	_
'13	به‌جای	_	_	_
'14	تمسخر	_	_	_
'15	،	_	_	_
'16	حالتی	_	_	_
'17	رویایی	_	_	_
'18	پدید	_	_	_
'19	آمده	_	_	VERB
'20	بود	_	_	_
'21	.	_	_	_

# source_sent_id = . . autogen--data.parsemetsv--906
# text = ازبین‌بردن واژه‌ها کار خیلی زیبایی است .
'1	ازبین‌بردن	_	_	_
'2	واژه‌ها	_	_	_
'3	کار	_	_	_
'4	خیلی	_	_	_
'5	زیبایی	_	_	_
'6	است	_	_	VERB
'7	.	_	_	_

# source_sent_id = . . autogen--data.parsemetsv--907
# text = گرچه افعال و صفت‌ها بیشترین گستردگی را دارند .
'1	گرچه	_	_	_
'2	افعال	_	_	_
'3	و	_	_	_
'4	صفت‌ها	_	_	_
'5	بیشترین	_	_	_
'6	گستردگی	_	_	_
'7	را	_	_	_
'8	دارند	_	_	VERB
'9	.	_	_	_

# source_sent_id = . . autogen--data.parsemetsv--908
# text = ولی صدها اسم هم هست که می‌شود از شر شان خلاص شد .
'1	ولی	_	_	_
'2	صدها	_	_	_
'3	اسم	_	_	_
'4	هم	_	_	_
'5	هست	_	_	VERB
'6	که	_	_	_
'7	می‌شود	_	_	VERB
'8	از	_	_	_
'9	شر	_	_	_
'10	شان	_	_	_
'11	خلاص	_	_	_
'12	شد	_	_	VERB
'13	.	_	_	_

# source_sent_id = . . autogen--data.parsemetsv--909
# text = نه‌فقط مترادف‌ها ، بلکه متضادها هم هستند .
'1	نه‌فقط	_	_	_
'2	مترادف‌ها	_	_	_
'3	،	_	_	_
'4	بلکه	_	_	_
'5	متضادها	_	_	_
'6	هم	_	_	_
'7	هستند	_	_	VERB
'8	.	_	_	_

# source_sent_id = . . autogen--data.parsemetsv--910
# text = اصلا به چه دلیل باید از کلماتی استفاده کرد که صرفا مخالف یک کلمه دیگر هستند ؟
'1	اصلا	_	_	_
'2	به	_	_	_
'3	چه	_	_	_
'4	دلیل	_	_	_
'5	باید	_	_	VERB
'6	از	_	_	_
'7	کلماتی	_	_	_
'8	استفاده	_	_	_
'9	کرد	_	_	VERB
'10	که	_	_	_
'11	صرفا	_	_	_
'12	مخالف	_	_	_
'13	یک	_	_	_
'14	کلمه	_	_	_
'15	دیگر	_	_	_
'16	هستند	_	_	VERB
'17	؟	_	_	_

# source_sent_id = . . autogen--data.parsemetsv--911
# text = هر کلمه‌ای ضد خودش را در دل خود دارد .
'1	هر	_	_	_
'2	کلمه‌ای	_	_	_
'3	ضد	_	_	_
'4	خودش	_	_	_
'5	را	_	_	_
'6	در	_	_	_
'7	دل	_	_	_
'8	خود	_	_	_
'9	دارد	_	_	VERB
'10	.	_	_	_

# source_sent_id = . . autogen--data.parsemetsv--912
# text = مثلا واژه « خوب » را در نظر بگیر .
'1	مثلا	_	_	_
'2	واژه	_	_	_
'3	«	_	_	_
'4	خوب	_	_	_
'5	»	_	_	_
'6	را	_	_	_
'7	در	_	_	_
'8	نظر	_	_	_
'9	بگیر	_	_	VERB
'10	.	_	_	_

# source_sent_id = . . autogen--data.parsemetsv--913
# text = وقتی این کلمه را داریم دیگر چه نیازی به کلمه « بد » داریم ؟
'1	وقتی	_	_	_
'2	این	_	_	_
'3	کلمه	_	_	_
'4	را	_	_	_
'5	داریم	_	_	VERB
'6	دیگر	_	_	_
'7	چه	_	_	_
'8	نیازی	_	_	_
'9	به	_	_	_
'10	کلمه	_	_	_
'11	«	_	_	_
'12	بد	_	_	_
'13	»	_	_	_
'14	داریم	_	_	VERB
'15	؟	_	_	_

# source_sent_id = . . autogen--data.parsemetsv--914
# text = « ناخوب » می‌تواند کار آن را انجام بدهد – تازه بهتر هم هست چون دقیقا متضاد کلمه « خوب » است و واژه « بد » این معنا را نمی‌رساند .
'1	«	_	_	_
'2	ناخوب	_	_	_
'3	»	_	_	_
'4	می‌تواند	_	_	VERB
'5	کار	_	_	_
'6	آن	_	_	_
'7	را	_	_	_
'8	انجام	_	_	_
'9	بدهد	_	_	VERB
'10	–	_	_	_
'11	تازه	_	_	_
'12	بهتر	_	_	_
'13	هم	_	_	_
'14	هست	_	_	VERB
'15	چون	_	_	_
'16	دقیقا	_	_	_
'17	متضاد	_	_	_
'18	کلمه	_	_	_
'19	«	_	_	_
'20	خوب	_	_	_
'21	»	_	_	_
'22	است	_	_	VERB
'23	و	_	_	_
'24	واژه	_	_	_
'25	«	_	_	_
'26	بد	_	_	_
'27	»	_	_	_
'28	این	_	_	_
'29	معنا	_	_	_
'30	را	_	_	_
'31	نمی‌رساند	_	_	VERB
'32	.	_	_	_

# source_sent_id = . . autogen--data.parsemetsv--915
# text = همین‌طور اگر به صورت قوی‌تر کلمه « خوب » نیاز داشته باشیم چه معنی دارد که یک رشته کلمه به‌دردنخور مثل « عالی » و « فوق‌العاده » و مانند اینها به کار ببریم ؟
'1	همین‌طور	_	_	_
'2	اگر	_	_	_
'3	به	_	_	_
'4	صورت	_	_	_
'5	قوی‌تر	_	_	_
'6	کلمه	_	_	_
'7	«	_	_	_
'8	خوب	_	_	_
'9	»	_	_	_
'10	نیاز	_	_	_
'11	داشته	_	_	VERB
'12	باشیم	_	_	_
'13	چه	_	_	_
'14	معنی	_	_	_
'15	دارد	_	_	VERB
'16	که	_	_	_
'17	یک	_	_	_
'18	رشته	_	_	_
'19	کلمه	_	_	_
'20	به‌دردنخور	_	_	_
'21	مثل	_	_	_
'22	«	_	_	_
'23	عالی	_	_	_
'24	»	_	_	_
'25	و	_	_	_
'26	«	_	_	_
'27	فوق‌العاده	_	_	_
'28	»	_	_	_
'29	و	_	_	_
'30	مانند	_	_	_
'31	اینها	_	_	_
'32	به	_	_	_
'33	کار	_	_	_
'34	ببریم	_	_	VERB
'35	؟	_	_	_

# source_sent_id = . . autogen--data.parsemetsv--916
# text = « بیش‌خوب » همان معنی را می‌رساند ، یا اگر باز هم صورت قوی‌تر مد نظر داشته باشیم « دوچندان بیش‌خوب » این معنا را می‌رساند .
'1	«	_	_	_
'2	بیش‌خوب	_	_	_
'3	»	_	_	_
'4	همان	_	_	_
'5	معنی	_	_	_
'6	را	_	_	_
'7	می‌رساند	_	_	VERB
'8	،	_	_	_
'9	یا	_	_	_
'10	اگر	_	_	_
'11	باز	_	_	_
'12	هم	_	_	_
'13	صورت	_	_	_
'14	قوی‌تر	_	_	_
'15	مد	_	_	_
'16	نظر	_	_	_
'17	داشته	_	_	VERB
'18	باشیم	_	_	_
'19	«	_	_	_
'20	دوچندان	_	_	_
'21	بیش‌خوب	_	_	_
'22	»	_	_	_
'23	این	_	_	_
'24	معنا	_	_	_
'25	را	_	_	_
'26	می‌رساند	_	_	VERB
'27	.	_	_	_

# source_sent_id = . . autogen--data.parsemetsv--917
# text = البته تا الان از این شکل‌ها استفاده می‌کردیم اما در شکل نهایی زبان نوین غیراز اینها لغت دیگری وجود ندارد .
'1	البته	_	_	_
'2	تا	_	_	_
'3	الان	_	_	_
'4	از	_	_	_
'5	این	_	_	_
'6	شکل‌ها	_	_	_
'7	استفاده	_	_	_
'8	می‌کردیم	_	_	VERB
'9	اما	_	_	_
'10	در	_	_	_
'11	شکل	_	_	_
'12	نهایی	_	_	_
'13	زبان	_	_	_
'14	نوین	_	_	_
'15	غیراز	_	_	_
'16	اینها	_	_	_
'17	لغت	_	_	_
'18	دیگری	_	_	_
'19	وجود	_	_	_
'20	ندارد	_	_	VERB
'21	.	_	_	_

# source_sent_id = . . autogen--data.parsemetsv--918
# text = در پایان کار فقط شش لغت برای نشان‌دادن مفهوم خوبی و بدی کفایت می‌کند ، که آن هم در واقع ، فقط یک لغت است .
'1	در	_	_	_
'2	پایان	_	_	_
'3	کار	_	_	_
'4	فقط	_	_	_
'5	شش	_	_	_
'6	لغت	_	_	_
'7	برای	_	_	_
'8	نشان‌دادن	_	_	_
'9	مفهوم	_	_	_
'10	خوبی	_	_	_
'11	و	_	_	_
'12	بدی	_	_	_
'13	کفایت	_	_	_
'14	می‌کند	_	_	VERB
'15	،	_	_	_
'16	که	_	_	_
'17	آن	_	_	_
'18	هم	_	_	_
'19	در	_	_	_
'20	واقع	_	_	_
'21	،	_	_	_
'22	فقط	_	_	_
'23	یک	_	_	_
'24	لغت	_	_	_
'25	است	_	_	VERB
'26	.	_	_	_

# source_sent_id = . . autogen--data.parsemetsv--919
# text = قشنگی کار را متوجه می‌شوی ، وینستون ؟
'1	قشنگی	_	_	_
'2	کار	_	_	_
'3	را	_	_	_
'4	متوجه	_	_	_
'5	می‌شوی	_	_	VERB
'6	،	_	_	_
'7	وینستون	_	_	_
'8	؟	_	_	_

# source_sent_id = . . autogen--data.parsemetsv--920
# text = سپس دوباره فکری کرد و گفت : « البته در اصل این فکر برادر بزرگ بود . »
'1	سپس	_	_	_
'2	دوباره	_	_	_
'3	فکری	_	_	_
'4	کرد	_	_	VERB
'5	و	_	_	_
'6	گفت	_	_	VERB
'7	:	_	_	_
'8	«	_	_	_
'9	البته	_	_	_
'10	در	_	_	_
'11	اصل	_	_	_
'12	این	_	_	_
'13	فکر	_	_	_
'14	برادر	_	_	_
'15	بزرگ	_	_	_
'16	بود	_	_	VERB
'17	.	_	_	_
'18	»	_	_	_

# source_sent_id = . . autogen--data.parsemetsv--921
# text = با یادآوری برادر بزرگ احساس شوق بی‌محتوایی به چهره وینستون سایه افکند .
'1	با	_	_	_
'2	یادآوری	_	_	_
'3	برادر	_	_	_
'4	بزرگ	_	_	_
'5	احساس	_	_	_
'6	شوق	_	_	_
'7	بی‌محتوایی	_	_	_
'8	به	_	_	_
'9	چهره	_	_	_
'10	وینستون	_	_	_
'11	سایه	_	_	_
'12	افکند	_	_	VERB
'13	.	_	_	_

# source_sent_id = . . autogen--data.parsemetsv--922
# text = باوجوداین سایم بلافاصله متوجه بی‌علاقگی خاص او شد .
'1	باوجوداین	_	_	_
'2	سایم	_	_	_
'3	بلافاصله	_	_	_
'4	متوجه	_	_	_
'5	بی‌علاقگی	_	_	_
'6	خاص	_	_	_
'7	او	_	_	_
'8	شد	_	_	VERB
'9	.	_	_	_

# source_sent_id = . . autogen--data.parsemetsv--923
# text = تقریبا با حالتی اندوهگین گفت : « تو هنوز درک کاملی از زبان نوین نداری ، حتی وقتی‌که داری آن را می‌نویسی هم‌چنان در فکر زبان قدیم هستی .
'1	تقریبا	_	_	_
'2	با	_	_	_
'3	حالتی	_	_	_
'4	اندوهگین	_	_	_
'5	گفت	_	_	VERB
'6	:	_	_	_
'7	«	_	_	_
'8	تو	_	_	_
'9	هنوز	_	_	_
'10	درک	_	_	_
'11	کاملی	_	_	_
'12	از	_	_	_
'13	زبان	_	_	_
'14	نوین	_	_	_
'15	نداری	_	_	VERB
'16	،	_	_	_
'17	حتی	_	_	_
'18	وقتی‌که	_	_	_
'19	داری	_	_	_
'20	آن	_	_	_
'21	را	_	_	_
'22	می‌نویسی	_	_	VERB
'23	هم‌چنان	_	_	_
'24	در	_	_	_
'25	فکر	_	_	_
'26	زبان	_	_	_
'27	قدیم	_	_	_
'28	هستی	_	_	VERB
'29	.	_	_	_

# source_sent_id = . . autogen--data.parsemetsv--924
# text = من بعضی از چیزهایی را که گهگاه در تایمز می‌نویسی ، خوانده ام .
'1	من	_	_	_
'2	بعضی	_	_	_
'3	از	_	_	_
'4	چیزهایی	_	_	_
'5	را	_	_	_
'6	که	_	_	_
'7	گهگاه	_	_	_
'8	در	_	_	_
'9	تایمز	_	_	_
'10	می‌نویسی	_	_	VERB
'11	،	_	_	_
'12	خوانده	_	_	VERB
'13	ام	_	_	_
'14	.	_	_	_

# source_sent_id = . . autogen--data.parsemetsv--925
# text = بد نیست ولی مثل ترجمه می‌مانند .
'1	بد	_	_	_
'2	نیست	_	_	VERB
'3	ولی	_	_	_
'4	مثل	_	_	_
'5	ترجمه	_	_	_
'6	می‌مانند	_	_	VERB
'7	.	_	_	_

# source_sent_id = . . autogen--data.parsemetsv--926
# text = قلبا ترجیح می‌دهی به زبان قدیم بچسبی ، باوجود این‌همه ابهام و اشکال بی‌معنی که دارد .
'1	قلبا	_	_	_
'2	ترجیح	_	_	_
'3	می‌دهی	_	_	VERB
'4	به	_	_	_
'5	زبان	_	_	_
'6	قدیم	_	_	_
'7	بچسبی	_	_	VERB
'8	،	_	_	_
'9	باوجود	_	_	_
'10	این‌همه	_	_	_
'11	ابهام	_	_	_
'12	و	_	_	_
'13	اشکال	_	_	_
'14	بی‌معنی	_	_	_
'15	که	_	_	_
'16	دارد	_	_	VERB
'17	.	_	_	_

# source_sent_id = . . autogen--data.parsemetsv--927
# text = متوجه زیبایی کار نابودسازی کلمات نشدی .
'1	متوجه	_	_	_
'2	زیبایی	_	_	_
'3	کار	_	_	_
'4	نابودسازی	_	_	_
'5	کلمات	_	_	_
'6	نشدی	_	_	VERB
'7	.	_	_	_

# source_sent_id = . . autogen--data.parsemetsv--928
# text = می‌دانی در دنیایی که هر سال وسعت واژگان اش کمتر می‌شود ، زبان نوین تنها زبان مورداستفاده است ؟ »
'1	می‌دانی	_	_	VERB
'2	در	_	_	_
'3	دنیایی	_	_	_
'4	که	_	_	_
'5	هر	_	_	_
'6	سال	_	_	_
'7	وسعت	_	_	_
'8	واژگان	_	_	_
'9	اش	_	_	_
'10	کمتر	_	_	_
'11	می‌شود	_	_	VERB
'12	،	_	_	_
'13	زبان	_	_	_
'14	نوین	_	_	_
'15	تنها	_	_	_
'16	زبان	_	_	_
'17	مورداستفاده	_	_	_
'18	است	_	_	VERB
'19	؟	_	_	_
'20	»	_	_	_

# source_sent_id = . . autogen--data.parsemetsv--929
# text = البته وینستون این را می‌دانست .
'1	البته	_	_	_
'2	وینستون	_	_	_
'3	این	_	_	_
'4	را	_	_	_
'5	می‌دانست	_	_	VERB
'6	.	_	_	_

# source_sent_id = . . autogen--data.parsemetsv--930
# text = ولی چون به خودش مطمئن نبود نمی‌خواست لب به سخن باز کند .
'1	ولی	_	_	_
'2	چون	_	_	_
'3	به	_	_	_
'4	خودش	_	_	_
'5	مطمئن	_	_	_
'6	نبود	_	_	VERB
'7	نمی‌خواست	_	_	VERB
'8	لب	_	_	_
'9	به	_	_	_
'10	سخن	_	_	_
'11	باز	_	_	_
'12	کند	_	_	VERB
'13	.	_	_	_

# source_sent_id = . . autogen--data.parsemetsv--931
# text = سعی کرد لبخندی ازسر همدلی تحویل دهد .
'1	سعی	_	_	_
'2	کرد	_	_	VERB
'3	لبخندی	_	_	_
'4	ازسر	_	_	_
'5	همدلی	_	_	_
'6	تحویل	_	_	_
'7	دهد	_	_	VERB
'8	.	_	_	_

# source_sent_id = . . autogen--data.parsemetsv--932
# text = سایم یک لقمه دیگر از نان ش را گاز زد و جوید و به صحبت ادامه داد :
'1	سایم	_	_	_
'2	یک	_	_	_
'3	لقمه	_	_	_
'4	دیگر	_	_	_
'5	از	_	_	_
'6	نان	_	_	_
'7	ش	_	_	_
'8	را	_	_	_
'9	گاز	_	_	_
'10	زد	_	_	VERB
'11	و	_	_	_
'12	جوید	_	_	VERB
'13	و	_	_	_
'14	به	_	_	_
'15	صحبت	_	_	_
'16	ادامه	_	_	_
'17	داد	_	_	VERB
'18	:	_	_	_

# source_sent_id = . . autogen--data.parsemetsv--933
# text = – متوجه نیستی که تنها هدف زبان نوین محدودکردن عرصه تفکر است ؟
'1	–	_	_	_
'2	متوجه	_	_	_
'3	نیستی	_	_	VERB
'4	که	_	_	_
'5	تنها	_	_	_
'6	هدف	_	_	_
'7	زبان	_	_	_
'8	نوین	_	_	_
'9	محدودکردن	_	_	_
'10	عرصه	_	_	_
'11	تفکر	_	_	_
'12	است	_	_	VERB
'13	؟	_	_	_

# source_sent_id = . . autogen--data.parsemetsv--934
# text = در نهایت ما امکان وقوع جرایم فکری را ناممکن می‌کنیم .
'1	در	_	_	_
'2	نهایت	_	_	_
'3	ما	_	_	_
'4	امکان	_	_	_
'5	وقوع	_	_	_
'6	جرایم	_	_	_
'7	فکری	_	_	_
'8	را	_	_	_
'9	ناممکن	_	_	_
'10	می‌کنیم	_	_	VERB
'11	.	_	_	_

# source_sent_id = . . autogen--data.parsemetsv--935
# text = چون دیگر کلمه‌ای برای ابراز آنها وجود ندارد .
'1	چون	_	_	_
'2	دیگر	_	_	_
'3	کلمه‌ای	_	_	_
'4	برای	_	_	_
'5	ابراز	_	_	_
'6	آنها	_	_	_
'7	وجود	_	_	_
'8	ندارد	_	_	VERB
'9	.	_	_	_

# source_sent_id = . . autogen--data.parsemetsv--936
# text = هر مفهومی که احتیاج به بیان داشته باشد فقط با یک کلمه نشان داده می‌شود که معنایی کاملا تعریف‌شده دارد و تمام معانی جنبی به کلی فراموش می‌شوند .
'1	هر	_	_	_
'2	مفهومی	_	_	_
'3	که	_	_	_
'4	احتیاج	_	_	_
'5	به	_	_	_
'6	بیان	_	_	_
'7	داشته	_	_	VERB
'8	باشد	_	_	_
'9	فقط	_	_	_
'10	با	_	_	_
'11	یک	_	_	_
'12	کلمه	_	_	_
'13	نشان	_	_	_
'14	داده	_	_	VERB
'15	می‌شود	_	_	_
'16	که	_	_	_
'17	معنایی	_	_	_
'18	کاملا	_	_	_
'19	تعریف‌شده	_	_	_
'20	دارد	_	_	VERB
'21	و	_	_	_
'22	تمام	_	_	_
'23	معانی	_	_	_
'24	جنبی	_	_	_
'25	به	_	_	_
'26	کلی	_	_	_
'27	فراموش	_	_	_
'28	می‌شوند	_	_	VERB
'29	.	_	_	_

# source_sent_id = . . autogen--data.parsemetsv--937
# text = در همین چاپ یازدهم ، ما خیلی به این موضوع نزدیک شدیم .
'1	در	_	_	_
'2	همین	_	_	_
'3	چاپ	_	_	_
'4	یازدهم	_	_	_
'5	،	_	_	_
'6	ما	_	_	_
'7	خیلی	_	_	_
'8	به	_	_	_
'9	این	_	_	_
'10	موضوع	_	_	_
'11	نزدیک	_	_	_
'12	شدیم	_	_	VERB
'13	.	_	_	_

# source_sent_id = . . autogen--data.parsemetsv--938
# text = اما این جریان تا مدتها بعداز مرگ من و تو هم ادامه دارد .
'1	اما	_	_	_
'2	این	_	_	_
'3	جریان	_	_	_
'4	تا	_	_	_
'5	مدتها	_	_	_
'6	بعداز	_	_	_
'7	مرگ	_	_	_
'8	من	_	_	_
'9	و	_	_	_
'10	تو	_	_	_
'11	هم	_	_	_
'12	ادامه	_	_	_
'13	دارد	_	_	VERB
'14	.	_	_	_

# source_sent_id = . . autogen--data.parsemetsv--939
# text = هر سال کلمات کمتر و کمتر می‌شوند و عرصه آگاهی هم محدودتر می‌شود .
'1	هر	_	_	_
'2	سال	_	_	_
'3	کلمات	_	_	_
'4	کمتر	_	_	_
'5	و	_	_	_
'6	کمتر	_	_	_
'7	می‌شوند	_	_	VERB
'8	و	_	_	_
'9	عرصه	_	_	_
'10	آگاهی	_	_	_
'11	هم	_	_	_
'12	محدودتر	_	_	_
'13	می‌شود	_	_	VERB
'14	.	_	_	_

# source_sent_id = . . autogen--data.parsemetsv--940
# text = حتی همین حالا هم هیچ عذر و بهانه‌ای برای ارتکاب جرایم فکری وجود ندارد .
'1	حتی	_	_	_
'2	همین	_	_	_
'3	حالا	_	_	_
'4	هم	_	_	_
'5	هیچ	_	_	_
'6	عذر	_	_	_
'7	و	_	_	_
'8	بهانه‌ای	_	_	_
'9	برای	_	_	_
'10	ارتکاب	_	_	_
'11	جرایم	_	_	_
'12	فکری	_	_	_
'13	وجود	_	_	_
'14	ندارد	_	_	VERB
'15	.	_	_	_

# source_sent_id = . . autogen--data.parsemetsv--941
# text = مسئله برسر انضباط شخصی و کنترل واقعیت است .
'1	مسئله	_	_	_
'2	برسر	_	_	_
'3	انضباط	_	_	_
'4	شخصی	_	_	_
'5	و	_	_	_
'6	کنترل	_	_	_
'7	واقعیت	_	_	_
'8	است	_	_	VERB
'9	.	_	_	_

# source_sent_id = . . autogen--data.parsemetsv--942
# text = اما در نهایت به این هم احتیاجی نیست .
'1	اما	_	_	_
'2	در	_	_	_
'3	نهایت	_	_	_
'4	به	_	_	_
'5	این	_	_	_
'6	هم	_	_	_
'7	احتیاجی	_	_	_
'8	نیست	_	_	VERB
'9	.	_	_	_

# source_sent_id = . . autogen--data.parsemetsv--943
# text = وقتی زبان کامل شود ، انقلاب هم کامل می‌شود .
'1	وقتی	_	_	_
'2	زبان	_	_	_
'3	کامل	_	_	_
'4	شود	_	_	VERB
'5	،	_	_	_
'6	انقلاب	_	_	_
'7	هم	_	_	_
'8	کامل	_	_	_
'9	می‌شود	_	_	VERB
'10	.	_	_	_

# source_sent_id = . . autogen--data.parsemetsv--944
# text = « زبان نوین اینگسوس خواهد بود و اینگسوس ، زبان نوین . »
'1	«	_	_	_
'2	زبان	_	_	_
'3	نوین	_	_	_
'4	اینگسوس	_	_	_
'5	خواهد	_	_	_
'6	بود	_	_	VERB
'7	و	_	_	_
'8	اینگسوس	_	_	_
'9	،	_	_	_
'10	زبان	_	_	_
'11	نوین	_	_	_
'12	.	_	_	_
'13	»	_	_	_

# source_sent_id = . . autogen--data.parsemetsv--945
# text = جمله آخر را با رضایت عجیبی عنوان کرد و افزود :
'1	جمله	_	_	_
'2	آخر	_	_	_
'3	را	_	_	_
'4	با	_	_	_
'5	رضایت	_	_	_
'6	عجیبی	_	_	_
'7	عنوان	_	_	_
'8	کرد	_	_	VERB
'9	و	_	_	_
'10	افزود	_	_	VERB
'11	:	_	_	_

# source_sent_id = . . autogen--data.parsemetsv--946
# text = – وینستون تا به حال به فکر ت رسیده که حدود سال 2050 حتی یک نفر هم پیدا نمی‌شود که بتواند حرف‌های امروز ما را درک کند ؟
'1	–	_	_	_
'2	وینستون	_	_	_
'3	تا	_	_	_
'4	به	_	_	_
'5	حال	_	_	_
'6	به	_	_	_
'7	فکر	_	_	_
'8	ت	_	_	_
'9	رسیده	_	_	VERB
'10	که	_	_	_
'11	حدود	_	_	_
'12	سال	_	_	_
'13	2050	_	_	_
'14	حتی	_	_	_
'15	یک	_	_	_
'16	نفر	_	_	_
'17	هم	_	_	_
'18	پیدا	_	_	_
'19	نمی‌شود	_	_	VERB
'20	که	_	_	_
'21	بتواند	_	_	VERB
'22	حرف‌های	_	_	_
'23	امروز	_	_	_
'24	ما	_	_	_
'25	را	_	_	_
'26	درک	_	_	_
'27	کند	_	_	VERB
'28	؟	_	_	_

# source_sent_id = . . autogen--data.parsemetsv--947
# text = وینستون با تردید گفت : « به‌جز … » و سپس مکث کرد .
'1	وینستون	_	_	_
'2	با	_	_	_
'3	تردید	_	_	_
'4	گفت	_	_	VERB
'5	:	_	_	_
'6	«	_	_	_
'7	به‌جز	_	_	_
'8	…	_	_	_
'9	»	_	_	_
'10	و	_	_	_
'11	سپس	_	_	_
'12	مکث	_	_	_
'13	کرد	_	_	VERB
'14	.	_	_	_

# source_sent_id = . . autogen--data.parsemetsv--948
# text = سر زبان ش بود که بگوید : « به‌جز طبقه کارگر » ، ولی خودش را کنترل کرد .
'1	سر	_	_	_
'2	زبان	_	_	_
'3	ش	_	_	_
'4	بود	_	_	VERB
'5	که	_	_	_
'6	بگوید	_	_	VERB
'7	:	_	_	_
'8	«	_	_	_
'9	به‌جز	_	_	_
'10	طبقه	_	_	_
'11	کارگر	_	_	_
'12	»	_	_	_
'13	،	_	_	_
'14	ولی	_	_	_
'15	خودش	_	_	_
'16	را	_	_	_
'17	کنترل	_	_	_
'18	کرد	_	_	VERB
'19	.	_	_	_

# source_sent_id = . . autogen--data.parsemetsv--949
# text = تردید داشت که شاید گفتن این حرف نشانه بی‌اعتقادی او به عقاید مرسوم باشد .
'1	تردید	_	_	_
'2	داشت	_	_	VERB
'3	که	_	_	_
'4	شاید	_	_	_
'5	گفتن	_	_	_
'6	این	_	_	_
'7	حرف	_	_	_
'8	نشانه	_	_	_
'9	بی‌اعتقادی	_	_	_
'10	او	_	_	_
'11	به	_	_	_
'12	عقاید	_	_	_
'13	مرسوم	_	_	_
'14	باشد	_	_	VERB
'15	.	_	_	_

# source_sent_id = . . autogen--data.parsemetsv--950
# text = ولی سایم به فراست دریافت که او می‌خواست چه بگوید و با بی‌تفاوتی گفت « کارگرها آدم نیستند ، تا سال 2050 – شاید هم زودتر – تمام دانش واقعی به زبان قدیم از بین می‌رود .
'1	ولی	_	_	_
'2	سایم	_	_	_
'3	به	_	_	_
'4	فراست	_	_	_
'5	دریافت	_	_	VERB
'6	که	_	_	_
'7	او	_	_	_
'8	می‌خواست	_	_	VERB
'9	چه	_	_	_
'10	بگوید	_	_	VERB
'11	و	_	_	_
'12	با	_	_	_
'13	بی‌تفاوتی	_	_	_
'14	گفت	_	_	VERB
'15	«	_	_	_
'16	کارگرها	_	_	_
'17	آدم	_	_	_
'18	نیستند	_	_	VERB
'19	،	_	_	_
'20	تا	_	_	_
'21	سال	_	_	_
'22	2050	_	_	_
'23	–	_	_	_
'24	شاید	_	_	_
'25	هم	_	_	_
'26	زودتر	_	_	_
'27	–	_	_	_
'28	تمام	_	_	_
'29	دانش	_	_	_
'30	واقعی	_	_	_
'31	به	_	_	_
'32	زبان	_	_	_
'33	قدیم	_	_	_
'34	از	_	_	_
'35	بین	_	_	_
'36	می‌رود	_	_	VERB
'37	.	_	_	_

# source_sent_id = . . autogen--data.parsemetsv--951
# text = ادبیات گذشته به کلی نابود می‌شود .
'1	ادبیات	_	_	_
'2	گذشته	_	_	_
'3	به	_	_	_
'4	کلی	_	_	_
'5	نابود	_	_	_
'6	می‌شود	_	_	VERB
'7	.	_	_	_

# source_sent_id = . . autogen--data.parsemetsv--952
# text = چاسر ، شکسپیر ، میلتون ، بایرون ، همه اینها فقط در شکل زبان نوین وجود خواهند داشت و نه‌فقط به شکل امروزی شان متفاوت می‌شوند ، بلکه در واقع به چیزی کاملا متضاد ماهیت خودشان تبدیل می‌شوند .
'1	چاسر	_	_	_
'2	،	_	_	_
'3	شکسپیر	_	_	_
'4	،	_	_	_
'5	میلتون	_	_	_
'6	،	_	_	_
'7	بایرون	_	_	_
'8	،	_	_	_
'9	همه	_	_	_
'10	اینها	_	_	_
'11	فقط	_	_	_
'12	در	_	_	_
'13	شکل	_	_	_
'14	زبان	_	_	_
'15	نوین	_	_	_
'16	وجود	_	_	_
'17	خواهند	_	_	_
'18	داشت	_	_	VERB
'19	و	_	_	_
'20	نه‌فقط	_	_	_
'21	به	_	_	_
'22	شکل	_	_	_
'23	امروزی	_	_	_
'24	شان	_	_	_
'25	متفاوت	_	_	_
'26	می‌شوند	_	_	VERB
'27	،	_	_	_
'28	بلکه	_	_	_
'29	در	_	_	_
'30	واقع	_	_	_
'31	به	_	_	_
'32	چیزی	_	_	_
'33	کاملا	_	_	_
'34	متضاد	_	_	_
'35	ماهیت	_	_	_
'36	خودشان	_	_	_
'37	تبدیل	_	_	_
'38	می‌شوند	_	_	VERB
'39	.	_	_	_

# source_sent_id = . . autogen--data.parsemetsv--953
# text = حتی ادبیات حزب هم تغییر می‌کند .
'1	حتی	_	_	_
'2	ادبیات	_	_	_
'3	حزب	_	_	_
'4	هم	_	_	_
'5	تغییر	_	_	_
'6	می‌کند	_	_	VERB
'7	.	_	_	_

# source_sent_id = . . autogen--data.parsemetsv--954
# text = حتی شعارها تغییر می‌کنند .
'1	حتی	_	_	_
'2	شعارها	_	_	_
'3	تغییر	_	_	_
'4	می‌کنند	_	_	VERB
'5	.	_	_	_

# source_sent_id = . . autogen--data.parsemetsv--955
# text = وقتی مفهوم آزادی وجود نداشته باشد دیگر چطور می‌توانیم شعاری مثل « آزادی ، بردگی است » را داشته باشیم ؟
'1	وقتی	_	_	_
'2	مفهوم	_	_	_
'3	آزادی	_	_	_
'4	وجود	_	_	_
'5	نداشته	_	_	VERB
'6	باشد	_	_	_
'7	دیگر	_	_	_
'8	چطور	_	_	_
'9	می‌توانیم	_	_	VERB
'10	شعاری	_	_	_
'11	مثل	_	_	_
'12	«	_	_	_
'13	آزادی	_	_	_
'14	،	_	_	_
'15	بردگی	_	_	_
'16	است	_	_	VERB
'17	»	_	_	_
'18	را	_	_	_
'19	داشته	_	_	VERB
'20	باشیم	_	_	_
'21	؟	_	_	_

# source_sent_id = . . autogen--data.parsemetsv--956
# text = حال‌وهوای تفکر کاملا تفاوت خواهد کرد .
'1	حال‌وهوای	_	_	_
'2	تفکر	_	_	_
'3	کاملا	_	_	_
'4	تفاوت	_	_	_
'5	خواهد	_	_	_
'6	کرد	_	_	VERB
'7	.	_	_	_

# source_sent_id = . . autogen--data.parsemetsv--957
# text = در واقع با درک فعلی ما باید گفت آن موقع دیگر اندیشه‌ای وجود ندارد .
'1	در	_	_	_
'2	واقع	_	_	_
'3	با	_	_	_
'4	درک	_	_	_
'5	فعلی	_	_	_
'6	ما	_	_	_
'7	باید	_	_	VERB
'8	گفت	_	_	VERB
'9	آن	_	_	_
'10	موقع	_	_	_
'11	دیگر	_	_	_
'12	اندیشه‌ای	_	_	_
'13	وجود	_	_	_
'14	ندارد	_	_	VERB
'15	.	_	_	_

# source_sent_id = . . autogen--data.parsemetsv--958
# text = پیروی از عقاید مرسوم به معنی فکرنکردن خواهد بود – نیازنداشتن به تفکر .
'1	پیروی	_	_	_
'2	از	_	_	_
'3	عقاید	_	_	_
'4	مرسوم	_	_	_
'5	به	_	_	_
'6	معنی	_	_	_
'7	فکرنکردن	_	_	_
'8	خواهد	_	_	_
'9	بود	_	_	VERB
'10	–	_	_	_
'11	نیازنداشتن	_	_	_
'12	به	_	_	_
'13	تفکر	_	_	_
'14	.	_	_	_

# source_sent_id = . . autogen--data.parsemetsv--959
# text = پیروی از عقاید مرسوم یعنی عدم خودآگاهی . »
'1	پیروی	_	_	_
'2	از	_	_	_
'3	عقاید	_	_	_
'4	مرسوم	_	_	_
'5	یعنی	_	_	_
'6	عدم	_	_	_
'7	خودآگاهی	_	_	_
'8	.	_	_	_
'9	»	_	_	_

# source_sent_id = . . autogen--data.parsemetsv--960
# text = ناگهان به فکر وینستون خطور کرد که بدون شک یکی از همین روزها سایم را سربه‌نیست خواهند کرد .
'1	ناگهان	_	_	_
'2	به	_	_	_
'3	فکر	_	_	_
'4	وینستون	_	_	_
'5	خطور	_	_	_
'6	کرد	_	_	VERB
'7	که	_	_	_
'8	بدون	_	_	_
'9	شک	_	_	_
'10	یکی	_	_	_
'11	از	_	_	_
'12	همین	_	_	_
'13	روزها	_	_	_
'14	سایم	_	_	_
'15	را	_	_	_
'16	سربه‌نیست	_	_	_
'17	خواهند	_	_	_
'18	کرد	_	_	VERB
'19	.	_	_	_

# source_sent_id = . . autogen--data.parsemetsv--961
# text = او خیلی باهوش است .
'1	او	_	_	_
'2	خیلی	_	_	_
'3	باهوش	_	_	_
'4	است	_	_	VERB
'5	.	_	_	_

# source_sent_id = . . autogen--data.parsemetsv--962
# text = خیلی روشن می‌بیند و خیلی واضح حرف می‌زند .
'1	خیلی	_	_	_
'2	روشن	_	_	_
'3	می‌بیند	_	_	VERB
'4	و	_	_	_
'5	خیلی	_	_	_
'6	واضح	_	_	_
'7	حرف	_	_	_
'8	می‌زند	_	_	VERB
'9	.	_	_	_

# source_sent_id = . . autogen--data.parsemetsv--963
# text = حزب از این‌جور آدم‌ها خوش ش نمی‌آید .
'1	حزب	_	_	_
'2	از	_	_	_
'3	این‌جور	_	_	_
'4	آدم‌ها	_	_	_
'5	خوش	_	_	_
'6	ش	_	_	_
'7	نمی‌آید	_	_	VERB
'8	.	_	_	_

# source_sent_id = . . autogen--data.parsemetsv--964
# text = او یک روز بخار می‌شود و به هوا می‌رود .
'1	او	_	_	_
'2	یک	_	_	_
'3	روز	_	_	_
'4	بخار	_	_	_
'5	می‌شود	_	_	VERB
'6	و	_	_	_
'7	به	_	_	_
'8	هوا	_	_	_
'9	می‌رود	_	_	VERB
'10	.	_	_	_

# source_sent_id = . . autogen--data.parsemetsv--965
# text = این موضوع را روی پیشانی ش می‌شد خواند .
'1	این	_	_	_
'2	موضوع	_	_	_
'3	را	_	_	_
'4	روی	_	_	_
'5	پیشانی	_	_	_
'6	ش	_	_	_
'7	می‌شد	_	_	VERB
'8	خواند	_	_	VERB
'9	.	_	_	_

# source_sent_id = . . autogen--data.parsemetsv--966
# text = وینستون نان و پنیر ش را تمام کرد .
'1	وینستون	_	_	_
'2	نان	_	_	_
'3	و	_	_	_
'4	پنیر	_	_	_
'5	ش	_	_	_
'6	را	_	_	_
'7	تمام	_	_	_
'8	کرد	_	_	VERB
'9	.	_	_	_

# source_sent_id = . . autogen--data.parsemetsv--967
# text = کمی جابه‌جا شد تا قهوه اش را بخورد .
'1	کمی	_	_	_
'2	جابه‌جا	_	_	_
'3	شد	_	_	VERB
'4	تا	_	_	_
'5	قهوه	_	_	_
'6	اش	_	_	_
'7	را	_	_	_
'8	بخورد	_	_	VERB
'9	.	_	_	_

# source_sent_id = . . autogen--data.parsemetsv--968
# text = مردی که سر میز سمت چپ بود و صدای اردک‌وار داشت هم‌چنان بی‌وقفه حرف می‌زد .
'1	مردی	_	_	_
'2	که	_	_	_
'3	سر	_	_	_
'4	میز	_	_	_
'5	سمت	_	_	_
'6	چپ	_	_	_
'7	بود	_	_	VERB
'8	و	_	_	_
'9	صدای	_	_	_
'10	اردک‌وار	_	_	_
'11	داشت	_	_	VERB
'12	هم‌چنان	_	_	_
'13	بی‌وقفه	_	_	_
'14	حرف	_	_	_
'15	می‌زد	_	_	VERB
'16	.	_	_	_

# source_sent_id = . . autogen--data.parsemetsv--969
# text = زنی جوان که شاید منشی اش بود و طوری نشسته بود که پشت ش به وینستون بود ، به حرف‌های مرد گوش می‌داد و ازقرارمعلوم مشتاقانه با حرف‌های او موافقت می‌کرد .
'1	زنی	_	_	_
'2	جوان	_	_	_
'3	که	_	_	_
'4	شاید	_	_	_
'5	منشی	_	_	_
'6	اش	_	_	_
'7	بود	_	_	VERB
'8	و	_	_	_
'9	طوری	_	_	_
'10	نشسته	_	_	VERB
'11	بود	_	_	_
'12	که	_	_	_
'13	پشت	_	_	_
'14	ش	_	_	_
'15	به	_	_	_
'16	وینستون	_	_	_
'17	بود	_	_	VERB
'18	،	_	_	_
'19	به	_	_	_
'20	حرف‌های	_	_	_
'21	مرد	_	_	_
'22	گوش	_	_	_
'23	می‌داد	_	_	VERB
'24	و	_	_	_
'25	ازقرارمعلوم	_	_	_
'26	مشتاقانه	_	_	_
'27	با	_	_	_
'28	حرف‌های	_	_	_
'29	او	_	_	_
'30	موافقت	_	_	_
'31	می‌کرد	_	_	VERB
'32	.	_	_	_

# source_sent_id = . . autogen--data.parsemetsv--970
# text = و هرازچندگاهی وینستون می‌شنید که زن با صدای زنانه جوان و کمی لوس ش می‌گفت : « به نظر من کاملا حق با شما ست ، من هم با شما موافق م . »
'1	و	_	_	_
'2	هرازچندگاهی	_	_	_
'3	وینستون	_	_	_
'4	می‌شنید	_	_	VERB
'5	که	_	_	_
'6	زن	_	_	_
'7	با	_	_	_
'8	صدای	_	_	_
'9	زنانه	_	_	_
'10	جوان	_	_	_
'11	و	_	_	_
'12	کمی	_	_	_
'13	لوس	_	_	_
'14	ش	_	_	_
'15	می‌گفت	_	_	VERB
'16	:	_	_	_
'17	«	_	_	_
'18	به	_	_	_
'19	نظر	_	_	_
'20	من	_	_	_
'21	کاملا	_	_	_
'22	حق	_	_	_
'23	با	_	_	_
'24	شما	_	_	_
'25	ست	_	_	VERB
'26	،	_	_	_
'27	من	_	_	_
'28	هم	_	_	_
'29	با	_	_	_
'30	شما	_	_	_
'31	موافق	_	_	_
'32	م	_	_	VERB
'33	.	_	_	_
'34	»	_	_	_

# source_sent_id = . . autogen--data.parsemetsv--971
# text = اما صدای مرد حتی هنگامی‌که زن صحبت می‌کرد ، قطع نمی‌شد .
'1	اما	_	_	_
'2	صدای	_	_	_
'3	مرد	_	_	_
'4	حتی	_	_	_
'5	هنگامی‌که	_	_	_
'6	زن	_	_	_
'7	صحبت	_	_	_
'8	می‌کرد	_	_	VERB
'9	،	_	_	_
'10	قطع	_	_	_
'11	نمی‌شد	_	_	VERB
'12	.	_	_	_

# source_sent_id = . . autogen--data.parsemetsv--972
# text = وینستون مرد را ازروی چهره می‌شناخت ، البته فقط می‌دانست که شغل مهمی در بخش ادبیات داستانی دارد .
'1	وینستون	_	_	_
'2	مرد	_	_	_
'3	را	_	_	_
'4	ازروی	_	_	_
'5	چهره	_	_	_
'6	می‌شناخت	_	_	VERB
'7	،	_	_	_
'8	البته	_	_	_
'9	فقط	_	_	_
'10	می‌دانست	_	_	VERB
'11	که	_	_	_
'12	شغل	_	_	_
'13	مهمی	_	_	_
'14	در	_	_	_
'15	بخش	_	_	_
'16	ادبیات	_	_	_
'17	داستانی	_	_	_
'18	دارد	_	_	VERB
'19	.	_	_	_

# source_sent_id = . . autogen--data.parsemetsv--973
# text = مردی حدودا سی‌ساله بود که گردنی عضلانی و دهانی بزرگ و پرتحرک داشت .
'1	مردی	_	_	_
'2	حدودا	_	_	_
'3	سی‌ساله	_	_	_
'4	بود	_	_	VERB
'5	که	_	_	_
'6	گردنی	_	_	_
'7	عضلانی	_	_	_
'8	و	_	_	_
'9	دهانی	_	_	_
'10	بزرگ	_	_	_
'11	و	_	_	_
'12	پرتحرک	_	_	_
'13	داشت	_	_	VERB
'14	.	_	_	_

# source_sent_id = . . autogen--data.parsemetsv--974
# text = سر ش را کمی به عقب برده بود و در زاویه‌ای نشسته بود که نور در عینک ش منعکس می‌شد و وینستون به‌جای چشم‌ها یش فقط دو لکه نور می‌دید .
'1	سر	_	_	_
'2	ش	_	_	_
'3	را	_	_	_
'4	کمی	_	_	_
'5	به	_	_	_
'6	عقب	_	_	_
'7	برده	_	_	VERB
'8	بود	_	_	_
'9	و	_	_	_
'10	در	_	_	_
'11	زاویه‌ای	_	_	_
'12	نشسته	_	_	VERB
'13	بود	_	_	_
'14	که	_	_	_
'15	نور	_	_	_
'16	در	_	_	_
'17	عینک	_	_	_
'18	ش	_	_	_
'19	منعکس	_	_	_
'20	می‌شد	_	_	VERB
'21	و	_	_	_
'22	وینستون	_	_	_
'23	به‌جای	_	_	_
'24	چشم‌ها	_	_	_
'25	یش	_	_	_
'26	فقط	_	_	_
'27	دو	_	_	_
'28	لکه	_	_	_
'29	نور	_	_	_
'30	می‌دید	_	_	VERB
'31	.	_	_	_

# source_sent_id = . . autogen--data.parsemetsv--975
# text = موضوع کمابیش وحشتناک این بود که از تمام صداهایی که از دهان ش بیرون می‌آمد نمی‌شد یک کلمه مجزا تشخیص داد .
'1	موضوع	_	_	_
'2	کمابیش	_	_	_
'3	وحشتناک	_	_	_
'4	این	_	_	_
'5	بود	_	_	VERB
'6	که	_	_	_
'7	از	_	_	_
'8	تمام	_	_	_
'9	صداهایی	_	_	_
'10	که	_	_	_
'11	از	_	_	_
'12	دهان	_	_	_
'13	ش	_	_	_
'14	بیرون	_	_	_
'15	می‌آمد	_	_	VERB
'16	نمی‌شد	_	_	VERB
'17	یک	_	_	_
'18	کلمه	_	_	_
'19	مجزا	_	_	_
'20	تشخیص	_	_	_
'21	داد	_	_	VERB
'22	.	_	_	_

# source_sent_id = . . autogen--data.parsemetsv--976
# text = وینستون فقط یک عبارت را که خیلی سریع از دهان ش بیرون آمد فهمید : « حذف نهایی و کامل گلدشتاینیسم . »
'1	وینستون	_	_	_
'2	فقط	_	_	_
'3	یک	_	_	_
'4	عبارت	_	_	_
'5	را	_	_	_
'6	که	_	_	_
'7	خیلی	_	_	_
'8	سریع	_	_	_
'9	از	_	_	_
'10	دهان	_	_	_
'11	ش	_	_	_
'12	بیرون	_	_	_
'13	آمد	_	_	VERB
'14	فهمید	_	_	VERB
'15	:	_	_	_
'16	«	_	_	_
'17	حذف	_	_	_
'18	نهایی	_	_	_
'19	و	_	_	_
'20	کامل	_	_	_
'21	گلدشتاینیسم	_	_	_
'22	.	_	_	_
'23	»	_	_	_

# source_sent_id = . . autogen--data.parsemetsv--977
# text = بقیه حرف‌ها یش اصواتی شبیه کواک‌–‌کواک مرغابی بود .
'1	بقیه	_	_	_
'2	حرف‌ها	_	_	_
'3	یش	_	_	_
'4	اصواتی	_	_	_
'5	شبیه	_	_	_
'6	کواک‌–‌کواک	_	_	_
'7	مرغابی	_	_	_
'8	بود	_	_	VERB
'9	.	_	_	_

# source_sent_id = . . autogen--data.parsemetsv--978
# text = باوجوداین گرچه واقعا نمی‌شد شنید مرد چه می‌گوید ، می‌شد از ماهیت حرف‌ها یش مطمئن بود .
'1	باوجوداین	_	_	_
'2	گرچه	_	_	_
'3	واقعا	_	_	_
'4	نمی‌شد	_	_	VERB
'5	شنید	_	_	VERB
'6	مرد	_	_	_
'7	چه	_	_	_
'8	می‌گوید	_	_	VERB
'9	،	_	_	_
'10	می‌شد	_	_	VERB
'11	از	_	_	_
'12	ماهیت	_	_	_
'13	حرف‌ها	_	_	_
'14	یش	_	_	_
'15	مطمئن	_	_	_
'16	بود	_	_	VERB
'17	.	_	_	_

# source_sent_id = . . autogen--data.parsemetsv--979
# text = احتمالا داشت گلدشتاین را محکوم می‌کرد و خواهان سختگیری‌های بیشتر درمورد جرایم فکری و خرابکاران بود ، یا در حال انتقاد شدید از فجایعی بود که ارتش اوراسیا به وجود آورده بود .
'1	احتمالا	_	_	_
'2	داشت	_	_	_
'3	گلدشتاین	_	_	_
'4	را	_	_	_
'5	محکوم	_	_	_
'6	می‌کرد	_	_	VERB
'7	و	_	_	_
'8	خواهان	_	_	_
'9	سختگیری‌های	_	_	_
'10	بیشتر	_	_	_
'11	درمورد	_	_	_
'12	جرایم	_	_	_
'13	فکری	_	_	_
'14	و	_	_	_
'15	خرابکاران	_	_	_
'16	بود	_	_	VERB
'17	،	_	_	_
'18	یا	_	_	_
'19	در	_	_	_
'20	حال	_	_	_
'21	انتقاد	_	_	_
'22	شدید	_	_	_
'23	از	_	_	_
'24	فجایعی	_	_	_
'25	بود	_	_	VERB
'26	که	_	_	_
'27	ارتش	_	_	_
'28	اوراسیا	_	_	_
'29	به	_	_	_
'30	وجود	_	_	_
'31	آورده	_	_	VERB
'32	بود	_	_	_
'33	.	_	_	_

# source_sent_id = . . autogen--data.parsemetsv--980
# text = شاید هم برادر بزرگ یا قهرمان جبهه مالابار را ستایش می‌کرد ، به‌هرحال فرقی نداشت .
'1	شاید	_	_	_
'2	هم	_	_	_
'3	برادر	_	_	_
'4	بزرگ	_	_	_
'5	یا	_	_	_
'6	قهرمان	_	_	_
'7	جبهه	_	_	_
'8	مالابار	_	_	_
'9	را	_	_	_
'10	ستایش	_	_	_
'11	می‌کرد	_	_	VERB
'12	،	_	_	_
'13	به‌هرحال	_	_	_
'14	فرقی	_	_	_
'15	نداشت	_	_	VERB
'16	.	_	_	_

# source_sent_id = . . autogen--data.parsemetsv--981
# text = هرچه بود با اطمینان می‌شد گفت تک‌تک کلمات ش اعتقاد راسخ به عقاید مرسوم و اینگسوس ناب بود .
'1	هرچه	_	_	_
'2	بود	_	_	VERB
'3	با	_	_	_
'4	اطمینان	_	_	_
'5	می‌شد	_	_	VERB
'6	گفت	_	_	VERB
'7	تک‌تک	_	_	_
'8	کلمات	_	_	_
'9	ش	_	_	_
'10	اعتقاد	_	_	_
'11	راسخ	_	_	_
'12	به	_	_	_
'13	عقاید	_	_	_
'14	مرسوم	_	_	_
'15	و	_	_	_
'16	اینگسوس	_	_	_
'17	ناب	_	_	_
'18	بود	_	_	VERB
'19	.	_	_	_

# source_sent_id = . . autogen--data.parsemetsv--982
# text = وینستون ، همان‌طور که به چهره بی‌چشم‌ودهان متحرکی که دائم باز و بسته می‌شد نگاه می‌کرد ، احساس غریبی به او گفت این یک انسان واقعی نیست بلکه آدم مصنوعی است .
'1	وینستون	_	_	_
'2	،	_	_	_
'3	همان‌طور	_	_	_
'4	که	_	_	_
'5	به	_	_	_
'6	چهره	_	_	_
'7	بی‌چشم‌ودهان	_	_	_
'8	متحرکی	_	_	_
'9	که	_	_	_
'10	دائم	_	_	_
'11	باز	_	_	_
'12	و	_	_	_
'13	بسته	_	_	_
'14	می‌شد	_	_	VERB
'15	نگاه	_	_	_
'16	می‌کرد	_	_	VERB
'17	،	_	_	_
'18	احساس	_	_	_
'19	غریبی	_	_	_
'20	به	_	_	_
'21	او	_	_	_
'22	گفت	_	_	VERB
'23	این	_	_	_
'24	یک	_	_	_
'25	انسان	_	_	_
'26	واقعی	_	_	_
'27	نیست	_	_	VERB
'28	بلکه	_	_	_
'29	آدم	_	_	_
'30	مصنوعی	_	_	_
'31	است	_	_	VERB
'32	.	_	_	_

# source_sent_id = . . autogen--data.parsemetsv--983
# text = این حرف‌ها از مغز انسان بیرون نمی‌آمد بلکه فقط از حنجره اش بود .
'1	این	_	_	_
'2	حرف‌ها	_	_	_
'3	از	_	_	_
'4	مغز	_	_	_
'5	انسان	_	_	_
'6	بیرون	_	_	_
'7	نمی‌آمد	_	_	VERB
'8	بلکه	_	_	_
'9	فقط	_	_	_
'10	از	_	_	_
'11	حنجره	_	_	_
'12	اش	_	_	_
'13	بود	_	_	VERB
'14	.	_	_	_

# source_sent_id = . . autogen--data.parsemetsv--984
# text = چیزهایی که از آن دهان بیرون می‌آمد کلمات بود ولی گفتاری با معنی واقعی نبود : سروصدایی بود که مانند صدای مرغابی ناخودآگاه درمی‌آمد .
'1	چیزهایی	_	_	_
'2	که	_	_	_
'3	از	_	_	_
'4	آن	_	_	_
'5	دهان	_	_	_
'6	بیرون	_	_	_
'7	می‌آمد	_	_	VERB
'8	کلمات	_	_	_
'9	بود	_	_	VERB
'10	ولی	_	_	_
'11	گفتاری	_	_	_
'12	با	_	_	_
'13	معنی	_	_	_
'14	واقعی	_	_	_
'15	نبود	_	_	VERB
'16	:	_	_	_
'17	سروصدایی	_	_	_
'18	بود	_	_	VERB
'19	که	_	_	_
'20	مانند	_	_	_
'21	صدای	_	_	_
'22	مرغابی	_	_	_
'23	ناخودآگاه	_	_	_
'24	درمی‌آمد	_	_	VERB
'25	.	_	_	_

# source_sent_id = . . autogen--data.parsemetsv--985
# text = سایم لحظه‌ای ساکت شده بود و با دسته قاشق ش آب خوراک را به هم می‌زد .
'1	سایم	_	_	_
'2	لحظه‌ای	_	_	_
'3	ساکت	_	_	_
'4	شده	_	_	VERB
'5	بود	_	_	_
'6	و	_	_	_
'7	با	_	_	_
'8	دسته	_	_	_
'9	قاشق	_	_	_
'10	ش	_	_	_
'11	آب	_	_	_
'12	خوراک	_	_	_
'13	را	_	_	_
'14	به	_	_	_
'15	هم	_	_	_
'16	می‌زد	_	_	VERB
'17	.	_	_	_

# source_sent_id = . . autogen--data.parsemetsv--986
# text = صدای اردک‌واری که از میز پهلویی می‌آمد به‌رغم صداهای دیگر محیط ، به راحتی شنیده می‌شد .
'1	صدای	_	_	_
'2	اردک‌واری	_	_	_
'3	که	_	_	_
'4	از	_	_	_
'5	میز	_	_	_
'6	پهلویی	_	_	_
'7	می‌آمد	_	_	VERB
'8	به‌رغم	_	_	_
'9	صداهای	_	_	_
'10	دیگر	_	_	_
'11	محیط	_	_	_
'12	،	_	_	_
'13	به	_	_	_
'14	راحتی	_	_	_
'15	شنیده	_	_	VERB
'16	می‌شد	_	_	_
'17	.	_	_	_

# source_sent_id = . . autogen--data.parsemetsv--987
# text = سایم گفت : « در زبان نوین کلمه‌ای داریم که نمی‌دانم شنیده ای یا نه : « اردک‌زبانی » ، کواک‌کواک‌کردن شبیه اردک .
'1	سایم	_	_	_
'2	گفت	_	_	VERB
'3	:	_	_	_
'4	«	_	_	_
'5	در	_	_	_
'6	زبان	_	_	_
'7	نوین	_	_	_
'8	کلمه‌ای	_	_	_
'9	داریم	_	_	VERB
'10	که	_	_	_
'11	نمی‌دانم	_	_	VERB
'12	شنیده	_	_	VERB
'13	ای	_	_	_
'14	یا	_	_	_
'15	نه	_	_	_
'16	:	_	_	_
'17	«	_	_	_
'18	اردک‌زبانی	_	_	_
'19	»	_	_	_
'20	،	_	_	_
'21	کواک‌کواک‌کردن	_	_	_
'22	شبیه	_	_	_
'23	اردک	_	_	_
'24	.	_	_	_

# source_sent_id = . . autogen--data.parsemetsv--988
# text = یکی از آن کلمات جالبی است که دو معنی متضاد دارد .
'1	یکی	_	_	_
'2	از	_	_	_
'3	آن	_	_	_
'4	کلمات	_	_	_
'5	جالبی	_	_	_
'6	است	_	_	VERB
'7	که	_	_	_
'8	دو	_	_	_
'9	معنی	_	_	_
'10	متضاد	_	_	_
'11	دارد	_	_	VERB
'12	.	_	_	_

# source_sent_id = . . autogen--data.parsemetsv--989
# text = اگر آن را به یک مخالف بگویی به معنی توهین است ؛ اما اگر به یک هم‌مسلک بگویی ، به معنی تحسین است . »
'1	اگر	_	_	_
'2	آن	_	_	_
'3	را	_	_	_
'4	به	_	_	_
'5	یک	_	_	_
'6	مخالف	_	_	_
'7	بگویی	_	_	VERB
'8	به	_	_	_
'9	معنی	_	_	_
'10	توهین	_	_	_
'11	است	_	_	VERB
'12	؛	_	_	_
'13	اما	_	_	_
'14	اگر	_	_	_
'15	به	_	_	_
'16	یک	_	_	_
'17	هم‌مسلک	_	_	_
'18	بگویی	_	_	VERB
'19	،	_	_	_
'20	به	_	_	_
'21	معنی	_	_	_
'22	تحسین	_	_	_
'23	است	_	_	VERB
'24	.	_	_	_
'25	»	_	_	_

# source_sent_id = . . autogen--data.parsemetsv--990
# text = وینستون دوباره به این فکر افتاد که سایم را حتما سربه‌نیست خواهند کرد .
'1	وینستون	_	_	_
'2	دوباره	_	_	_
'3	به	_	_	_
'4	این	_	_	_
'5	فکر	_	_	_
'6	افتاد	_	_	VERB
'7	که	_	_	_
'8	سایم	_	_	_
'9	را	_	_	_
'10	حتما	_	_	_
'11	سربه‌نیست	_	_	_
'12	خواهند	_	_	_
'13	کرد	_	_	VERB
'14	.	_	_	_

# source_sent_id = . . autogen--data.parsemetsv--991
# text = گرچه مطمئن بود سایم زیاد از او خوش ش نمی‌آید و او را خوار می‌شمرد و یا اگر دلیل خوبی داشت حتما او را به‌عنوان مجرم فکری لو می‌داد ، ولی باز هم دچار نوعی اندوه شد .
'1	گرچه	_	_	_
'2	مطمئن	_	_	_
'3	بود	_	_	VERB
'4	سایم	_	_	_
'5	زیاد	_	_	_
'6	از	_	_	_
'7	او	_	_	_
'8	خوش	_	_	_
'9	ش	_	_	_
'10	نمی‌آید	_	_	VERB
'11	و	_	_	_
'12	او	_	_	_
'13	را	_	_	_
'14	خوار	_	_	_
'15	می‌شمرد	_	_	VERB
'16	و	_	_	_
'17	یا	_	_	_
'18	اگر	_	_	_
'19	دلیل	_	_	_
'20	خوبی	_	_	_
'21	داشت	_	_	VERB
'22	حتما	_	_	_
'23	او	_	_	_
'24	را	_	_	_
'25	به‌عنوان	_	_	_
'26	مجرم	_	_	_
'27	فکری	_	_	_
'28	لو	_	_	_
'29	می‌داد	_	_	VERB
'30	،	_	_	_
'31	ولی	_	_	_
'32	باز	_	_	_
'33	هم	_	_	_
'34	دچار	_	_	_
'35	نوعی	_	_	_
'36	اندوه	_	_	_
'37	شد	_	_	VERB
'38	.	_	_	_

# source_sent_id = . . autogen--data.parsemetsv--992
# text = سایم فقط یک ایراد جزئی داشت .
'1	سایم	_	_	_
'2	فقط	_	_	_
'3	یک	_	_	_
'4	ایراد	_	_	_
'5	جزئی	_	_	_
'6	داشت	_	_	VERB
'7	.	_	_	_

# source_sent_id = . . autogen--data.parsemetsv--993
# text = یعنی یک چیزی کم داشت : احتیاط ، بی‌تفاوتی ، یک نوع خرفتی نجات‌بخش .
'1	یعنی	_	_	_
'2	یک	_	_	_
'3	چیزی	_	_	_
'4	کم	_	_	_
'5	داشت	_	_	VERB
'6	:	_	_	_
'7	احتیاط	_	_	_
'8	،	_	_	_
'9	بی‌تفاوتی	_	_	_
'10	،	_	_	_
'11	یک	_	_	_
'12	نوع	_	_	_
'13	خرفتی	_	_	_
'14	نجات‌بخش	_	_	_
'15	.	_	_	_

# source_sent_id = . . autogen--data.parsemetsv--994
# text = نمی‌شد گفت به عقاید مرسوم پایبند نیست .
'1	نمی‌شد	_	_	VERB
'2	گفت	_	_	VERB
'3	به	_	_	_
'4	عقاید	_	_	_
'5	مرسوم	_	_	_
'6	پایبند	_	_	_
'7	نیست	_	_	VERB
'8	.	_	_	_

# source_sent_id = . . autogen--data.parsemetsv--995
# text = مشتاقانه به اصول اینگسوس اعتقاد داشت ، به برادر بزرگ احترام می‌گذاشت ، به‌خاطر پیروزی‌ها شادی می‌کرد و از بدعت‌گذاردن متنفر بود و از این جهات هیچ‌یک از اعضای ساده حزب با او برابری نمی‌کردند .
'1	مشتاقانه	_	_	_
'2	به	_	_	_
'3	اصول	_	_	_
'4	اینگسوس	_	_	_
'5	اعتقاد	_	_	_
'6	داشت	_	_	VERB
'7	،	_	_	_
'8	به	_	_	_
'9	برادر	_	_	_
'10	بزرگ	_	_	_
'11	احترام	_	_	_
'12	می‌گذاشت	_	_	VERB
'13	،	_	_	_
'14	به‌خاطر	_	_	_
'15	پیروزی‌ها	_	_	_
'16	شادی	_	_	_
'17	می‌کرد	_	_	VERB
'18	و	_	_	_
'19	از	_	_	_
'20	بدعت‌گذاردن	_	_	_
'21	متنفر	_	_	_
'22	بود	_	_	VERB
'23	و	_	_	_
'24	از	_	_	_
'25	این	_	_	_
'26	جهات	_	_	_
'27	هیچ‌یک	_	_	_
'28	از	_	_	_
'29	اعضای	_	_	_
'30	ساده	_	_	_
'31	حزب	_	_	_
'32	با	_	_	_
'33	او	_	_	_
'34	برابری	_	_	_
'35	نمی‌کردند	_	_	VERB
'36	.	_	_	_

# source_sent_id = . . autogen--data.parsemetsv--996
# text = ولی رک‌گویی خاصی در همه رفتار ش به چشم می‌خورد .
'1	ولی	_	_	_
'2	رک‌گویی	_	_	_
'3	خاصی	_	_	_
'4	در	_	_	_
'5	همه	_	_	_
'6	رفتار	_	_	_
'7	ش	_	_	_
'8	به	_	_	_
'9	چشم	_	_	_
'10	می‌خورد	_	_	VERB
'11	.	_	_	_

# source_sent_id = . . autogen--data.parsemetsv--997
# text = چیزهایی را بر زبان می‌آورد که نگفتن ش بهتر بود ، کتاب‌های زیادی خوانده بود ، به کافه « درخت شاه‌بلوط » که پاتوق نقاشان و موسیقی‌دان‌ها بود ، زیاد رفت‌وآمد می‌کرد .
'1	چیزهایی	_	_	_
'2	را	_	_	_
'3	بر	_	_	_
'4	زبان	_	_	_
'5	می‌آورد	_	_	VERB
'6	که	_	_	_
'7	نگفتن	_	_	_
'8	ش	_	_	_
'9	بهتر	_	_	_
'10	بود	_	_	VERB
'11	،	_	_	_
'12	کتاب‌های	_	_	_
'13	زیادی	_	_	_
'14	خوانده	_	_	VERB
'15	بود	_	_	_
'16	،	_	_	_
'17	به	_	_	_
'18	کافه	_	_	_
'19	«	_	_	_
'20	درخت	_	_	_
'21	شاه‌بلوط	_	_	_
'22	»	_	_	_
'23	که	_	_	_
'24	پاتوق	_	_	_
'25	نقاشان	_	_	_
'26	و	_	_	_
'27	موسیقی‌دان‌ها	_	_	_
'28	بود	_	_	VERB
'29	،	_	_	_
'30	زیاد	_	_	_
'31	رفت‌وآمد	_	_	_
'32	می‌کرد	_	_	VERB
'33	.	_	_	_

# source_sent_id = . . autogen--data.parsemetsv--998
# text = اگرچه هیچ قانون مکتوب یا نانوشته‌ای رفتن به آن کافه را ممنوع نمی‌کرد ، ولی آنجا به نوعی بدشگون به حساب می‌آمد .
'1	اگرچه	_	_	_
'2	هیچ	_	_	_
'3	قانون	_	_	_
'4	مکتوب	_	_	_
'5	یا	_	_	_
'6	نانوشته‌ای	_	_	_
'7	رفتن	_	_	_
'8	به	_	_	_
'9	آن	_	_	_
'10	کافه	_	_	_
'11	را	_	_	_
'12	ممنوع	_	_	_
'13	نمی‌کرد	_	_	VERB
'14	،	_	_	_
'15	ولی	_	_	_
'16	آنجا	_	_	_
'17	به	_	_	_
'18	نوعی	_	_	_
'19	بدشگون	_	_	_
'20	به	_	_	_
'21	حساب	_	_	_
'22	می‌آمد	_	_	VERB
'23	.	_	_	_

# source_sent_id = . . autogen--data.parsemetsv--999
# text = رهبران قبلی حزب که بعدها رسوا شدند قبل‌از تصفیه‌شدن ، در آن کافه دور هم جمع می‌شدند .
'1	رهبران	_	_	_
'2	قبلی	_	_	_
'3	حزب	_	_	_
'4	که	_	_	_
'5	بعدها	_	_	_
'6	رسوا	_	_	_
'7	شدند	_	_	VERB
'8	قبل‌از	_	_	_
'9	تصفیه‌شدن	_	_	_
'10	،	_	_	_
'11	در	_	_	_
'12	آن	_	_	_
'13	کافه	_	_	_
'14	دور	_	_	_
'15	هم	_	_	_
'16	جمع	_	_	_
'17	می‌شدند	_	_	VERB
'18	.	_	_	_

# source_sent_id = . . autogen--data.parsemetsv--1000
# text = می‌گفتند سال‌ها قبل و حتی شاید دهه‌های قبل ، خود گلدشتاین را هم گاهی در آن کافه دیده بودند .
'1	می‌گفتند	_	_	VERB
'2	سال‌ها	_	_	_
'3	قبل	_	_	_
'4	و	_	_	_
'5	حتی	_	_	_
'6	شاید	_	_	_
'7	دهه‌های	_	_	_
'8	قبل	_	_	_
'9	،	_	_	_
'10	خود	_	_	_
'11	گلدشتاین	_	_	_
'12	را	_	_	_
'13	هم	_	_	_
'14	گاهی	_	_	_
'15	در	_	_	_
'16	آن	_	_	_
'17	کافه	_	_	_
'18	دیده	_	_	VERB
'19	بودند	_	_	_
'20	.	_	_	_

# source_sent_id = . . autogen--data.parsemetsv--1001
# text = پیش‌بینی سرنوشت سایم کار مشکلی نبود .
'1	پیش‌بینی	_	_	_
'2	سرنوشت	_	_	_
'3	سایم	_	_	_
'4	کار	_	_	_
'5	مشکلی	_	_	_
'6	نبود	_	_	VERB
'7	.	_	_	_

# source_sent_id = . . autogen--data.parsemetsv--1002
# text = باوجوداین وینستون شک نداشت که اگر سایم به گوشه‌ای از افکار ناگفته او پی می‌برد فورا او را به پلیس افکار لو می‌داد .
'1	باوجوداین	_	_	_
'2	وینستون	_	_	_
'3	شک	_	_	_
'4	نداشت	_	_	VERB
'5	که	_	_	_
'6	اگر	_	_	_
'7	سایم	_	_	_
'8	به	_	_	_
'9	گوشه‌ای	_	_	_
'10	از	_	_	_
'11	افکار	_	_	_
'12	ناگفته	_	_	_
'13	او	_	_	_
'14	پی	_	_	_
'15	می‌برد	_	_	VERB
'16	فورا	_	_	_
'17	او	_	_	_
'18	را	_	_	_
'19	به	_	_	_
'20	پلیس	_	_	_
'21	افکار	_	_	_
'22	لو	_	_	_
'23	می‌داد	_	_	VERB
'24	.	_	_	_

# source_sent_id = . . autogen--data.parsemetsv--1003
# text = همه در چنین مواقعی همین کار را می‌کردند ، اما سایم از همه زودتر .
'1	همه	_	_	_
'2	در	_	_	_
'3	چنین	_	_	_
'4	مواقعی	_	_	_
'5	همین	_	_	_
'6	کار	_	_	_
'7	را	_	_	_
'8	می‌کردند	_	_	VERB
'9	،	_	_	_
'10	اما	_	_	_
'11	سایم	_	_	_
'12	از	_	_	_
'13	همه	_	_	_
'14	زودتر	_	_	_
'15	.	_	_	_

# source_sent_id = . . autogen--data.parsemetsv--1004
# text = اشتیاق کافی نبود .
'1	اشتیاق	_	_	_
'2	کافی	_	_	_
'3	نبود	_	_	VERB
'4	.	_	_	_

# source_sent_id = . . autogen--data.parsemetsv--1005
# text = پیروی از عقاید مرسوم ناخودآگاه بود .
'1	پیروی	_	_	_
'2	از	_	_	_
'3	عقاید	_	_	_
'4	مرسوم	_	_	_
'5	ناخودآگاه	_	_	_
'6	بود	_	_	VERB
'7	.	_	_	_

# source_sent_id = . . autogen--data.parsemetsv--1006
# text = سایم سر ش را بلند کرد و گفت : « پارسونز دارد می‌آید . »
'1	سایم	_	_	_
'2	سر	_	_	_
'3	ش	_	_	_
'4	را	_	_	_
'5	بلند	_	_	_
'6	کرد	_	_	VERB
'7	و	_	_	_
'8	گفت	_	_	VERB
'9	:	_	_	_
'10	«	_	_	_
'11	پارسونز	_	_	_
'12	دارد	_	_	_
'13	می‌آید	_	_	VERB
'14	.	_	_	_
'15	»	_	_	_

# source_sent_id = . . autogen--data.parsemetsv--1007
# text = در لحن ش چیزی بود که گویی می‌گفت « این احمق بی‌شعور . »
'1	در	_	_	_
'2	لحن	_	_	_
'3	ش	_	_	_
'4	چیزی	_	_	_
'5	بود	_	_	VERB
'6	که	_	_	_
'7	گویی	_	_	_
'8	می‌گفت	_	_	VERB
'9	«	_	_	_
'10	این	_	_	_
'11	احمق	_	_	_
'12	بی‌شعور	_	_	_
'13	.	_	_	_
'14	»	_	_	_

# source_sent_id = . . autogen--data.parsemetsv--1008
# text = پارسونز ، همسایه وینستون در عمارت پیروزی ، در واقع داشت راه خودش را می‌رفت – مردی با قامت متوسط و چاق و موهایی بور و صورتی به شکل وزغ .
'1	پارسونز	_	_	_
'2	،	_	_	_
'3	همسایه	_	_	_
'4	وینستون	_	_	_
'5	در	_	_	_
'6	عمارت	_	_	_
'7	پیروزی	_	_	_
'8	،	_	_	_
'9	در	_	_	_
'10	واقع	_	_	_
'11	داشت	_	_	_
'12	راه	_	_	_
'13	خودش	_	_	_
'14	را	_	_	_
'15	می‌رفت	_	_	VERB
'16	–	_	_	_
'17	مردی	_	_	_
'18	با	_	_	_
'19	قامت	_	_	_
'20	متوسط	_	_	_
'21	و	_	_	_
'22	چاق	_	_	_
'23	و	_	_	_
'24	موهایی	_	_	_
'25	بور	_	_	_
'26	و	_	_	_
'27	صورتی	_	_	_
'28	به	_	_	_
'29	شکل	_	_	_
'30	وزغ	_	_	_
'31	.	_	_	_

# source_sent_id = . . autogen--data.parsemetsv--1009
# text = هنوز به سی‌وپنج‌سالگی نرسیده ، دور کمر و گردن ش را لایه‌های چربی گرفته بود اما حرکات ش هنوز چابک و پسرانه بود .
'1	هنوز	_	_	_
'2	به	_	_	_
'3	سی‌وپنج‌سالگی	_	_	_
'4	نرسیده	_	_	VERB
'5	،	_	_	_
'6	دور	_	_	_
'7	کمر	_	_	_
'8	و	_	_	_
'9	گردن	_	_	_
'10	ش	_	_	_
'11	را	_	_	_
'12	لایه‌های	_	_	_
'13	چربی	_	_	_
'14	گرفته	_	_	VERB
'15	بود	_	_	_
'16	اما	_	_	_
'17	حرکات	_	_	_
'18	ش	_	_	_
'19	هنوز	_	_	_
'20	چابک	_	_	_
'21	و	_	_	_
'22	پسرانه	_	_	_
'23	بود	_	_	VERB
'24	.	_	_	_

# source_sent_id = . . autogen--data.parsemetsv--1010
# text = ظاهر ش مثل پسربچه‌ای بود که زیادی رشد کرده باشد .
'1	ظاهر	_	_	_
'2	ش	_	_	_
'3	مثل	_	_	_
'4	پسربچه‌ای	_	_	_
'5	بود	_	_	VERB
'6	که	_	_	_
'7	زیادی	_	_	_
'8	رشد	_	_	_
'9	کرده	_	_	VERB
'10	باشد	_	_	_
'11	.	_	_	_

# source_sent_id = . . autogen--data.parsemetsv--1011
# text = آن‌چنانکه باوجود پوشیدن لباس کار مرسوم ، باز هم انگار او را در پیراهن خاکستری و شلوارک کوتاه آبی با دستمال‌گردن قرمز می‌دیدی .
'1	آن‌چنانکه	_	_	_
'2	باوجود	_	_	_
'3	پوشیدن	_	_	_
'4	لباس	_	_	_
'5	کار	_	_	_
'6	مرسوم	_	_	_
'7	،	_	_	_
'8	باز	_	_	_
'9	هم	_	_	_
'10	انگار	_	_	_
'11	او	_	_	_
'12	را	_	_	_
'13	در	_	_	_
'14	پیراهن	_	_	_
'15	خاکستری	_	_	_
'16	و	_	_	_
'17	شلوارک	_	_	_
'18	کوتاه	_	_	_
'19	آبی	_	_	_
'20	با	_	_	_
'21	دستمال‌گردن	_	_	_
'22	قرمز	_	_	_
'23	می‌دیدی	_	_	VERB
'24	.	_	_	_

# source_sent_id = . . autogen--data.parsemetsv--1012
# text = لباسی که مخصوص بچه‌های جاسوس بود .
'1	لباسی	_	_	_
'2	که	_	_	_
'3	مخصوص	_	_	_
'4	بچه‌های	_	_	_
'5	جاسوس	_	_	_
'6	بود	_	_	VERB
'7	.	_	_	_

# source_sent_id = . . autogen--data.parsemetsv--1013
# text = آدم همیشه او را با سرزانوهای جاانداخته و آستین‌هایی که تا ساعد چاقالو یش بالا زده بود در نظر مجسم می‌کرد .
'1	آدم	_	_	_
'2	همیشه	_	_	_
'3	او	_	_	_
'4	را	_	_	_
'5	با	_	_	_
'6	سرزانوهای	_	_	_
'7	جاانداخته	_	_	_
'8	و	_	_	_
'9	آستین‌هایی	_	_	_
'10	که	_	_	_
'11	تا	_	_	_
'12	ساعد	_	_	_
'13	چاقالو	_	_	_
'14	یش	_	_	_
'15	بالا	_	_	_
'16	زده	_	_	VERB
'17	بود	_	_	_
'18	در	_	_	_
'19	نظر	_	_	_
'20	مجسم	_	_	_
'21	می‌کرد	_	_	VERB
'22	.	_	_	_

# source_sent_id = . . autogen--data.parsemetsv--1014
# text = اما اگر فرصتی مانند پیاده‌روی دسته‌جمعی و یا فعالیت‌های بدنی دیگر دست می‌داد او هم بهانه‌ای برای پوشیدن شلوارک به دست می‌آورد .
'1	اما	_	_	_
'2	اگر	_	_	_
'3	فرصتی	_	_	_
'4	مانند	_	_	_
'5	پیاده‌روی	_	_	_
'6	دسته‌جمعی	_	_	_
'7	و	_	_	_
'8	یا	_	_	_
'9	فعالیت‌های	_	_	_
'10	بدنی	_	_	_
'11	دیگر	_	_	_
'12	دست	_	_	_
'13	می‌داد	_	_	VERB
'14	او	_	_	_
'15	هم	_	_	_
'16	بهانه‌ای	_	_	_
'17	برای	_	_	_
'18	پوشیدن	_	_	_
'19	شلوارک	_	_	_
'20	به	_	_	_
'21	دست	_	_	_
'22	می‌آورد	_	_	VERB
'23	.	_	_	_

# source_sent_id = . . autogen--data.parsemetsv--1015
# text = با چهره‌ای بشاش به هر دوی آنها سلام داد و همین‌که کنار میز نشست بوی عرق ش بلند شد .
'1	با	_	_	_
'2	چهره‌ای	_	_	_
'3	بشاش	_	_	_
'4	به	_	_	_
'5	هر	_	_	_
'6	دوی	_	_	_
'7	آنها	_	_	_
'8	سلام	_	_	_
'9	داد	_	_	VERB
'10	و	_	_	_
'11	همین‌که	_	_	_
'12	کنار	_	_	_
'13	میز	_	_	_
'14	نشست	_	_	VERB
'15	بوی	_	_	_
'16	عرق	_	_	_
'17	ش	_	_	_
'18	بلند	_	_	_
'19	شد	_	_	VERB
'20	.	_	_	_

# source_sent_id = . . autogen--data.parsemetsv--1016
# text = قطره‌های درشت عرق روی چهره سرخ ش دیده می‌شد .
'1	قطره‌های	_	_	_
'2	درشت	_	_	_
'3	عرق	_	_	_
'4	روی	_	_	_
'5	چهره	_	_	_
'6	سرخ	_	_	_
'7	ش	_	_	_
'8	دیده	_	_	VERB
'9	می‌شد	_	_	_
'10	.	_	_	_

# source_sent_id = . . autogen--data.parsemetsv--1017
# text = میزان تعریق او بیش از اندازه بود .
'1	میزان	_	_	_
'2	تعریق	_	_	_
'3	او	_	_	_
'4	بیش	_	_	_
'5	از	_	_	_
'6	اندازه	_	_	_
'7	بود	_	_	VERB
'8	.	_	_	_

# source_sent_id = . . autogen--data.parsemetsv--1018
# text = هر وقت به مرکز اجتماعات می‌رفتند ، همه به‌محض لمس‌کردن دسته نم‌دار راکت می‌فهمیدند که او چه موقع تنیس روی میز بازی کرده بود .
'1	هر	_	_	_
'2	وقت	_	_	_
'3	به	_	_	_
'4	مرکز	_	_	_
'5	اجتماعات	_	_	_
'6	می‌رفتند	_	_	VERB
'7	،	_	_	_
'8	همه	_	_	_
'9	به‌محض	_	_	_
'10	لمس‌کردن	_	_	_
'11	دسته	_	_	_
'12	نم‌دار	_	_	_
'13	راکت	_	_	_
'14	می‌فهمیدند	_	_	VERB
'15	که	_	_	_
'16	او	_	_	_
'17	چه	_	_	_
'18	موقع	_	_	_
'19	تنیس	_	_	_
'20	روی	_	_	_
'21	میز	_	_	_
'22	بازی	_	_	_
'23	کرده	_	_	VERB
'24	بود	_	_	_
'25	.	_	_	_

# source_sent_id = . . autogen--data.parsemetsv--1019
# text = سایم یک نوار کاغذی درآورده بود که برروی آن یک ستون طولانی از کلمات نوشته شده بود و با مداد جوهری درلای انگشتان مشغول خواندن آن بود .
'1	سایم	_	_	_
'2	یک	_	_	_
'3	نوار	_	_	_
'4	کاغذی	_	_	_
'5	درآورده	_	_	VERB
'6	بود	_	_	_
'7	که	_	_	_
'8	برروی	_	_	_
'9	آن	_	_	_
'10	یک	_	_	_
'11	ستون	_	_	_
'12	طولانی	_	_	_
'13	از	_	_	_
'14	کلمات	_	_	_
'15	نوشته	_	_	VERB
'16	شده	_	_	_
'17	بود	_	_	_
'18	و	_	_	_
'19	با	_	_	_
'20	مداد	_	_	_
'21	جوهری	_	_	_
'22	درلای	_	_	_
'23	انگشتان	_	_	_
'24	مشغول	_	_	_
'25	خواندن	_	_	_
'26	آن	_	_	_
'27	بود	_	_	VERB
'28	.	_	_	_

# source_sent_id = . . autogen--data.parsemetsv--1020
# text = پارسونز با آرنج به پهلوی وینستون زد و گفت : « نگاه ش کن , سر ناهار هم کار می‌کند ، علاقه است دیگر .
'1	پارسونز	_	_	_
'2	با	_	_	_
'3	آرنج	_	_	_
'4	به	_	_	_
'5	پهلوی	_	_	_
'6	وینستون	_	_	_
'7	زد	_	_	VERB
'8	و	_	_	_
'9	گفت	_	_	VERB
'10	:	_	_	_
'11	«	_	_	_
'12	نگاه	_	_	_
'13	ش	_	_	_
'14	کن	_	_	VERB
'15	,	_	_	_
'16	سر	_	_	_
'17	ناهار	_	_	_
'18	هم	_	_	_
'19	کار	_	_	_
'20	می‌کند	_	_	VERB
'21	،	_	_	_
'22	علاقه	_	_	_
'23	است	_	_	VERB
'24	دیگر	_	_	_
'25	.	_	_	_

# source_sent_id = . . autogen--data.parsemetsv--1021
# text = دوست عزیز اون چی ه دست ت ؟
'1	دوست	_	_	_
'2	عزیز	_	_	_
'3	اون	_	_	_
'4	چی	_	_	_
'5	ه	_	_	VERB
'6	دست	_	_	_
'7	ت	_	_	_
'8	؟	_	_	_

# source_sent_id = . . autogen--data.parsemetsv--1022
# text = غلط نکنم سواد من به آن قد نمی‌دهد .
'1	غلط	_	_	_
'2	نکنم	_	_	VERB
'3	سواد	_	_	_
'4	من	_	_	_
'5	به	_	_	_
'6	آن	_	_	_
'7	قد	_	_	_
'8	نمی‌دهد	_	_	VERB
'9	.	_	_	_

# source_sent_id = . . autogen--data.parsemetsv--1023
# text = اسمیت ، دوست عزیز ، الان به ت می‌گم چرا دنبال ت می‌گشتم .
'1	اسمیت	_	_	_
'2	،	_	_	_
'3	دوست	_	_	_
'4	عزیز	_	_	_
'5	،	_	_	_
'6	الان	_	_	_
'7	به	_	_	_
'8	ت	_	_	_
'9	می‌گم	_	_	VERB
'10	چرا	_	_	_
'11	دنبال	_	_	_
'12	ت	_	_	_
'13	می‌گشتم	_	_	VERB
'14	.	_	_	_

# source_sent_id = . . autogen--data.parsemetsv--1024
# text = تو فراموش کردی اون خرده‌حساب را به من بدهی . »
'1	تو	_	_	_
'2	فراموش	_	_	_
'3	کردی	_	_	VERB
'4	اون	_	_	_
'5	خرده‌حساب	_	_	_
'6	را	_	_	_
'7	به	_	_	_
'8	من	_	_	_
'9	بدهی	_	_	VERB
'10	.	_	_	_
'11	»	_	_	_

# source_sent_id = . . autogen--data.parsemetsv--1025
# text = وینستون بی‌اختیار فکر ش به‌سمت پول رفت و گفت : « کدام خرده‌حساب ؟ »
'1	وینستون	_	_	_
'2	بی‌اختیار	_	_	_
'3	فکر	_	_	_
'4	ش	_	_	_
'5	به‌سمت	_	_	_
'6	پول	_	_	_
'7	رفت	_	_	VERB
'8	و	_	_	_
'9	گفت	_	_	VERB
'10	:	_	_	_
'11	«	_	_	_
'12	کدام	_	_	_
'13	خرده‌حساب	_	_	_
'14	؟	_	_	_
'15	»	_	_	_

# source_sent_id = . . autogen--data.parsemetsv--1026
# text = حدود یک‌چهارم حقوق همه افراد باید صرف پرداخت اشتراک‌های اختیاری می‌شد که تعداد شان غیرقابل‌تصور بود .
'1	حدود	_	_	_
'2	یک‌چهارم	_	_	_
'3	حقوق	_	_	_
'4	همه	_	_	_
'5	افراد	_	_	_
'6	باید	_	_	VERB
'7	صرف	_	_	_
'8	پرداخت	_	_	_
'9	اشتراک‌های	_	_	_
'10	اختیاری	_	_	_
'11	می‌شد	_	_	VERB
'12	که	_	_	_
'13	تعداد	_	_	_
'14	شان	_	_	_
'15	غیرقابل‌تصور	_	_	_
'16	بود	_	_	VERB
'17	.	_	_	_

# source_sent_id = . . autogen--data.parsemetsv--1027
# text = – خودت که می‌دانی .
'1	–	_	_	_
'2	خودت	_	_	_
'3	که	_	_	_
'4	می‌دانی	_	_	VERB
'5	.	_	_	_

# source_sent_id = . . autogen--data.parsemetsv--1028
# text = برای هفته ابراز تنفر ، کمک خانه‌به‌خانه .
'1	برای	_	_	_
'2	هفته	_	_	_
'3	ابراز	_	_	_
'4	تنفر	_	_	_
'5	،	_	_	_
'6	کمک	_	_	_
'7	خانه‌به‌خانه	_	_	_
'8	.	_	_	_

# source_sent_id = . . autogen--data.parsemetsv--1029
# text = من خزانه‌دار مجتمع خودمان هستم .
'1	من	_	_	_
'2	خزانه‌دار	_	_	_
'3	مجتمع	_	_	_
'4	خودمان	_	_	_
'5	هستم	_	_	VERB
'6	.	_	_	_

# source_sent_id = . . autogen--data.parsemetsv--1030
# text = داریم حسابی تلاش می‌کنیم یک نمایش جانانه راه بیندازیم .
'1	داریم	_	_	_
'2	حسابی	_	_	_
'3	تلاش	_	_	_
'4	می‌کنیم	_	_	VERB
'5	یک	_	_	_
'6	نمایش	_	_	_
'7	جانانه	_	_	_
'8	راه	_	_	_
'9	بیندازیم	_	_	VERB
'10	.	_	_	_

# source_sent_id = . . autogen--data.parsemetsv--1031
# text = به‌هرحال به ت گفته باشم اگر عمارت پیروزی نتواند زیباترین آذین‌بندی خیابان‌ها را نمایش دهد تقصیر من نیست .
'1	به‌هرحال	_	_	_
'2	به	_	_	_
'3	ت	_	_	_
'4	گفته	_	_	VERB
'5	باشم	_	_	_
'6	اگر	_	_	_
'7	عمارت	_	_	_
'8	پیروزی	_	_	_
'9	نتواند	_	_	VERB
'10	زیباترین	_	_	_
'11	آذین‌بندی	_	_	_
'12	خیابان‌ها	_	_	_
'13	را	_	_	_
'14	نمایش	_	_	_
'15	دهد	_	_	VERB
'16	تقصیر	_	_	_
'17	من	_	_	_
'18	نیست	_	_	VERB
'19	.	_	_	_

# source_sent_id = . . autogen--data.parsemetsv--1032
# text = قول دو دلار را به من داده بودی .
'1	قول	_	_	_
'2	دو	_	_	_
'3	دلار	_	_	_
'4	را	_	_	_
'5	به	_	_	_
'6	من	_	_	_
'7	داده	_	_	VERB
'8	بودی	_	_	_
'9	.	_	_	_

# source_sent_id = . . autogen--data.parsemetsv--1033
# text = وینستون دو اسکناس کثیف مچاله‌شده از جیب درآورد و به پارسونز داد .
'1	وینستون	_	_	_
'2	دو	_	_	_
'3	اسکناس	_	_	_
'4	کثیف	_	_	_
'5	مچاله‌شده	_	_	_
'6	از	_	_	_
'7	جیب	_	_	_
'8	درآورد	_	_	VERB
'9	و	_	_	_
'10	به	_	_	_
'11	پارسونز	_	_	_
'12	داد	_	_	VERB
'13	.	_	_	_
